<?xml version="1.0" encoding="UTF-8"?>
<kml xmlns="http://www.opengis.net/kml/2.2" xmlns:gx="http://www.google.com/kml/ext/2.2" xmlns:kml="http://www.opengis.net/kml/2.2" xmlns:atom="http://www.w3.org/2005/Atom">
<Document>
	<!-- Project Area -->
	<Style id="s_proj_area">
		<LineStyle>
			<color>ff00ff00</color>
			<width>4</width>
			<gx:altitudeMode>clampedToGround</gx:altitudeMode>
		</LineStyle>
		<PolyStyle>
			<color>0000ff00</color>
			<fill>0</fill>
			<gx:altitudeMode>clampedToGround</gx:altitudeMode>
		</PolyStyle>
    </Style>
	<Style id="h_proj_area">
		<LineStyle>
			<color>ff00ff00</color>
			<width>4</width>
			<gx:altitudeMode>clampedToGround</gx:altitudeMode>
		</LineStyle>
		<PolyStyle>
			<color>0000ff00</color>
			<fill>0</fill>
			<gx:altitudeMode>clampedToGround</gx:altitudeMode>
		</PolyStyle>
    </Style>
	<StyleMap id="m_proj_area">
		<Pair>
			<key>normal</key>
			<styleUrl>#s_proj_area</styleUrl>
		</Pair>
		<Pair>
			<key>highlight</key>
			<styleUrl>#h_proj_area</styleUrl>
		</Pair>
	</StyleMap>
	
	<!-- Tiang Planned -->
	<Style id="s_tiang">
		<IconStyle>
		<color>ff000000</color>
			<scale>1.1</scale>
			<Icon>
				<href>http://maps.google.com/mapfiles/kml/shapes/shaded_dot.png</href>
			</Icon>
			<hotSpot x="25" y="35" xunits="pixels" yunits="pixels"/>
		</IconStyle>
	</Style>
	<Style id="h_tiang">
		<IconStyle>
		<color>ff000000</color>
			<scale>1.3</scale>
			<Icon>
				<href>http://maps.google.com/mapfiles/kml/shapes/shaded_dot.png</href>
			</Icon>
			<hotSpot x="25" y="35" xunits="pixels" yunits="pixels"/>
		</IconStyle>
	</Style>
	<StyleMap id="m_tiang">
		<Pair>
			<key>normal</key>
			<styleUrl>#s_tiang</styleUrl>
		</Pair>
		<Pair>
			<key>highlight</key>
			<styleUrl>#h_tiang</styleUrl>
		</Pair>
	</StyleMap>
	
	<!-- Tiang Existing -->
	<Style id="s_tiang_e">
		<IconStyle>
		<color>ff000000</color>
			<scale>0.9</scale>
			<Icon>
				<href>http://maps.google.com/mapfiles/kml/shapes/donut.png</href>
			</Icon>
			<hotSpot x="25" y="35" xunits="pixels" yunits="pixels"/>
		</IconStyle>
	</Style>
	<Style id="h_tiang_e">
		<IconStyle>
		<color>ff000000</color>
			<scale>1.1</scale>
			<Icon>
				<href>http://maps.google.com/mapfiles/kml/shapes/donut.png</href>
			</Icon>
			<hotSpot x="25" y="35" xunits="pixels" yunits="pixels"/>
		</IconStyle>
	</Style>
	<StyleMap id="m_tiang_e">
		<Pair>
			<key>normal</key>
			<styleUrl>#s_tiang_e</styleUrl>
		</Pair>
		<Pair>
			<key>highlight</key>
			<styleUrl>#h_tiang_e</styleUrl>
		</Pair>
	</StyleMap>
	
	<!-- ODP -->
	<Style id="s_odp">
		<IconStyle>
			<scale>1.1</scale>
			<Icon>
				<href>http://maps.google.com/mapfiles/kml/paddle/ylw-stars.png</href>
			</Icon>
			<hotSpot x="30" y="1" xunits="pixels" yunits="pixels"/>
		</IconStyle>
	</Style>
	<Style id="h_odp">
		<IconStyle>
			<scale>1.3</scale>
			<Icon>
				<href>http://maps.google.com/mapfiles/kml/paddle/ylw-stars.png</href>
			</Icon>
			<hotSpot x="30" y="1" xunits="pixels" yunits="pixels"/>
		</IconStyle>
	</Style>
	<StyleMap id="m_odp">
		<Pair>
			<key>normal</key>
			<styleUrl>#s_odp</styleUrl>
		</Pair>
		<Pair>
			<key>highlight</key>
			<styleUrl>#h_odp</styleUrl>
		</Pair>
	</StyleMap>
	
	<!-- ODP SC-OF-SM-->
	<Style id="s_odp_scofsm">
		<IconStyle>
			<scale>1.1</scale>
			<Icon>
				<href>http://maps.google.com/mapfiles/kml/shapes/forbidden.png</href>
			</Icon>
			<hotSpot x="30" y="30" xunits="pixels" yunits="pixels"/>
		</IconStyle>
	</Style>
	<Style id="h_odp_scofsm">
		<IconStyle>
			<scale>1.3</scale>
			<Icon>
				<href>http://maps.google.com/mapfiles/kml/shapes/forbidden.png</href>
			</Icon>
			<hotSpot x="30" y="30" xunits="pixels" yunits="pixels"/>
		</IconStyle>
	</Style>
	<StyleMap id="m_odp_scofsm">
		<Pair>
			<key>normal</key>
			<styleUrl>#s_odp_scofsm</styleUrl>
		</Pair>
		<Pair>
			<key>highlight</key>
			<styleUrl>#h_odp_scofsm</styleUrl>
		</Pair>
	</StyleMap>
	
	<!-- ODC -->
	<Style id="s_odc">
		<IconStyle>
		<color>ff0000ff</color>
			<scale>2</scale>
			<Icon>
				<href>http://maps.google.com/mapfiles/kml/shapes/triangle.png</href>
			</Icon>
		</IconStyle>
	</Style>
	<Style id="h_odc">
		<IconStyle>
			<color>ff0000ff</color>
			<scale>2.36364</scale>
			<Icon>
				<href>http://maps.google.com/mapfiles/kml/shapes/triangle.png</href>
			</Icon>
		</IconStyle>
	</Style>
	<StyleMap id="m_odc">
		<Pair>
			<key>normal</key>
			<styleUrl>#s_odc</styleUrl>
		</Pair>
		<Pair>
			<key>highlight</key>
			<styleUrl>#h_odc</styleUrl>
		</Pair>
	</StyleMap>
	
	<!-- Underground Route -->
	<Style id="s_urute">
		<LineStyle>
			<color>ff7800F0</color>
			<width>11</width>
		</LineStyle>
	</Style>
	<Style id="h_urute">
		<LineStyle>
			<color>ff7800F0</color>
			<width>11</width>
		</LineStyle>
	</Style>
	<StyleMap id="m_urute">
		<Pair>
			<key>normal</key>
			<styleUrl>#s_urute</styleUrl>
		</Pair>
		<Pair>
			<key>highlight</key>
			<styleUrl>#h_urute</styleUrl>
		</Pair>
	</StyleMap>
	
	<!-- Kabel -->
	<Style id="s_kabel">
		<LineStyle>
			<color>ff00ffff</color>
			<width>6</width>
		</LineStyle>
	</Style>
	<Style id="h_kabel">
		<LineStyle>
			<color>ff00ffff</color>
			<width>6</width>
		</LineStyle>
	</Style>
	<StyleMap id="m_kabel_unset">
		<Pair>
			<key>normal</key>
			<styleUrl>#s_kabel</styleUrl>
		</Pair>
		<Pair>
			<key>highlight</key>
			<styleUrl>#h_kabel</styleUrl>
		</Pair>
	</StyleMap>
	
	<!-- Kabel Existing-->
	<Style id="s_kabel_e">
		<LineStyle>
			<color>ff00ffff</color>
			<width>3</width>
		</LineStyle>
	</Style>
	<Style id="h_kabel_e">
		<LineStyle>
			<color>ff00ffff</color>
			<width>3</width>
		</LineStyle>
	</Style>
	<StyleMap id="m_kabel_e_unset">
		<Pair>
			<key>normal</key>
			<styleUrl>#s_kabel</styleUrl>
		</Pair>
		<Pair>
			<key>highlight</key>
			<styleUrl>#h_kabel</styleUrl>
		</Pair>
	</StyleMap>
	
	<!-- Kabel D01 -->
	<Style id="s_kabel_D01">
		<LineStyle>
			<color>ffff0000</color>
			<width>6</width>
		</LineStyle>
	</Style>
	<Style id="h_kabel_D01">
		<LineStyle>
			<color>ffff0000</color>
			<width>6</width>
		</LineStyle>
	</Style>
	<StyleMap id="m_kabel_1">
		<Pair>
			<key>normal</key>
			<styleUrl>#s_kabel_D01</styleUrl>
		</Pair>
		<Pair>
			<key>highlight</key>
			<styleUrl>#h_kabel_D01</styleUrl>
		</Pair>
	</StyleMap>
	
	<!-- Kabel Existing D01-->
	<Style id="s_kabel_e_D01">
		<LineStyle>
			<color>ffff0000</color>
			<width>3</width>
		</LineStyle>
	</Style>
	<Style id="h_kabel_e_D01">
		<LineStyle>
			<color>ffff0000</color>
			<width>3</width>
		</LineStyle>
	</Style>
	<StyleMap id="m_kabel_e_1">
		<Pair>
			<key>normal</key>
			<styleUrl>#s_kabel_e_D01</styleUrl>
		</Pair>
		<Pair>
			<key>highlight</key>
			<styleUrl>#h_kabel_e_D01</styleUrl>
		</Pair>
	</StyleMap>
	
	<!-- Kabel D02 -->
	<Style id="s_kabel_D02">
		<LineStyle>
			<color>ff0055ff</color>
			<width>6</width>
		</LineStyle>
	</Style>
	<Style id="h_kabel_D02">
		<LineStyle>
			<color>ff0055ff</color>
			<width>6</width>
		</LineStyle>
	</Style>
	<StyleMap id="m_kabel_2">
		<Pair>
			<key>normal</key>
			<styleUrl>#s_kabel_D02</styleUrl>
		</Pair>
		<Pair>
			<key>highlight</key>
			<styleUrl>#h_kabel_D02</styleUrl>
		</Pair>
	</StyleMap>
	
	<!-- Kabel Existing D02-->
	<Style id="s_kabel_e_D02">
		<LineStyle>
			<color>ff0055ff</color>
			<width>3</width>
		</LineStyle>
	</Style>
	<Style id="h_kabel_e_D02">
		<LineStyle>
			<color>ff0055ff</color>
			<width>3</width>
		</LineStyle>
	</Style>
	<StyleMap id="m_kabel_e_2">
		<Pair>
			<key>normal</key>
			<styleUrl>#s_kabel_e_D02</styleUrl>
		</Pair>
		<Pair>
			<key>highlight</key>
			<styleUrl>#h_kabel_e_D02</styleUrl>
		</Pair>
	</StyleMap>
	
	<!-- Kabel D03 -->
	<Style id="s_kabel_D03">
		<LineStyle>
			<color>ff00ff55</color>
			<width>6</width>
		</LineStyle>
	</Style>
	<Style id="h_kabel_D03">
		<LineStyle>
			<color>ff00ff55</color>
			<width>6</width>
		</LineStyle>
	</Style>
	<StyleMap id="m_kabel_3">
		<Pair>
			<key>normal</key>
			<styleUrl>#s_kabel_D03</styleUrl>
		</Pair>
		<Pair>
			<key>highlight</key>
			<styleUrl>#h_kabel_D03</styleUrl>
		</Pair>
	</StyleMap>
	
	<!-- Kabel Existing D03-->
	<Style id="s_kabel_e_D03">
		<LineStyle>
			<color>ff00ff55</color>
			<width>3</width>
		</LineStyle>
	</Style>
	<Style id="h_kabel_e_D03">
		<LineStyle>
			<color>ff00ff55</color>
			<width>3</width>
		</LineStyle>
	</Style>
	<StyleMap id="m_kabel_e_3">
		<Pair>
			<key>normal</key>
			<styleUrl>#s_kabel_e_D03</styleUrl>
		</Pair>
		<Pair>
			<key>highlight</key>
			<styleUrl>#h_kabel_e_D03</styleUrl>
		</Pair>
	</StyleMap>
	
	<!-- Kabel D04 -->
	<Style id="s_kabel_D04">
		<LineStyle>
			<color>ff0055aa</color>
			<width>6</width>
		</LineStyle>
	</Style>
	<Style id="h_kabel_D04">
		<LineStyle>
			<color>ff0055aa</color>
			<width>6</width>
		</LineStyle>
	</Style>
	<StyleMap id="m_kabel_4">
		<Pair>
			<key>normal</key>
			<styleUrl>#s_kabel_D04</styleUrl>
		</Pair>
		<Pair>
			<key>highlight</key>
			<styleUrl>#h_kabel_D04</styleUrl>
		</Pair>
	</StyleMap>
	
	<!-- Kabel Existing D04-->
	<Style id="s_kabel_e_D04">
		<LineStyle>
			<color>ff0055aa</color>
			<width>3</width>
		</LineStyle>
	</Style>
	<Style id="h_kabel_e_D04">
		<LineStyle>
			<color>ff0055aa</color>
			<width>3</width>
		</LineStyle>
	</Style>
	<StyleMap id="m_kabel_e_4">
		<Pair>
			<key>normal</key>
			<styleUrl>#s_kabel_e_D04</styleUrl>
		</Pair>
		<Pair>
			<key>highlight</key>
			<styleUrl>#h_kabel_e_D04</styleUrl>
		</Pair>
	</StyleMap>
	
	<!-- Kabel D05 -->
	<Style id="s_kabel_D05">
		<LineStyle>
			<color>ffaaaaaa</color>
			<width>6</width>
		</LineStyle>
	</Style>
	<Style id="h_kabel_D05">
		<LineStyle>
			<color>ffaaaaaa</color>
			<width>6</width>
		</LineStyle>
	</Style>
	<StyleMap id="m_kabel_5">
		<Pair>
			<key>normal</key>
			<styleUrl>#s_kabel_D05</styleUrl>
		</Pair>
		<Pair>
			<key>highlight</key>
			<styleUrl>#h_kabel_D05</styleUrl>
		</Pair>
	</StyleMap>
	
	<!-- Kabel Existing D05-->
	<Style id="s_kabel_e_D05">
		<LineStyle>
			<color>ffaaaaaa</color>
			<width>3</width>
		</LineStyle>
	</Style>
	<Style id="h_kabel_e_D05">
		<LineStyle>
			<color>ffaaaaaa</color>
			<width>3</width>
		</LineStyle>
	</Style>
	<StyleMap id="m_kabel_e_5">
		<Pair>
			<key>normal</key>
			<styleUrl>#s_kabel_e_D05</styleUrl>
		</Pair>
		<Pair>
			<key>highlight</key>
			<styleUrl>#h_kabel_e_D05</styleUrl>
		</Pair>
	</StyleMap>
	
	<!-- Kabel D06 -->
	<Style id="s_kabel_D06">
		<LineStyle>
			<color>ffffffff</color>
			<width>6</width>
		</LineStyle>
	</Style>
	<Style id="h_kabel_D06">
		<LineStyle>
			<color>ffffffff</color>
			<width>6</width>
		</LineStyle>
	</Style>
	<StyleMap id="m_kabel_6">
		<Pair>
			<key>normal</key>
			<styleUrl>#s_kabel_D06</styleUrl>
		</Pair>
		<Pair>
			<key>highlight</key>
			<styleUrl>#h_kabel_D06</styleUrl>
		</Pair>
	</StyleMap>
	
	<!-- Kabel Existing D06-->
	<Style id="s_kabel_e_D06">
		<LineStyle>
			<color>ffffffff</color>
			<width>3</width>
		</LineStyle>
	</Style>
	<Style id="h_kabel_e_D06">
		<LineStyle>
			<color>ffffffff</color>
			<width>3</width>
		</LineStyle>
	</Style>
	<StyleMap id="m_kabel_e_6">
		<Pair>
			<key>normal</key>
			<styleUrl>#s_kabel_e_D06</styleUrl>
		</Pair>
		<Pair>
			<key>highlight</key>
			<styleUrl>#h_kabel_e_D06</styleUrl>
		</Pair>
	</StyleMap>
	
	<!-- Kabel D07 -->
	<Style id="s_kabel_D07">
		<LineStyle>
			<color>ff0000ff</color>
			<width>6</width>
		</LineStyle>
	</Style>
	<Style id="h_kabel_D07">
		<LineStyle>
			<color>ff0000ff</color>
			<width>6</width>
		</LineStyle>
	</Style>
	<StyleMap id="m_kabel_7">
		<Pair>
			<key>normal</key>
			<styleUrl>#s_kabel_D07</styleUrl>
		</Pair>
		<Pair>
			<key>highlight</key>
			<styleUrl>#h_kabel_D07</styleUrl>
		</Pair>
	</StyleMap>
	
	<!-- Kabel Existing D07-->
	<Style id="s_kabel_e_D07">
		<LineStyle>
			<color>ff0000ff</color>
			<width>3</width>
		</LineStyle>
	</Style>
	<Style id="h_kabel_e_D07">
		<LineStyle>
			<color>ff0000ff</color>
			<width>3</width>
		</LineStyle>
	</Style>
	<StyleMap id="m_kabel_e_7">
		<Pair>
			<key>normal</key>
			<styleUrl>#s_kabel_e_D07</styleUrl>
		</Pair>
		<Pair>
			<key>highlight</key>
			<styleUrl>#h_kabel_e_D07</styleUrl>
		</Pair>
	</StyleMap>
	
	<!-- Kabel D08 -->
	<Style id="s_kabel_D08">
		<LineStyle>
			<color>ff000000</color>
			<width>6</width>
		</LineStyle>
	</Style>
	<Style id="h_kabel_D08">
		<LineStyle>
			<color>ff000000</color>
			<width>6</width>
		</LineStyle>
	</Style>
	<StyleMap id="m_kabel_8">
		<Pair>
			<key>normal</key>
			<styleUrl>#s_kabel_D08</styleUrl>
		</Pair>
		<Pair>
			<key>highlight</key>
			<styleUrl>#h_kabel_D08</styleUrl>
		</Pair>
	</StyleMap>
	
	<!-- Kabel Existing D08-->
	<Style id="s_kabel_e_D08">
		<LineStyle>
			<color>ff000000</color>
			<width>3</width>
		</LineStyle>
	</Style>
	<Style id="h_kabel_e_D08">
		<LineStyle>
			<color>ff000000</color>
			<width>3</width>
		</LineStyle>
	</Style>
	<StyleMap id="m_kabel_e_8">
		<Pair>
			<key>normal</key>
			<styleUrl>#s_kabel_e_D08</styleUrl>
		</Pair>
		<Pair>
			<key>highlight</key>
			<styleUrl>#h_kabel_e_D08</styleUrl>
		</Pair>
	</StyleMap>
	
	<!-- Kabel D09 -->
	<Style id="s_kabel_D09">
		<LineStyle>
			<color>ff00ffff</color>
			<width>6</width>
		</LineStyle>
	</Style>
	<Style id="h_kabel_D09">
		<LineStyle>
			<color>ff00ffff</color>
			<width>6</width>
		</LineStyle>
	</Style>
	<StyleMap id="m_kabel_9">
		<Pair>
			<key>normal</key>
			<styleUrl>#s_kabel_D09</styleUrl>
		</Pair>
		<Pair>
			<key>highlight</key>
			<styleUrl>#h_kabel_D09</styleUrl>
		</Pair>
	</StyleMap>
	
	<!-- Kabel Existing D09-->
	<Style id="s_kabel_e_D09">
		<LineStyle>
			<color>ff00ffff</color>
			<width>3</width>
		</LineStyle>
	</Style>
	<Style id="h_kabel_e_D09">
		<LineStyle>
			<color>ff00ffff</color>
			<width>3</width>
		</LineStyle>
	</Style>
	<StyleMap id="m_kabel_e_9">
		<Pair>
			<key>normal</key>
			<styleUrl>#s_kabel_e_D09</styleUrl>
		</Pair>
		<Pair>
			<key>highlight</key>
			<styleUrl>#h_kabel_e_D09</styleUrl>
		</Pair>
	</StyleMap>
	
	<!-- Kabel D10 -->
	<Style id="s_kabel_D10">
		<LineStyle>
			<color>ffb95eff</color>
			<width>6</width>
		</LineStyle>
	</Style>
	<Style id="h_kabel_D10">
		<LineStyle>
			<color>ffb95eff</color>
			<width>6</width>
		</LineStyle>
	</Style>
	<StyleMap id="m_kabel_10">
		<Pair>
			<key>normal</key>
			<styleUrl>#s_kabel_D10</styleUrl>
		</Pair>
		<Pair>
			<key>highlight</key>
			<styleUrl>#h_kabel_D10</styleUrl>
		</Pair>
	</StyleMap>
	
	<!-- Kabel Existing D10-->
	<Style id="s_kabel_e_D10">
		<LineStyle>
			<color>ffb95eff</color>
			<width>3</width>
		</LineStyle>
	</Style>
	<Style id="h_kabel_e_D10">
		<LineStyle>
			<color>ffb95eff</color>
			<width>3</width>
		</LineStyle>
	</Style>
	<StyleMap id="m_kabel_e_10">
		<Pair>
			<key>normal</key>
			<styleUrl>#s_kabel_e_D10</styleUrl>
		</Pair>
		<Pair>
			<key>highlight</key>
			<styleUrl>#h_kabel_e_D10</styleUrl>
		</Pair>
	</StyleMap>
	
	<!-- Kabel D11 -->
	<Style id="s_kabel_D11">
		<LineStyle>
			<color>ffff00aa</color>
			<width>6</width>
		</LineStyle>
	</Style>
	<Style id="h_kabel_D11">
		<LineStyle>
			<color>ffff00aa</color>
			<width>6</width>
		</LineStyle>
	</Style>
	<StyleMap id="m_kabel_11">
		<Pair>
			<key>normal</key>
			<styleUrl>#s_kabel_D11</styleUrl>
		</Pair>
		<Pair>
			<key>highlight</key>
			<styleUrl>#h_kabel_D11</styleUrl>
		</Pair>
	</StyleMap>
	
	<!-- Kabel Existing D11-->
	<Style id="s_kabel_e_D11">
		<LineStyle>
			<color>ffff00aa</color>
			<width>3</width>
		</LineStyle>
	</Style>
	<Style id="h_kabel_e_D11">
		<LineStyle>
			<color>ffff00aa</color>
			<width>3</width>
		</LineStyle>
	</Style>
	<StyleMap id="m_kabel_e_11">
		<Pair>
			<key>normal</key>
			<styleUrl>#s_kabel_e_D11</styleUrl>
		</Pair>
		<Pair>
			<key>highlight</key>
			<styleUrl>#h_kabel_e_D11</styleUrl>
		</Pair>
	</StyleMap>
	
	<!-- Kabel D12 -->
	<Style id="s_kabel_D12">
		<LineStyle>
			<color>ffffffaa</color>
			<width>6</width>
		</LineStyle>
	</Style>
	<Style id="h_kabel_D12">
		<LineStyle>
			<color>ffffffaa</color>
			<width>6</width>
		</LineStyle>
	</Style>
	<StyleMap id="m_kabel_12">
		<Pair>
			<key>normal</key>
			<styleUrl>#s_kabel_D12</styleUrl>
		</Pair>
		<Pair>
			<key>highlight</key>
			<styleUrl>#h_kabel_D12</styleUrl>
		</Pair>
	</StyleMap>
	
	<!-- Kabel Existing D12-->
	<Style id="s_kabel_e_D12">
		<LineStyle>
			<color>ffffffaa</color>
			<width>3</width>
		</LineStyle>
	</Style>
	<Style id="h_kabel_e_D12">
		<LineStyle>
			<color>ffffffaa</color>
			<width>3</width>
		</LineStyle>
	</Style>
	<StyleMap id="m_kabel_e_12">
		<Pair>
			<key>normal</key>
			<styleUrl>#s_kabel_e_D12</styleUrl>
		</Pair>
		<Pair>
			<key>highlight</key>
			<styleUrl>#h_kabel_e_D12</styleUrl>
		</Pair>
	</StyleMap>
	
	<!-- Kabel Feeder -->
	<Style id="s_kabel_f">
		<LineStyle>
			<color>FFF00014</color>
			<width>8</width>
		</LineStyle>
	</Style>
	<Style id="h_kabel_f">
		<LineStyle>
			<color>FFF00014</color>
			<width>8</width>
		</LineStyle>
	</Style>
	<StyleMap id="m_kabel_f">
		<Pair>
			<key>normal</key>
			<styleUrl>#s_kabel_f</styleUrl>
		</Pair>
		<Pair>
			<key>highlight</key>
			<styleUrl>#h_kabel_f</styleUrl>
		</Pair>
	</StyleMap>
	
	<!-- Kabel Feeder Existing-->
	<Style id="s_kabel_f_e">
		<LineStyle>
			<color>FFF00014</color>
			<width>4</width>
		</LineStyle>
	</Style>
	<Style id="h_kabel_f_e">
		<LineStyle>
			<color>FFF00014</color>
			<width>4</width>
		</LineStyle>
	</Style>
	<StyleMap id="m_kabel_f_e">
		<Pair>
			<key>normal</key>
			<styleUrl>#s_kabel_f_e</styleUrl>
		</Pair>
		<Pair>
			<key>highlight</key>
			<styleUrl>#h_kabel_f_e</styleUrl>
		</Pair>
	</StyleMap>
	
	<!-- Manhole -->
	<Style id="s_manhole">
		<IconStyle>
			<scale>1.1</scale>
			<Icon>
				<href>http://maps.google.com/mapfiles/kml/shapes/square.png</href>
			</Icon>
			<hotSpot x="1" y="1" xunits="pixels" yunits="pixels"/>
		</IconStyle>
	</Style>
	<Style id="h_manhole">
		<IconStyle>
			<scale>1.3</scale>
			<Icon>
				<href>http://maps.google.com/mapfiles/kml/shapes/square.png</href>
			</Icon>
			<hotSpot x="1" y="1" xunits="pixels" yunits="pixels"/>
		</IconStyle>
	</Style>
	<StyleMap id="m_manhole">
		<Pair>
			<key>normal</key>
			<styleUrl>#s_manhole</styleUrl>
		</Pair>
		<Pair>
			<key>highlight</key>
			<styleUrl>#h_manhole</styleUrl>
		</Pair>
	</StyleMap>
	
	<!-- Handhole -->
	<Style id="s_handhole">
		<IconStyle>
			<scale>1.1</scale>
			<Icon>
				<href>http://maps.google.com/mapfiles/kml/shapes/placemark_square.png</href>
			</Icon>
			<hotSpot x="15" y="15" xunits="pixels" yunits="pixels"/>
		</IconStyle>
	</Style>
	<Style id="h_handhole">
		<IconStyle>
			<scale>1.3</scale>
			<Icon>
				<href>http://maps.google.com/mapfiles/kml/shapes/placemark_square.png</href>
			</Icon>
			<hotSpot x="15" y="15" xunits="pixels" yunits="pixels"/>
		</IconStyle>
	</Style>
	<StyleMap id="m_handhole">
		<Pair>
			<key>normal</key>
			<styleUrl>#s_handhole</styleUrl>
		</Pair>
		<Pair>
			<key>highlight</key>
			<styleUrl>#h_handhole</styleUrl>
		</Pair>
	</StyleMap>
	
	<!-- STO Building -->
	<Style id="s_sto">
		<IconStyle>
			<scale>1.1</scale>
			<Icon>
				<href>http://maps.google.com/mapfiles/kml/shapes/homegardenbusiness.png</href>
			</Icon>
			<hotSpot x="30" y="40" xunits="pixels" yunits="pixels"/>
		</IconStyle>
	</Style>
	<Style id="h_sto">
		<IconStyle>
			<scale>1.3</scale>
			<Icon>
				<href>http://maps.google.com/mapfiles/kml/shapes/homegardenbusiness.png</href>
			</Icon>
			<hotSpot x="30" y="40" xunits="pixels" yunits="pixels"/>
		</IconStyle>
	</Style>
	<StyleMap id="m_sto">
		<Pair>
			<key>normal</key>
			<styleUrl>#s_sto</styleUrl>
		</Pair>
		<Pair>
			<key>highlight</key>
			<styleUrl>#h_sto</styleUrl>
		</Pair>
	</StyleMap>
	
	<!-- MULTIPLE CABLE TEXT INFO -->
	<Style id="s_multi">
		<IconStyle>
			<scale>1.1</scale>
			<Icon>
				<href>http://maps.google.com/mapfiles/kml/shapes/info-i.png</href>
			</Icon>
			<hotSpot x="30" y="30" xunits="pixels" yunits="pixels"/>
		</IconStyle>
	</Style>
	<Style id="h_multi">
		<IconStyle>
			<scale>1.3</scale>
			<Icon>
				<href>http://maps.google.com/mapfiles/kml/shapes/info-i.png</href>
			</Icon>
			<hotSpot x="30" y="30" xunits="pixels" yunits="pixels"/>
		</IconStyle>
	</Style>
	<StyleMap id="m_multi">
		<Pair>
			<key>normal</key>
			<styleUrl>#s_multi</styleUrl>
		</Pair>
		<Pair>
			<key>highlight</key>
			<styleUrl>#h_multi</styleUrl>
		</Pair>
	</StyleMap>
	
	<!-- Demand Point -->
	<Style id="s_dpoint">
		<IconStyle>
		<color>ffffffff</color>
			<scale>1.1</scale>
			<Icon>
				<href>http://maps.google.com/mapfiles/kml/shapes/open-diamond.png</href>
			</Icon>
			<hotSpot x="30" y="30" xunits="pixels" yunits="pixels"/>
		</IconStyle>
	</Style>
	<Style id="h_dpoint">
		<IconStyle>
		<color>ffffffff</color>
			<scale>1.3</scale>
			<Icon>
				<href>http://maps.google.com/mapfiles/kml/shapes/open-diamond.png</href>
			</Icon>
			<hotSpot x="30" y="30" xunits="pixels" yunits="pixels"/>
		</IconStyle>
	</Style>
	<StyleMap id="m_dpoint">
		<Pair>
			<key>normal</key>
			<styleUrl>#s_dpoint</styleUrl>
		</Pair>
		<Pair>
			<key>highlight</key>
			<styleUrl>#h_dpoint</styleUrl>
		</Pair>
	</StyleMap>
	
	<!-- Tower -->
	<Style id="s_tower">
		<IconStyle>
			<scale>1.1</scale>
			<Icon>
				<href>http://maps.google.com/mapfiles/kml/paddle/T.png</href>
			</Icon>
			<hotSpot x="30" y="30" xunits="pixels" yunits="pixels"/>
		</IconStyle>
	</Style>
	<Style id="h_tower">
		<IconStyle>
			<scale>1.3</scale>
			<Icon>
				<href>http://maps.google.com/mapfiles/kml/paddle/T.png</href>
			</Icon>
			<hotSpot x="30" y="30" xunits="pixels" yunits="pixels"/>
		</IconStyle>
	</Style>
	<StyleMap id="m_tower">
		<Pair>
			<key>normal</key>
			<styleUrl>#s_tower</styleUrl>
		</Pair>
		<Pair>
			<key>highlight</key>
			<styleUrl>#h_tower</styleUrl>
		</Pair>
	</StyleMap>
	
	<!-- Wi-Fi -->
	<Style id="s_wifi">
		<IconStyle>
			<color>ff0000ff</color>
			<scale>1.2</scale>
			<Icon>
				<href>http://maps.google.com/mapfiles/kml/shapes/target.png</href>
			</Icon>
			<hotSpot x="30" y="30" xunits="pixels" yunits="pixels"/>
		</IconStyle>
	</Style>
	<Style id="h_wifi">
		<IconStyle>
			<color>ff0000ff</color>
			<scale>1.4</scale>
			<Icon>
				<href>http://maps.google.com/mapfiles/kml/shapes/target.png</href>
			</Icon>
			<hotSpot x="30" y="30" xunits="pixels" yunits="pixels"/>
		</IconStyle>
	</Style>
	<StyleMap id="m_wifi">
		<Pair>
			<key>normal</key>
			<styleUrl>#s_wifi</styleUrl>
		</Pair>
		<Pair>
			<key>highlight</key>
			<styleUrl>#h_wifi</styleUrl>
		</Pair>
	</StyleMap>
	
	<!-- BTS -->
	<Style id="s_bts">
		<IconStyle>
			<scale>1.2</scale>
			<Icon>
				<href>http://maps.google.com/mapfiles/kml/shapes/picnic.png</href>
			</Icon>
			<hotSpot x="30" y="30" xunits="pixels" yunits="pixels"/>
		</IconStyle>
	</Style>
	<Style id="h_bts">
		<IconStyle>
			<scale>1.4</scale>
			<Icon>
				<href>http://maps.google.com/mapfiles/kml/shapes/picnic.png</href>
			</Icon>
			<hotSpot x="30" y="30" xunits="pixels" yunits="pixels"/>
		</IconStyle>
	</Style>
	<StyleMap id="m_bts">
		<Pair>
			<key>normal</key>
			<styleUrl>#s_bts</styleUrl>
		</Pair>
		<Pair>
			<key>highlight</key>
			<styleUrl>#h_bts</styleUrl>
		</Pair>
	</StyleMap>
	
	<!-- HRB -->
	<Style id="s_hrb">
		<IconStyle>
			<scale>1.2</scale>
			<Icon>
				<href>http://maps.google.com/mapfiles/kml/shapes/ranger_station.png</href>
			</Icon>
			<hotSpot x="30" y="30" xunits="pixels" yunits="pixels"/>
		</IconStyle>
	</Style>
	<Style id="h_hrb">
		<IconStyle>
			<scale>1.4</scale>
			<Icon>
				<href>http://maps.google.com/mapfiles/kml/shapes/ranger_station.png</href>
			</Icon>
			<hotSpot x="30" y="30" xunits="pixels" yunits="pixels"/>
		</IconStyle>
	</Style>
	<StyleMap id="m_hrb">
		<Pair>
			<key>normal</key>
			<styleUrl>#s_hrb</styleUrl>
		</Pair>
		<Pair>
			<key>highlight</key>
			<styleUrl>#h_hrb</styleUrl>
		</Pair>
	</StyleMap>
<Folder>
<name>Tiang</name>
<Folder>
<name>Tiang Baru</name>
</Folder>
<Folder>
<name>Tiang Existing</name>
<Placemark>
<name>TE</name>
<description>
Designator:PU-S7.0-140
Construction Status: In Service
Material Type:Steel
Usage:Telco
</description>
<styleUrl>#m_tiang_e</styleUrl>
<Point>
<coordinates>114.8555761339556,-3.426315668170393,0</coordinates>
</Point>
</Placemark>
<Placemark>
<name>TE</name>
<description>
Designator:PU-S7.0-140
Construction Status: In Service
Material Type:Steel
Usage:Telco
</description>
<styleUrl>#m_tiang_e</styleUrl>
<Point>
<coordinates>114.8558343995998,-3.426454209352695,0</coordinates>
</Point>
</Placemark>
<Placemark>
<name>TE</name>
<description>
Designator:PU-S7.0-140
Construction Status: In Service
Material Type:Steel
Usage:Telco
</description>
<styleUrl>#m_tiang_e</styleUrl>
<Point>
<coordinates>114.8558535337153,-3.426464438429114,0</coordinates>
</Point>
</Placemark>
<Placemark>
<name>TE</name>
<description>
Designator:PU-S7.0-140
Construction Status: In Service
Material Type:Steel
Usage:Telco
</description>
<styleUrl>#m_tiang_e</styleUrl>
<Point>
<coordinates>114.8559043783604,-3.426491715965905,0</coordinates>
</Point>
</Placemark>
<Placemark>
<name>TE</name>
<description>
Designator:PU-S7.0-140
Construction Status: In Service
Material Type:Steel
Usage:Telco
</description>
<styleUrl>#m_tiang_e</styleUrl>
<Point>
<coordinates>114.8559607027287,-3.426528863663226,0</coordinates>
</Point>
</Placemark>
</Folder>
</Folder>
<Folder>
<name>ODP</name>
<Folder>
<name>Feeder</name>
</Folder>
<Folder>
<name>Fiber Catuan Langsung</name>
</Folder>
<Folder>
<name>Distribution</name>
<Placemark>
<name>FK/D04/036.01</name>
<description>
Network Type:Distribution
Specification ID:ODP-CA-16
Type: breaking
Construction Status:In Service
Construction Type:Closure
Splice Type:breaking
Splice Method:Fusion
</description>
<styleUrl>#m_odp</styleUrl>
<Point>
<coordinates>114.8558343995998,-3.426454209352695,0</coordinates>
</Point>
</Placemark>
<Placemark>
<name>FK/D11/093.01</name>
<description>
Network Type:Distribution
Specification ID:ODP-CA-16
Type: breaking
Construction Status:Planned
Construction Type:Closure
Splice Type:breaking
Splice Method:Fusion
</description>
<styleUrl>#m_odp</styleUrl>
<Point>
<coordinates>114.8558535337153,-3.426464438429114,0</coordinates>
</Point>
</Placemark>
<Placemark>
<name>FK/D04/045.01</name>
<description>
Network Type:Distribution
Specification ID:ODP-PB-8
Type: breaking
Construction Status:In Service
Construction Type:Closure
Splice Type:breaking
Splice Method:Fusion
</description>
<styleUrl>#m_odp</styleUrl>
<Point>
<coordinates>114.8559043783604,-3.426491715965905,0</coordinates>
</Point>
</Placemark>
<Placemark>
<name>FK/D11/083.01</name>
<description>
Network Type:Distribution
Specification ID:ODP-PB-16
Type: breaking
Construction Status:In Service
Construction Type:Closure
Splice Type:breaking
Splice Method:Fusion
</description>
<styleUrl>#m_odp</styleUrl>
<Point>
<coordinates>114.8559607027287,-3.426528863663226,0</coordinates>
</Point>
</Placemark>
</Folder>
<Folder>
<name>Drop</name>
</Folder>
</Folder>
<Folder>
<name>Kabel</name>
<Folder>
<name>Feeder</name>
</Folder>
<Folder>
<name>Fiber Catuan Langsung</name>
</Folder>
<Folder>
<name>Distribution</name>
<Placemark>
<name>DS-BBR-FE-04-01/11.04.00A</name>
<description>
Network Type: Distribution
Specification: AC-OF-SM-24-SC
Number of Core: 24
Fiber Length: 14m
Construction Status: In Service
</description>
<styleUrl>#m_kabel_e_11</styleUrl>
<LineString>
<tessellate>1</tessellate>
<coordinates>114.8559607027287,-3.426528863663226,0 114.8559043783604,-3.426491715965905,0 114.8559043783604,-3.426491715965905,0 114.8558535337153,-3.426464438429114,0 </coordinates>
</LineString>
</Placemark>
<Placemark>
<name>DS-BBR-FE-04-01/11.04</name>
<description>
Network Type: Distribution
Specification: AC-OF-SM-24-SC
Number of Core: 24
Fiber Length: 266m
Construction Status: In Service
</description>
<styleUrl>#m_kabel_e_11</styleUrl>
<LineString>
<tessellate>1</tessellate>
<coordinates>114.8558535337153,-3.426464438429114,0 114.8558343995998,-3.426454209352695,0 114.8558343995998,-3.426454209352695,0 114.8555761339556,-3.426315668170393,0 114.8555761339556,-3.426315668170393,0 114.8553031359407,-3.426179459922955,0 114.8553031359407,-3.426179459922955,0 114.8549389589246,-3.425916016268205,0 114.8549389589246,-3.425916016268205,0 114.8546416165655,-3.425742301353325,0 114.8546416165655,-3.425742301353325,0 114.8542304576600,-3.425499136330125,0 114.8542304576600,-3.425499136330125,0 114.8538859537485,-3.425288991470115,0 </coordinates>
</LineString>
</Placemark>
<Placemark>
<name>DS-BBR-FE-04-01/04.01D</name>
<description>
Network Type: Distribution
Specification: AC-OF-SM-24-SC
Number of Core: 24
Fiber Length: 53m
Construction Status: In Service
</description>
<styleUrl>#m_kabel_e_4</styleUrl>
<LineString>
<tessellate>1</tessellate>
<coordinates>114.8562939776991,-3.426736675402247,0 114.8561679440647,-3.426665610251218,0 114.8561679440647,-3.426665610251218,0 114.8559607027287,-3.426528863663226,0 114.8559607027287,-3.426528863663226,0 114.8559043783604,-3.426491715965905,0 </coordinates>
</LineString>
</Placemark>
<Placemark>
<name>DS-MTP-FE-16-01/01.19</name>
<description>
Network Type: Distribution
Specification: AC-OF-SM-24-SC
Number of Core: 24
Fiber Length: 187m
Construction Status: In Service
</description>
<styleUrl>#m_kabel_e_1</styleUrl>
<LineString>
<tessellate>1</tessellate>
<coordinates>114.8553031359407,-3.426179459922955,0 114.8555761339556,-3.426315668170393,0 114.8555761339556,-3.426315668170393,0 114.8558343995998,-3.426454209352695,0 114.8559043783604,-3.426491715965905,0 114.8559607027287,-3.426528863663226,0 114.8559607027287,-3.426528863663226,0 114.8561679440647,-3.426665610251218,0 114.8561679440647,-3.426665610251218,0 114.8562939776991,-3.426736675402247,0 114.8562939776991,-3.426736675402247,0 114.8565057106116,-3.426856014600291,0 114.8565057106116,-3.426856014600291,0 114.8566445901545,-3.426953729169640,0 114.8566445901545,-3.426953729169640,0 114.8567633474351,-3.427037266597157,0 </coordinates>
</LineString>
</Placemark>
<Placemark>
<name>DS-BJB-FE-04-01/04.01</name>
<description>
Network Type: Distribution
Specification: AC-OF-SM-12C
Number of Core: 12
Fiber Length: 2014m
Construction Status: In Service
</description>
<styleUrl>#m_kabel_e_4</styleUrl>
<LineString>
<tessellate>1</tessellate>
<coordinates>114.8622794524372,-3.433506243648532,0 114.8623591330029,-3.433571924775432,0 114.8623591330029,-3.433571924775432,0 114.8621319490676,-3.433227547468649,0 114.8621319490676,-3.433227547468649,0 114.8618561662753,-3.432848804122126,0 114.8618561662753,-3.432848804122126,0 114.8616177533989,-3.432521654496949,0 114.8616177533989,-3.432521654496949,0 114.8613649674780,-3.432191723219819,0 114.8611332021347,-3.432014240441175,0 114.8609970175376,-3.431909976028522,0 114.8609970175376,-3.431909976028522,0 114.8608077425072,-3.431540384648271,0 114.8608077425072,-3.431540384648271,0 114.8605051000880,-3.431236564134633,0 114.8605051000880,-3.431236564134633,0 114.8601710166338,-3.430892006832352,0 114.8601710166338,-3.430892006832352,0 114.8597759375719,-3.430466962988248,0 114.8597759375719,-3.430466962988248,0 114.8594900038169,-3.430137928542475,0 114.8594900038169,-3.430137928542475,0 114.8592320076674,-3.429838953084683,0 114.8592320076674,-3.429838953084683,0 114.8590648311930,-3.429665597539740,0 114.8590648311930,-3.429665597539740,0 114.8587249985210,-3.429241989003975,0 114.8587249985210,-3.429241989003975,0 114.8584649362462,-3.428931976750148,0 114.8584649362462,-3.428931976750148,0 114.8582298471364,-3.428649331658073,0 114.8582298471364,-3.428649331658073,0 114.8580052683153,-3.428402488233943,0 114.8580052683153,-3.428402488233943,0 114.8576639983389,-3.428030921955963,0 114.8576639983389,-3.428030921955963,0 114.8574015106129,-3.427729702860132,0 114.8574015106129,-3.427729702860132,0 114.8572000184947,-3.427506009283217,0 114.8572000184947,-3.427506009283217,0 114.8570570965329,-3.427318924978395,0 114.8570570965329,-3.427318924978395,0 114.8567633474351,-3.427037266597157,0 114.8567633474351,-3.427037266597157,0 114.8566445901545,-3.426953729169640,0 114.8566445901545,-3.426953729169640,0 114.8565057106116,-3.426856014600291,0 114.8565057106116,-3.426856014600291,0 114.8562939776991,-3.426736675402247,0 114.8562939776991,-3.426736675402247,0 114.8561679440647,-3.426665610251218,0 114.8561679440647,-3.426665610251218,0 114.8559607027287,-3.426528863663226,0 114.8559607027287,-3.426528863663226,0 114.8559043783604,-3.426491715965905,0 114.8558343995998,-3.426454209352695,0 114.8555761339556,-3.426315668170393,0 114.8555761339556,-3.426315668170393,0 114.8553031359407,-3.426179459922955,0 114.8553031359407,-3.426179459922955,0 114.8550484635577,-3.426461836295648,0 114.8550484635577,-3.426461836295648,0 114.8548491273961,-3.426736406216071,0 114.8548491273961,-3.426736406216071,0 114.8545733446039,-3.427038702256450,0 114.8545733446039,-3.427038702256450,0 114.8542976516432,-3.427345484670095,0 114.8542258762520,-3.427383888547805,0 114.8540783728823,-3.427462849788595,0 114.8538979013418,-3.427661598802352,0 114.8538148970095,-3.427752942584015,0 114.8538148970095,-3.427752942584015,0 114.8535380362390,-3.428048598499170,0 114.8535380362390,-3.428048598499170,0 114.8532611754684,-3.428344254355862,0 114.8532611754684,-3.428344254355862,0 114.8530009335306,-3.428644396584562,0 114.8530009335306,-3.428644396584562,0 114.8527252405699,-3.428942295538216,0 114.8527252405699,-3.428942295538216,0 114.8525757609066,-3.429274470747250,0 114.8525757609066,-3.429274470747250,0 114.8524450560328,-3.429660931655230,0 114.8524450560328,-3.429660931655230,0 114.8523254902685,-3.430035189383806,0 114.8523254902685,-3.430035189383806,0 114.8521726868386,-3.430440493080514,0 114.8521726868386,-3.430440493080514,0 114.8520353344317,-3.430821390521261,0 114.8520353344317,-3.430821390521261,0 114.8518305185469,-3.431230372871312,0 114.8518305185469,-3.431230372871312,0 114.8516178873192,-3.431606514503797,0 114.8516178873192,-3.431606514503797,0 114.8513602504957,-3.431510594807371,0 114.8513602504957,-3.431510594807371,0 114.8511379174628,-3.431428762470288,0 114.8511379174628,-3.431428762470288,0 114.8513023091598,-3.431056120203168,0 114.8513023091598,-3.431056120203168,0 114.8512449966447,-3.431042032834153,0 </coordinates>
</LineString>
</Placemark>
</Folder>
<Folder>
<name>Drop</name>
</Folder>
</Folder>
<Folder>
<name>Misc</name>
<Placemark>
<name>R6-KALIMANTAN SELATAN-KALSEL-BBR-FK-OS299632</name>
<description>
</description>
<styleUrl>#m_proj_area</styleUrl>
<Polygon>
<extrude>1</extrude>
<outerBoundaryIs>
<LinearRing>
<coordinates>114.8555566405139,-3.426197585131822,0 114.8561901324523,-3.426504098531776,0 114.8560106490585,-3.426734791099038,0 114.8553434702970,-3.426439942482827,0 114.8555566405139,-3.426197585131822,0 </coordinates>
</LinearRing>
</outerBoundaryIs>
</Polygon>
</Placemark>
<Placemark>
<name></name>
<description>
DS-BJB-FE-04-01/04.01;AC-OF-SM-12C
DS-MTP-FE-16-01/01.19;AC-OF-SM-24-SC
DS-BBR-FE-04-01/11.04;AC-OF-SM-24-SC
</description>
<styleUrl>#m_multi</styleUrl>
<Point>
<coordinates>114.8557052667777,-3.426384938763145,0</coordinates>
</Point>
</Placemark>
<Placemark>
<name></name>
<description>
DS-BJB-FE-04-01/04.01;AC-OF-SM-12C
DS-MTP-FE-16-01/01.19;AC-OF-SM-24-SC
DS-BBR-FE-04-01/04.01D;AC-OF-SM-24-SC
DS-BBR-FE-04-01/11.04.00A;AC-OF-SM-24-SC
</description>
<styleUrl>#m_multi</styleUrl>
<Point>
<coordinates>114.8559325405446,-3.426510289814673,0</coordinates>
</Point>
</Placemark>
</Folder>
</Document>
</kml>