<?xml version="1.0" encoding="UTF-8"?>
<kml xmlns="http://www.opengis.net/kml/2.2" xmlns:gx="http://www.google.com/kml/ext/2.2" xmlns:kml="http://www.opengis.net/kml/2.2" xmlns:atom="http://www.w3.org/2005/Atom">
<Document>
	<!-- Project Area -->
	<Style id="s_proj_area">
		<LineStyle>
			<color>ff00ff00</color>
			<width>4</width>
			<gx:altitudeMode>clampedToGround</gx:altitudeMode>
		</LineStyle>
		<PolyStyle>
			<color>0000ff00</color>
			<fill>0</fill>
			<gx:altitudeMode>clampedToGround</gx:altitudeMode>
		</PolyStyle>
    </Style>
	<Style id="h_proj_area">
		<LineStyle>
			<color>ff00ff00</color>
			<width>4</width>
			<gx:altitudeMode>clampedToGround</gx:altitudeMode>
		</LineStyle>
		<PolyStyle>
			<color>0000ff00</color>
			<fill>0</fill>
			<gx:altitudeMode>clampedToGround</gx:altitudeMode>
		</PolyStyle>
    </Style>
	<StyleMap id="m_proj_area">
		<Pair>
			<key>normal</key>
			<styleUrl>#s_proj_area</styleUrl>
		</Pair>
		<Pair>
			<key>highlight</key>
			<styleUrl>#h_proj_area</styleUrl>
		</Pair>
	</StyleMap>
	
	<!-- Tiang Planned -->
	<Style id="s_tiang">
		<IconStyle>
		<color>ff000000</color>
			<scale>1.1</scale>
			<Icon>
				<href>http://maps.google.com/mapfiles/kml/shapes/shaded_dot.png</href>
			</Icon>
			<hotSpot x="25" y="35" xunits="pixels" yunits="pixels"/>
		</IconStyle>
	</Style>
	<Style id="h_tiang">
		<IconStyle>
		<color>ff000000</color>
			<scale>1.3</scale>
			<Icon>
				<href>http://maps.google.com/mapfiles/kml/shapes/shaded_dot.png</href>
			</Icon>
			<hotSpot x="25" y="35" xunits="pixels" yunits="pixels"/>
		</IconStyle>
	</Style>
	<StyleMap id="m_tiang">
		<Pair>
			<key>normal</key>
			<styleUrl>#s_tiang</styleUrl>
		</Pair>
		<Pair>
			<key>highlight</key>
			<styleUrl>#h_tiang</styleUrl>
		</Pair>
	</StyleMap>
	
	<!-- Tiang Existing -->
	<Style id="s_tiang_e">
		<IconStyle>
		<color>ff000000</color>
			<scale>0.9</scale>
			<Icon>
				<href>http://maps.google.com/mapfiles/kml/shapes/donut.png</href>
			</Icon>
			<hotSpot x="25" y="35" xunits="pixels" yunits="pixels"/>
		</IconStyle>
	</Style>
	<Style id="h_tiang_e">
		<IconStyle>
		<color>ff000000</color>
			<scale>1.1</scale>
			<Icon>
				<href>http://maps.google.com/mapfiles/kml/shapes/donut.png</href>
			</Icon>
			<hotSpot x="25" y="35" xunits="pixels" yunits="pixels"/>
		</IconStyle>
	</Style>
	<StyleMap id="m_tiang_e">
		<Pair>
			<key>normal</key>
			<styleUrl>#s_tiang_e</styleUrl>
		</Pair>
		<Pair>
			<key>highlight</key>
			<styleUrl>#h_tiang_e</styleUrl>
		</Pair>
	</StyleMap>
	
	<!-- ODP -->
	<Style id="s_odp">
		<IconStyle>
			<scale>1.1</scale>
			<Icon>
				<href>http://maps.google.com/mapfiles/kml/paddle/ylw-stars.png</href>
			</Icon>
			<hotSpot x="30" y="1" xunits="pixels" yunits="pixels"/>
		</IconStyle>
	</Style>
	<Style id="h_odp">
		<IconStyle>
			<scale>1.3</scale>
			<Icon>
				<href>http://maps.google.com/mapfiles/kml/paddle/ylw-stars.png</href>
			</Icon>
			<hotSpot x="30" y="1" xunits="pixels" yunits="pixels"/>
		</IconStyle>
	</Style>
	<StyleMap id="m_odp">
		<Pair>
			<key>normal</key>
			<styleUrl>#s_odp</styleUrl>
		</Pair>
		<Pair>
			<key>highlight</key>
			<styleUrl>#h_odp</styleUrl>
		</Pair>
	</StyleMap>
	
	<!-- ODP SC-OF-SM-->
	<Style id="s_odp_scofsm">
		<IconStyle>
			<scale>1.1</scale>
			<Icon>
				<href>http://maps.google.com/mapfiles/kml/shapes/forbidden.png</href>
			</Icon>
			<hotSpot x="30" y="30" xunits="pixels" yunits="pixels"/>
		</IconStyle>
	</Style>
	<Style id="h_odp_scofsm">
		<IconStyle>
			<scale>1.3</scale>
			<Icon>
				<href>http://maps.google.com/mapfiles/kml/shapes/forbidden.png</href>
			</Icon>
			<hotSpot x="30" y="30" xunits="pixels" yunits="pixels"/>
		</IconStyle>
	</Style>
	<StyleMap id="m_odp_scofsm">
		<Pair>
			<key>normal</key>
			<styleUrl>#s_odp_scofsm</styleUrl>
		</Pair>
		<Pair>
			<key>highlight</key>
			<styleUrl>#h_odp_scofsm</styleUrl>
		</Pair>
	</StyleMap>
	
	<!-- ODC -->
	<Style id="s_odc">
		<IconStyle>
		<color>ff0000ff</color>
			<scale>2</scale>
			<Icon>
				<href>http://maps.google.com/mapfiles/kml/shapes/triangle.png</href>
			</Icon>
		</IconStyle>
	</Style>
	<Style id="h_odc">
		<IconStyle>
			<color>ff0000ff</color>
			<scale>2.36364</scale>
			<Icon>
				<href>http://maps.google.com/mapfiles/kml/shapes/triangle.png</href>
			</Icon>
		</IconStyle>
	</Style>
	<StyleMap id="m_odc">
		<Pair>
			<key>normal</key>
			<styleUrl>#s_odc</styleUrl>
		</Pair>
		<Pair>
			<key>highlight</key>
			<styleUrl>#h_odc</styleUrl>
		</Pair>
	</StyleMap>
	
	<!-- Underground Route -->
	<Style id="s_urute">
		<LineStyle>
			<color>ff7800F0</color>
			<width>11</width>
		</LineStyle>
	</Style>
	<Style id="h_urute">
		<LineStyle>
			<color>ff7800F0</color>
			<width>11</width>
		</LineStyle>
	</Style>
	<StyleMap id="m_urute">
		<Pair>
			<key>normal</key>
			<styleUrl>#s_urute</styleUrl>
		</Pair>
		<Pair>
			<key>highlight</key>
			<styleUrl>#h_urute</styleUrl>
		</Pair>
	</StyleMap>
	
	<!-- Kabel -->
	<Style id="s_kabel">
		<LineStyle>
			<color>ff00ffff</color>
			<width>6</width>
		</LineStyle>
	</Style>
	<Style id="h_kabel">
		<LineStyle>
			<color>ff00ffff</color>
			<width>6</width>
		</LineStyle>
	</Style>
	<StyleMap id="m_kabel_unset">
		<Pair>
			<key>normal</key>
			<styleUrl>#s_kabel</styleUrl>
		</Pair>
		<Pair>
			<key>highlight</key>
			<styleUrl>#h_kabel</styleUrl>
		</Pair>
	</StyleMap>
	
	<!-- Kabel Existing-->
	<Style id="s_kabel_e">
		<LineStyle>
			<color>ff00ffff</color>
			<width>3</width>
		</LineStyle>
	</Style>
	<Style id="h_kabel_e">
		<LineStyle>
			<color>ff00ffff</color>
			<width>3</width>
		</LineStyle>
	</Style>
	<StyleMap id="m_kabel_e_unset">
		<Pair>
			<key>normal</key>
			<styleUrl>#s_kabel</styleUrl>
		</Pair>
		<Pair>
			<key>highlight</key>
			<styleUrl>#h_kabel</styleUrl>
		</Pair>
	</StyleMap>
	
	<!-- Kabel D01 -->
	<Style id="s_kabel_D01">
		<LineStyle>
			<color>ffff0000</color>
			<width>6</width>
		</LineStyle>
	</Style>
	<Style id="h_kabel_D01">
		<LineStyle>
			<color>ffff0000</color>
			<width>6</width>
		</LineStyle>
	</Style>
	<StyleMap id="m_kabel_1">
		<Pair>
			<key>normal</key>
			<styleUrl>#s_kabel_D01</styleUrl>
		</Pair>
		<Pair>
			<key>highlight</key>
			<styleUrl>#h_kabel_D01</styleUrl>
		</Pair>
	</StyleMap>
	
	<!-- Kabel Existing D01-->
	<Style id="s_kabel_e_D01">
		<LineStyle>
			<color>ffff0000</color>
			<width>3</width>
		</LineStyle>
	</Style>
	<Style id="h_kabel_e_D01">
		<LineStyle>
			<color>ffff0000</color>
			<width>3</width>
		</LineStyle>
	</Style>
	<StyleMap id="m_kabel_e_1">
		<Pair>
			<key>normal</key>
			<styleUrl>#s_kabel_e_D01</styleUrl>
		</Pair>
		<Pair>
			<key>highlight</key>
			<styleUrl>#h_kabel_e_D01</styleUrl>
		</Pair>
	</StyleMap>
	
	<!-- Kabel D02 -->
	<Style id="s_kabel_D02">
		<LineStyle>
			<color>ff0055ff</color>
			<width>6</width>
		</LineStyle>
	</Style>
	<Style id="h_kabel_D02">
		<LineStyle>
			<color>ff0055ff</color>
			<width>6</width>
		</LineStyle>
	</Style>
	<StyleMap id="m_kabel_2">
		<Pair>
			<key>normal</key>
			<styleUrl>#s_kabel_D02</styleUrl>
		</Pair>
		<Pair>
			<key>highlight</key>
			<styleUrl>#h_kabel_D02</styleUrl>
		</Pair>
	</StyleMap>
	
	<!-- Kabel Existing D02-->
	<Style id="s_kabel_e_D02">
		<LineStyle>
			<color>ff0055ff</color>
			<width>3</width>
		</LineStyle>
	</Style>
	<Style id="h_kabel_e_D02">
		<LineStyle>
			<color>ff0055ff</color>
			<width>3</width>
		</LineStyle>
	</Style>
	<StyleMap id="m_kabel_e_2">
		<Pair>
			<key>normal</key>
			<styleUrl>#s_kabel_e_D02</styleUrl>
		</Pair>
		<Pair>
			<key>highlight</key>
			<styleUrl>#h_kabel_e_D02</styleUrl>
		</Pair>
	</StyleMap>
	
	<!-- Kabel D03 -->
	<Style id="s_kabel_D03">
		<LineStyle>
			<color>ff00ff55</color>
			<width>6</width>
		</LineStyle>
	</Style>
	<Style id="h_kabel_D03">
		<LineStyle>
			<color>ff00ff55</color>
			<width>6</width>
		</LineStyle>
	</Style>
	<StyleMap id="m_kabel_3">
		<Pair>
			<key>normal</key>
			<styleUrl>#s_kabel_D03</styleUrl>
		</Pair>
		<Pair>
			<key>highlight</key>
			<styleUrl>#h_kabel_D03</styleUrl>
		</Pair>
	</StyleMap>
	
	<!-- Kabel Existing D03-->
	<Style id="s_kabel_e_D03">
		<LineStyle>
			<color>ff00ff55</color>
			<width>3</width>
		</LineStyle>
	</Style>
	<Style id="h_kabel_e_D03">
		<LineStyle>
			<color>ff00ff55</color>
			<width>3</width>
		</LineStyle>
	</Style>
	<StyleMap id="m_kabel_e_3">
		<Pair>
			<key>normal</key>
			<styleUrl>#s_kabel_e_D03</styleUrl>
		</Pair>
		<Pair>
			<key>highlight</key>
			<styleUrl>#h_kabel_e_D03</styleUrl>
		</Pair>
	</StyleMap>
	
	<!-- Kabel D04 -->
	<Style id="s_kabel_D04">
		<LineStyle>
			<color>ff0055aa</color>
			<width>6</width>
		</LineStyle>
	</Style>
	<Style id="h_kabel_D04">
		<LineStyle>
			<color>ff0055aa</color>
			<width>6</width>
		</LineStyle>
	</Style>
	<StyleMap id="m_kabel_4">
		<Pair>
			<key>normal</key>
			<styleUrl>#s_kabel_D04</styleUrl>
		</Pair>
		<Pair>
			<key>highlight</key>
			<styleUrl>#h_kabel_D04</styleUrl>
		</Pair>
	</StyleMap>
	
	<!-- Kabel Existing D04-->
	<Style id="s_kabel_e_D04">
		<LineStyle>
			<color>ff0055aa</color>
			<width>3</width>
		</LineStyle>
	</Style>
	<Style id="h_kabel_e_D04">
		<LineStyle>
			<color>ff0055aa</color>
			<width>3</width>
		</LineStyle>
	</Style>
	<StyleMap id="m_kabel_e_4">
		<Pair>
			<key>normal</key>
			<styleUrl>#s_kabel_e_D04</styleUrl>
		</Pair>
		<Pair>
			<key>highlight</key>
			<styleUrl>#h_kabel_e_D04</styleUrl>
		</Pair>
	</StyleMap>
	
	<!-- Kabel D05 -->
	<Style id="s_kabel_D05">
		<LineStyle>
			<color>ffaaaaaa</color>
			<width>6</width>
		</LineStyle>
	</Style>
	<Style id="h_kabel_D05">
		<LineStyle>
			<color>ffaaaaaa</color>
			<width>6</width>
		</LineStyle>
	</Style>
	<StyleMap id="m_kabel_5">
		<Pair>
			<key>normal</key>
			<styleUrl>#s_kabel_D05</styleUrl>
		</Pair>
		<Pair>
			<key>highlight</key>
			<styleUrl>#h_kabel_D05</styleUrl>
		</Pair>
	</StyleMap>
	
	<!-- Kabel Existing D05-->
	<Style id="s_kabel_e_D05">
		<LineStyle>
			<color>ffaaaaaa</color>
			<width>3</width>
		</LineStyle>
	</Style>
	<Style id="h_kabel_e_D05">
		<LineStyle>
			<color>ffaaaaaa</color>
			<width>3</width>
		</LineStyle>
	</Style>
	<StyleMap id="m_kabel_e_5">
		<Pair>
			<key>normal</key>
			<styleUrl>#s_kabel_e_D05</styleUrl>
		</Pair>
		<Pair>
			<key>highlight</key>
			<styleUrl>#h_kabel_e_D05</styleUrl>
		</Pair>
	</StyleMap>
	
	<!-- Kabel D06 -->
	<Style id="s_kabel_D06">
		<LineStyle>
			<color>ffffffff</color>
			<width>6</width>
		</LineStyle>
	</Style>
	<Style id="h_kabel_D06">
		<LineStyle>
			<color>ffffffff</color>
			<width>6</width>
		</LineStyle>
	</Style>
	<StyleMap id="m_kabel_6">
		<Pair>
			<key>normal</key>
			<styleUrl>#s_kabel_D06</styleUrl>
		</Pair>
		<Pair>
			<key>highlight</key>
			<styleUrl>#h_kabel_D06</styleUrl>
		</Pair>
	</StyleMap>
	
	<!-- Kabel Existing D06-->
	<Style id="s_kabel_e_D06">
		<LineStyle>
			<color>ffffffff</color>
			<width>3</width>
		</LineStyle>
	</Style>
	<Style id="h_kabel_e_D06">
		<LineStyle>
			<color>ffffffff</color>
			<width>3</width>
		</LineStyle>
	</Style>
	<StyleMap id="m_kabel_e_6">
		<Pair>
			<key>normal</key>
			<styleUrl>#s_kabel_e_D06</styleUrl>
		</Pair>
		<Pair>
			<key>highlight</key>
			<styleUrl>#h_kabel_e_D06</styleUrl>
		</Pair>
	</StyleMap>
	
	<!-- Kabel D07 -->
	<Style id="s_kabel_D07">
		<LineStyle>
			<color>ff0000ff</color>
			<width>6</width>
		</LineStyle>
	</Style>
	<Style id="h_kabel_D07">
		<LineStyle>
			<color>ff0000ff</color>
			<width>6</width>
		</LineStyle>
	</Style>
	<StyleMap id="m_kabel_7">
		<Pair>
			<key>normal</key>
			<styleUrl>#s_kabel_D07</styleUrl>
		</Pair>
		<Pair>
			<key>highlight</key>
			<styleUrl>#h_kabel_D07</styleUrl>
		</Pair>
	</StyleMap>
	
	<!-- Kabel Existing D07-->
	<Style id="s_kabel_e_D07">
		<LineStyle>
			<color>ff0000ff</color>
			<width>3</width>
		</LineStyle>
	</Style>
	<Style id="h_kabel_e_D07">
		<LineStyle>
			<color>ff0000ff</color>
			<width>3</width>
		</LineStyle>
	</Style>
	<StyleMap id="m_kabel_e_7">
		<Pair>
			<key>normal</key>
			<styleUrl>#s_kabel_e_D07</styleUrl>
		</Pair>
		<Pair>
			<key>highlight</key>
			<styleUrl>#h_kabel_e_D07</styleUrl>
		</Pair>
	</StyleMap>
	
	<!-- Kabel D08 -->
	<Style id="s_kabel_D08">
		<LineStyle>
			<color>ff000000</color>
			<width>6</width>
		</LineStyle>
	</Style>
	<Style id="h_kabel_D08">
		<LineStyle>
			<color>ff000000</color>
			<width>6</width>
		</LineStyle>
	</Style>
	<StyleMap id="m_kabel_8">
		<Pair>
			<key>normal</key>
			<styleUrl>#s_kabel_D08</styleUrl>
		</Pair>
		<Pair>
			<key>highlight</key>
			<styleUrl>#h_kabel_D08</styleUrl>
		</Pair>
	</StyleMap>
	
	<!-- Kabel Existing D08-->
	<Style id="s_kabel_e_D08">
		<LineStyle>
			<color>ff000000</color>
			<width>3</width>
		</LineStyle>
	</Style>
	<Style id="h_kabel_e_D08">
		<LineStyle>
			<color>ff000000</color>
			<width>3</width>
		</LineStyle>
	</Style>
	<StyleMap id="m_kabel_e_8">
		<Pair>
			<key>normal</key>
			<styleUrl>#s_kabel_e_D08</styleUrl>
		</Pair>
		<Pair>
			<key>highlight</key>
			<styleUrl>#h_kabel_e_D08</styleUrl>
		</Pair>
	</StyleMap>
	
	<!-- Kabel D09 -->
	<Style id="s_kabel_D09">
		<LineStyle>
			<color>ff00ffff</color>
			<width>6</width>
		</LineStyle>
	</Style>
	<Style id="h_kabel_D09">
		<LineStyle>
			<color>ff00ffff</color>
			<width>6</width>
		</LineStyle>
	</Style>
	<StyleMap id="m_kabel_9">
		<Pair>
			<key>normal</key>
			<styleUrl>#s_kabel_D09</styleUrl>
		</Pair>
		<Pair>
			<key>highlight</key>
			<styleUrl>#h_kabel_D09</styleUrl>
		</Pair>
	</StyleMap>
	
	<!-- Kabel Existing D09-->
	<Style id="s_kabel_e_D09">
		<LineStyle>
			<color>ff00ffff</color>
			<width>3</width>
		</LineStyle>
	</Style>
	<Style id="h_kabel_e_D09">
		<LineStyle>
			<color>ff00ffff</color>
			<width>3</width>
		</LineStyle>
	</Style>
	<StyleMap id="m_kabel_e_9">
		<Pair>
			<key>normal</key>
			<styleUrl>#s_kabel_e_D09</styleUrl>
		</Pair>
		<Pair>
			<key>highlight</key>
			<styleUrl>#h_kabel_e_D09</styleUrl>
		</Pair>
	</StyleMap>
	
	<!-- Kabel D10 -->
	<Style id="s_kabel_D10">
		<LineStyle>
			<color>ffb95eff</color>
			<width>6</width>
		</LineStyle>
	</Style>
	<Style id="h_kabel_D10">
		<LineStyle>
			<color>ffb95eff</color>
			<width>6</width>
		</LineStyle>
	</Style>
	<StyleMap id="m_kabel_10">
		<Pair>
			<key>normal</key>
			<styleUrl>#s_kabel_D10</styleUrl>
		</Pair>
		<Pair>
			<key>highlight</key>
			<styleUrl>#h_kabel_D10</styleUrl>
		</Pair>
	</StyleMap>
	
	<!-- Kabel Existing D10-->
	<Style id="s_kabel_e_D10">
		<LineStyle>
			<color>ffb95eff</color>
			<width>3</width>
		</LineStyle>
	</Style>
	<Style id="h_kabel_e_D10">
		<LineStyle>
			<color>ffb95eff</color>
			<width>3</width>
		</LineStyle>
	</Style>
	<StyleMap id="m_kabel_e_10">
		<Pair>
			<key>normal</key>
			<styleUrl>#s_kabel_e_D10</styleUrl>
		</Pair>
		<Pair>
			<key>highlight</key>
			<styleUrl>#h_kabel_e_D10</styleUrl>
		</Pair>
	</StyleMap>
	
	<!-- Kabel D11 -->
	<Style id="s_kabel_D11">
		<LineStyle>
			<color>ffff00aa</color>
			<width>6</width>
		</LineStyle>
	</Style>
	<Style id="h_kabel_D11">
		<LineStyle>
			<color>ffff00aa</color>
			<width>6</width>
		</LineStyle>
	</Style>
	<StyleMap id="m_kabel_11">
		<Pair>
			<key>normal</key>
			<styleUrl>#s_kabel_D11</styleUrl>
		</Pair>
		<Pair>
			<key>highlight</key>
			<styleUrl>#h_kabel_D11</styleUrl>
		</Pair>
	</StyleMap>
	
	<!-- Kabel Existing D11-->
	<Style id="s_kabel_e_D11">
		<LineStyle>
			<color>ffff00aa</color>
			<width>3</width>
		</LineStyle>
	</Style>
	<Style id="h_kabel_e_D11">
		<LineStyle>
			<color>ffff00aa</color>
			<width>3</width>
		</LineStyle>
	</Style>
	<StyleMap id="m_kabel_e_11">
		<Pair>
			<key>normal</key>
			<styleUrl>#s_kabel_e_D11</styleUrl>
		</Pair>
		<Pair>
			<key>highlight</key>
			<styleUrl>#h_kabel_e_D11</styleUrl>
		</Pair>
	</StyleMap>
	
	<!-- Kabel D12 -->
	<Style id="s_kabel_D12">
		<LineStyle>
			<color>ffffffaa</color>
			<width>6</width>
		</LineStyle>
	</Style>
	<Style id="h_kabel_D12">
		<LineStyle>
			<color>ffffffaa</color>
			<width>6</width>
		</LineStyle>
	</Style>
	<StyleMap id="m_kabel_12">
		<Pair>
			<key>normal</key>
			<styleUrl>#s_kabel_D12</styleUrl>
		</Pair>
		<Pair>
			<key>highlight</key>
			<styleUrl>#h_kabel_D12</styleUrl>
		</Pair>
	</StyleMap>
	
	<!-- Kabel Existing D12-->
	<Style id="s_kabel_e_D12">
		<LineStyle>
			<color>ffffffaa</color>
			<width>3</width>
		</LineStyle>
	</Style>
	<Style id="h_kabel_e_D12">
		<LineStyle>
			<color>ffffffaa</color>
			<width>3</width>
		</LineStyle>
	</Style>
	<StyleMap id="m_kabel_e_12">
		<Pair>
			<key>normal</key>
			<styleUrl>#s_kabel_e_D12</styleUrl>
		</Pair>
		<Pair>
			<key>highlight</key>
			<styleUrl>#h_kabel_e_D12</styleUrl>
		</Pair>
	</StyleMap>
	
	<!-- Kabel Feeder -->
	<Style id="s_kabel_f">
		<LineStyle>
			<color>FFF00014</color>
			<width>8</width>
		</LineStyle>
	</Style>
	<Style id="h_kabel_f">
		<LineStyle>
			<color>FFF00014</color>
			<width>8</width>
		</LineStyle>
	</Style>
	<StyleMap id="m_kabel_f">
		<Pair>
			<key>normal</key>
			<styleUrl>#s_kabel_f</styleUrl>
		</Pair>
		<Pair>
			<key>highlight</key>
			<styleUrl>#h_kabel_f</styleUrl>
		</Pair>
	</StyleMap>
	
	<!-- Kabel Feeder Existing-->
	<Style id="s_kabel_f_e">
		<LineStyle>
			<color>FFF00014</color>
			<width>4</width>
		</LineStyle>
	</Style>
	<Style id="h_kabel_f_e">
		<LineStyle>
			<color>FFF00014</color>
			<width>4</width>
		</LineStyle>
	</Style>
	<StyleMap id="m_kabel_f_e">
		<Pair>
			<key>normal</key>
			<styleUrl>#s_kabel_f_e</styleUrl>
		</Pair>
		<Pair>
			<key>highlight</key>
			<styleUrl>#h_kabel_f_e</styleUrl>
		</Pair>
	</StyleMap>
	
	<!-- Manhole -->
	<Style id="s_manhole">
		<IconStyle>
			<scale>1.1</scale>
			<Icon>
				<href>http://maps.google.com/mapfiles/kml/shapes/square.png</href>
			</Icon>
			<hotSpot x="1" y="1" xunits="pixels" yunits="pixels"/>
		</IconStyle>
	</Style>
	<Style id="h_manhole">
		<IconStyle>
			<scale>1.3</scale>
			<Icon>
				<href>http://maps.google.com/mapfiles/kml/shapes/square.png</href>
			</Icon>
			<hotSpot x="1" y="1" xunits="pixels" yunits="pixels"/>
		</IconStyle>
	</Style>
	<StyleMap id="m_manhole">
		<Pair>
			<key>normal</key>
			<styleUrl>#s_manhole</styleUrl>
		</Pair>
		<Pair>
			<key>highlight</key>
			<styleUrl>#h_manhole</styleUrl>
		</Pair>
	</StyleMap>
	
	<!-- Handhole -->
	<Style id="s_handhole">
		<IconStyle>
			<scale>1.1</scale>
			<Icon>
				<href>http://maps.google.com/mapfiles/kml/shapes/placemark_square.png</href>
			</Icon>
			<hotSpot x="15" y="15" xunits="pixels" yunits="pixels"/>
		</IconStyle>
	</Style>
	<Style id="h_handhole">
		<IconStyle>
			<scale>1.3</scale>
			<Icon>
				<href>http://maps.google.com/mapfiles/kml/shapes/placemark_square.png</href>
			</Icon>
			<hotSpot x="15" y="15" xunits="pixels" yunits="pixels"/>
		</IconStyle>
	</Style>
	<StyleMap id="m_handhole">
		<Pair>
			<key>normal</key>
			<styleUrl>#s_handhole</styleUrl>
		</Pair>
		<Pair>
			<key>highlight</key>
			<styleUrl>#h_handhole</styleUrl>
		</Pair>
	</StyleMap>
	
	<!-- STO Building -->
	<Style id="s_sto">
		<IconStyle>
			<scale>1.1</scale>
			<Icon>
				<href>http://maps.google.com/mapfiles/kml/shapes/homegardenbusiness.png</href>
			</Icon>
			<hotSpot x="30" y="40" xunits="pixels" yunits="pixels"/>
		</IconStyle>
	</Style>
	<Style id="h_sto">
		<IconStyle>
			<scale>1.3</scale>
			<Icon>
				<href>http://maps.google.com/mapfiles/kml/shapes/homegardenbusiness.png</href>
			</Icon>
			<hotSpot x="30" y="40" xunits="pixels" yunits="pixels"/>
		</IconStyle>
	</Style>
	<StyleMap id="m_sto">
		<Pair>
			<key>normal</key>
			<styleUrl>#s_sto</styleUrl>
		</Pair>
		<Pair>
			<key>highlight</key>
			<styleUrl>#h_sto</styleUrl>
		</Pair>
	</StyleMap>
	
	<!-- MULTIPLE CABLE TEXT INFO -->
	<Style id="s_multi">
		<IconStyle>
			<scale>1.1</scale>
			<Icon>
				<href>http://maps.google.com/mapfiles/kml/shapes/info-i.png</href>
			</Icon>
			<hotSpot x="30" y="30" xunits="pixels" yunits="pixels"/>
		</IconStyle>
	</Style>
	<Style id="h_multi">
		<IconStyle>
			<scale>1.3</scale>
			<Icon>
				<href>http://maps.google.com/mapfiles/kml/shapes/info-i.png</href>
			</Icon>
			<hotSpot x="30" y="30" xunits="pixels" yunits="pixels"/>
		</IconStyle>
	</Style>
	<StyleMap id="m_multi">
		<Pair>
			<key>normal</key>
			<styleUrl>#s_multi</styleUrl>
		</Pair>
		<Pair>
			<key>highlight</key>
			<styleUrl>#h_multi</styleUrl>
		</Pair>
	</StyleMap>
	
	<!-- Demand Point -->
	<Style id="s_dpoint">
		<IconStyle>
		<color>ffffffff</color>
			<scale>1.1</scale>
			<Icon>
				<href>http://maps.google.com/mapfiles/kml/shapes/open-diamond.png</href>
			</Icon>
			<hotSpot x="30" y="30" xunits="pixels" yunits="pixels"/>
		</IconStyle>
	</Style>
	<Style id="h_dpoint">
		<IconStyle>
		<color>ffffffff</color>
			<scale>1.3</scale>
			<Icon>
				<href>http://maps.google.com/mapfiles/kml/shapes/open-diamond.png</href>
			</Icon>
			<hotSpot x="30" y="30" xunits="pixels" yunits="pixels"/>
		</IconStyle>
	</Style>
	<StyleMap id="m_dpoint">
		<Pair>
			<key>normal</key>
			<styleUrl>#s_dpoint</styleUrl>
		</Pair>
		<Pair>
			<key>highlight</key>
			<styleUrl>#h_dpoint</styleUrl>
		</Pair>
	</StyleMap>
	
	<!-- Tower -->
	<Style id="s_tower">
		<IconStyle>
			<scale>1.1</scale>
			<Icon>
				<href>http://maps.google.com/mapfiles/kml/paddle/T.png</href>
			</Icon>
			<hotSpot x="30" y="30" xunits="pixels" yunits="pixels"/>
		</IconStyle>
	</Style>
	<Style id="h_tower">
		<IconStyle>
			<scale>1.3</scale>
			<Icon>
				<href>http://maps.google.com/mapfiles/kml/paddle/T.png</href>
			</Icon>
			<hotSpot x="30" y="30" xunits="pixels" yunits="pixels"/>
		</IconStyle>
	</Style>
	<StyleMap id="m_tower">
		<Pair>
			<key>normal</key>
			<styleUrl>#s_tower</styleUrl>
		</Pair>
		<Pair>
			<key>highlight</key>
			<styleUrl>#h_tower</styleUrl>
		</Pair>
	</StyleMap>
	
	<!-- Wi-Fi -->
	<Style id="s_wifi">
		<IconStyle>
			<color>ff0000ff</color>
			<scale>1.2</scale>
			<Icon>
				<href>http://maps.google.com/mapfiles/kml/shapes/target.png</href>
			</Icon>
			<hotSpot x="30" y="30" xunits="pixels" yunits="pixels"/>
		</IconStyle>
	</Style>
	<Style id="h_wifi">
		<IconStyle>
			<color>ff0000ff</color>
			<scale>1.4</scale>
			<Icon>
				<href>http://maps.google.com/mapfiles/kml/shapes/target.png</href>
			</Icon>
			<hotSpot x="30" y="30" xunits="pixels" yunits="pixels"/>
		</IconStyle>
	</Style>
	<StyleMap id="m_wifi">
		<Pair>
			<key>normal</key>
			<styleUrl>#s_wifi</styleUrl>
		</Pair>
		<Pair>
			<key>highlight</key>
			<styleUrl>#h_wifi</styleUrl>
		</Pair>
	</StyleMap>
	
	<!-- BTS -->
	<Style id="s_bts">
		<IconStyle>
			<scale>1.2</scale>
			<Icon>
				<href>http://maps.google.com/mapfiles/kml/shapes/picnic.png</href>
			</Icon>
			<hotSpot x="30" y="30" xunits="pixels" yunits="pixels"/>
		</IconStyle>
	</Style>
	<Style id="h_bts">
		<IconStyle>
			<scale>1.4</scale>
			<Icon>
				<href>http://maps.google.com/mapfiles/kml/shapes/picnic.png</href>
			</Icon>
			<hotSpot x="30" y="30" xunits="pixels" yunits="pixels"/>
		</IconStyle>
	</Style>
	<StyleMap id="m_bts">
		<Pair>
			<key>normal</key>
			<styleUrl>#s_bts</styleUrl>
		</Pair>
		<Pair>
			<key>highlight</key>
			<styleUrl>#h_bts</styleUrl>
		</Pair>
	</StyleMap>
	
	<!-- HRB -->
	<Style id="s_hrb">
		<IconStyle>
			<scale>1.2</scale>
			<Icon>
				<href>http://maps.google.com/mapfiles/kml/shapes/ranger_station.png</href>
			</Icon>
			<hotSpot x="30" y="30" xunits="pixels" yunits="pixels"/>
		</IconStyle>
	</Style>
	<Style id="h_hrb">
		<IconStyle>
			<scale>1.4</scale>
			<Icon>
				<href>http://maps.google.com/mapfiles/kml/shapes/ranger_station.png</href>
			</Icon>
			<hotSpot x="30" y="30" xunits="pixels" yunits="pixels"/>
		</IconStyle>
	</Style>
	<StyleMap id="m_hrb">
		<Pair>
			<key>normal</key>
			<styleUrl>#s_hrb</styleUrl>
		</Pair>
		<Pair>
			<key>highlight</key>
			<styleUrl>#h_hrb</styleUrl>
		</Pair>
	</StyleMap>
<Folder>
<name>Tiang</name>
<Folder>
<name>Tiang Baru</name>
</Folder>
<Folder>
<name>Tiang Existing</name>
<Placemark>
<name>TE</name>
<description>
Designator:PU-S7.0-140
Construction Status: In Service
Material Type:Steel
Usage:Telco
</description>
<styleUrl>#m_tiang_e</styleUrl>
<Point>
<coordinates>114.8400522576992,-3.391047907376180,0</coordinates>
</Point>
</Placemark>
<Placemark>
<name>TE</name>
<description>
Designator:PU-S7.0-140
Construction Status: In Service
Material Type:Steel
Usage:Telco
</description>
<styleUrl>#m_tiang_e</styleUrl>
<Point>
<coordinates>114.8402542888066,-3.391431327265588,0</coordinates>
</Point>
</Placemark>
<Placemark>
<name>TE</name>
<description>
Designator:PU-S7.0-140
Construction Status: In Service
Material Type:Steel
Usage:Telco
</description>
<styleUrl>#m_tiang_e</styleUrl>
<Point>
<coordinates>114.8407457570985,-3.392298844690476,0</coordinates>
</Point>
</Placemark>
<Placemark>
<name>TE</name>
<description>
Designator:PU-S7.0-140
Construction Status: In Service
Material Type:Steel
Usage:Telco
</description>
<styleUrl>#m_tiang_e</styleUrl>
<Point>
<coordinates>114.8404629674471,-3.391834757027816,0</coordinates>
</Point>
</Placemark>
<Placemark>
<name>TE</name>
<description>
Designator:PU-S7.0-140
Construction Status: In Service
Material Type:Steel
Usage:Telco
</description>
<styleUrl>#m_tiang_e</styleUrl>
<Point>
<coordinates>114.8410015972914,-3.392661985111332,0</coordinates>
</Point>
</Placemark>
<Placemark>
<name>TE</name>
<description>
Designator:PU-S7.0-140
Construction Status: In Service
Material Type:Steel
Usage:Telco
</description>
<styleUrl>#m_tiang_e</styleUrl>
<Point>
<coordinates>114.8412941785795,-3.393123021675061,0</coordinates>
</Point>
</Placemark>
<Placemark>
<name>TE</name>
<description>
Designator:PU-S7.0-140
Construction Status: In Service
Material Type:Steel
Usage:Telco
</description>
<styleUrl>#m_tiang_e</styleUrl>
<Point>
<coordinates>114.8415132776773,-3.393516042223580,0</coordinates>
</Point>
</Placemark>
<Placemark>
<name>TE</name>
<description>
Designator:PU-S7.0-140
Construction Status: In Service
Material Type:Steel
Usage:Telco
</description>
<styleUrl>#m_tiang_e</styleUrl>
<Point>
<coordinates>114.8415886463296,-3.393646062012669,0</coordinates>
</Point>
</Placemark>
<Placemark>
<name>TE</name>
<description>
Designator:PU-S7.0-140
Construction Status: In Service
Material Type:Steel
Usage:Telco
</description>
<styleUrl>#m_tiang_e</styleUrl>
<Point>
<coordinates>114.8417354310470,-3.393899371755944,0</coordinates>
</Point>
</Placemark>
<Placemark>
<name>TE</name>
<description>
Designator:PU-S7.0-140
Construction Status: In Service
Material Type:Steel
Usage:Telco
</description>
<styleUrl>#m_tiang_e</styleUrl>
<Point>
<coordinates>114.8420384327924,-3.394349999185729,0</coordinates>
</Point>
</Placemark>
<Placemark>
<name>TE</name>
<description>
Designator:PU-S7.0-140
Construction Status: In Service
Material Type:Steel
Usage:Telco
</description>
<styleUrl>#m_tiang_e</styleUrl>
<Point>
<coordinates>114.8423144850792,-3.394719868911118,0</coordinates>
</Point>
</Placemark>
<Placemark>
<name>TE</name>
<description>
Designator:PU-S7.0-140
Construction Status: In Service
Material Type:Steel
Usage:Telco
</description>
<styleUrl>#m_tiang_e</styleUrl>
<Point>
<coordinates>114.8434708863444,-3.397343680147322,0</coordinates>
</Point>
</Placemark>
<Placemark>
<name>TE</name>
<description>
Designator:PU-S7.0-140
Construction Status: In Service
Material Type:Steel
Usage:Telco
</description>
<styleUrl>#m_tiang_e</styleUrl>
<Point>
<coordinates>114.8431991459710,-3.397456112434126,0</coordinates>
</Point>
</Placemark>
<Placemark>
<name>TE</name>
<description>
Designator:PU-S7.0-140
Construction Status: In Service
Material Type:Steel
Usage:Telco
</description>
<styleUrl>#m_tiang_e</styleUrl>
<Point>
<coordinates>114.8427170201580,-3.397642033962628,0</coordinates>
</Point>
</Placemark>
<Placemark>
<name>TE</name>
<description>
Designator:PU-S7.0-140
Construction Status: In Service
Material Type:Steel
Usage:Telco
</description>
<styleUrl>#m_tiang_e</styleUrl>
<Point>
<coordinates>114.8425025024681,-3.397731854152313,0</coordinates>
</Point>
</Placemark>
<Placemark>
<name>TE</name>
<description>
Designator:PU-S7.0-140
Construction Status: In Service
Material Type:Steel
Usage:Telco
</description>
<styleUrl>#m_tiang_e</styleUrl>
<Point>
<coordinates>114.8429581279803,-3.397547996435632,0</coordinates>
</Point>
</Placemark>
<Placemark>
<name>TE</name>
<description>
Designator:PU-S7.0-140
Construction Status: In Service
Material Type:Steel
Usage:Telco
</description>
<styleUrl>#m_tiang_e</styleUrl>
<Point>
<coordinates>114.8432143274993,-3.399651187396756,0</coordinates>
</Point>
</Placemark>
<Placemark>
<name>TE</name>
<description>
Designator:PU-S7.0-140
Construction Status: In Service
Material Type:Steel
Usage:Telco
</description>
<styleUrl>#m_tiang_e</styleUrl>
<Point>
<coordinates>114.8433332644429,-3.399815124723324,0</coordinates>
</Point>
</Placemark>
<Placemark>
<name>TE</name>
<description>
Designator:PU-S7.0-140
Construction Status: In Service
Material Type:Steel
Usage:Telco
</description>
<styleUrl>#m_tiang_e</styleUrl>
<Point>
<coordinates>114.8436536935047,-3.400102261760292,0</coordinates>
</Point>
</Placemark>
<Placemark>
<name>TE</name>
<description>
Designator:PU-S7.0-140
Construction Status: In Service
Material Type:Steel
Usage:Telco
</description>
<styleUrl>#m_tiang_e</styleUrl>
<Point>
<coordinates>114.8435170597500,-3.400000148657782,0</coordinates>
</Point>
</Placemark>
<Placemark>
<name>TE</name>
<description>
Designator:PU-S7.0-140
Construction Status: In Service
Material Type:Steel
Usage:Telco
</description>
<styleUrl>#m_tiang_e</styleUrl>
<Point>
<coordinates>114.8437108263568,-3.400190287197231,0</coordinates>
</Point>
</Placemark>
<Placemark>
<name>TE</name>
<description>
Designator:PU-S7.0-140
Construction Status: In Service
Material Type:Steel
Usage:Telco
</description>
<styleUrl>#m_tiang_e</styleUrl>
<Point>
<coordinates>114.8447213412199,-3.400865238439944,0</coordinates>
</Point>
</Placemark>
<Placemark>
<name>TE</name>
<description>
Designator:PU-S7.0-140
Construction Status: In Service
Material Type:Steel
Usage:Telco
</description>
<styleUrl>#m_tiang_e</styleUrl>
<Point>
<coordinates>114.8445894685362,-3.400958198996890,0</coordinates>
</Point>
</Placemark>
<Placemark>
<name>TE</name>
<description>
Designator:PU-S7.0-140
Construction Status: In Service
Material Type:Steel
Usage:Telco
</description>
<styleUrl>#m_tiang_e</styleUrl>
<Point>
<coordinates>114.8446142620380,-3.400998757075921,0</coordinates>
</Point>
</Placemark>
<Placemark>
<name>TE</name>
<description>
Designator:PU-S7.0-140
Construction Status: In Service
Material Type:Steel
Usage:Telco
</description>
<styleUrl>#m_tiang_e</styleUrl>
<Point>
<coordinates>114.8446905290057,-3.400997231661462,0</coordinates>
</Point>
</Placemark>
<Placemark>
<name>TE</name>
<description>
Designator:PU-S7.0-140
Construction Status: In Service
Material Type:Steel
Usage:Telco
</description>
<styleUrl>#m_tiang_e</styleUrl>
<Point>
<coordinates>114.8439234575846,-3.400376028928040,0</coordinates>
</Point>
</Placemark>
<Placemark>
<name>TE</name>
<description>
Designator:PU-S7.0-140
Construction Status: In Service
Material Type:Steel
Usage:Telco
</description>
<styleUrl>#m_tiang_e</styleUrl>
<Point>
<coordinates>114.8439631631201,-3.400380246252102,0</coordinates>
</Point>
</Placemark>
<Placemark>
<name>TE</name>
<description>
Designator:PU-S7.0-140
Construction Status: In Service
Material Type:Steel
Usage:Telco
</description>
<styleUrl>#m_tiang_e</styleUrl>
<Point>
<coordinates>114.8441792079459,-3.400607263891369,0</coordinates>
</Point>
</Placemark>
<Placemark>
<name>TE</name>
<description>
Designator:PU-S7.0-140
Construction Status: In Service
Material Type:Steel
Usage:Telco
</description>
<styleUrl>#m_tiang_e</styleUrl>
<Point>
<coordinates>114.8442863769593,-3.400683175710947,0</coordinates>
</Point>
</Placemark>
<Placemark>
<name>TE</name>
<description>
Designator:PU-S7.0-140
Construction Status: In Service
Material Type:Steel
Usage:Telco
</description>
<styleUrl>#m_tiang_e</styleUrl>
<Point>
<coordinates>114.8443653388728,-3.400782327668105,0</coordinates>
</Point>
</Placemark>
<Placemark>
<name>TE</name>
<description>
Designator:PU-S7.0-140
Construction Status: In Service
Material Type:Steel
Usage:Telco
</description>
<styleUrl>#m_tiang_e</styleUrl>
<Point>
<coordinates>114.8444553500643,-3.401128865950405,0</coordinates>
</Point>
</Placemark>
<Placemark>
<name>TE</name>
<description>
Designator:PU-S7.0-140
Construction Status: In Service
Material Type:Steel
Usage:Telco
</description>
<styleUrl>#m_tiang_e</styleUrl>
<Point>
<coordinates>114.8443826763578,-3.401287509031812,0</coordinates>
</Point>
</Placemark>
<Placemark>
<name>TE</name>
<description>
Designator:PU-S7.0-140
Construction Status: In Service
Material Type:Steel
Usage:Telco
</description>
<styleUrl>#m_tiang_e</styleUrl>
<Point>
<coordinates>114.8442937431447,-3.401450548878058,0</coordinates>
</Point>
</Placemark>
<Placemark>
<name>TE</name>
<description>
Designator:PU-S7.0-140
Construction Status: In Service
Material Type:Steel
Usage:Telco
</description>
<styleUrl>#m_tiang_e</styleUrl>
<Point>
<coordinates>114.8442310407378,-3.401489043148479,0</coordinates>
</Point>
</Placemark>
<Placemark>
<name>TE</name>
<description>
Designator:PU-S7.0-140
Construction Status: In Service
Material Type:Steel
Usage:Telco
</description>
<styleUrl>#m_tiang_e</styleUrl>
<Point>
<coordinates>114.8442121761169,-3.401600129172769,0</coordinates>
</Point>
</Placemark>
</Folder>
</Folder>
<Folder>
<name>ODP</name>
<Folder>
<name>Feeder</name>
</Folder>
<Folder>
<name>Fiber Catuan Langsung</name>
</Folder>
<Folder>
<name>Distribution</name>
<Placemark>
<name>FK/D01/029.01</name>
<description>
Network Type:Distribution
Specification ID:ODP-CA-16
Type: breaking
Construction Status:Planned
Construction Type:Closure
Splice Type:breaking
Splice Method:Fusion
</description>
<styleUrl>#m_odp</styleUrl>
<Point>
<coordinates>114.8400522576992,-3.391047907376180,0</coordinates>
</Point>
</Placemark>
<Placemark>
<name>FK/D01/005.01</name>
<description>
Network Type:Distribution
Specification ID:ODP-PB-8
Type: breaking
Construction Status:In Service
Construction Type:Closure
Splice Type:breaking
Splice Method:Fusion
</description>
<styleUrl>#m_odp</styleUrl>
<Point>
<coordinates>114.8415886463296,-3.393646062012669,0</coordinates>
</Point>
</Placemark>
<Placemark>
<name>FK/D01/003.01</name>
<description>
Network Type:Distribution
Specification ID:ODP-CA-8
Type: breaking
Construction Status:In Service
Construction Type:Closure
Splice Type:breaking
Splice Method:Fusion
</description>
<styleUrl>#m_odp</styleUrl>
<Point>
<coordinates>114.8427170201580,-3.397642033962628,0</coordinates>
</Point>
</Placemark>
<Placemark>
<name>FK/D02/015.01</name>
<description>
Network Type:Distribution
Specification ID:ODP-PB-8
Type: breaking
Construction Status:In Service
Construction Type:Closure
Splice Type:breaking
Splice Method:Fusion
</description>
<styleUrl>#m_odp</styleUrl>
<Point>
<coordinates>114.8439631631201,-3.400380246252102,0</coordinates>
</Point>
</Placemark>
<Placemark>
<name>FK/D02/030.01</name>
<description>
Network Type:Distribution
Specification ID:ODP-CA-16
Type: breaking
Construction Status:Planned
Construction Type:Closure
Splice Type:breaking
Splice Method:Fusion
</description>
<styleUrl>#m_odp</styleUrl>
<Point>
<coordinates>114.8442937431447,-3.401450548878058,0</coordinates>
</Point>
</Placemark>
<Placemark>
<name>FA/D02/06.01</name>
<description>
Network Type:Distribution
Specification ID:ODP-PB-16
Type: breaking
Construction Status:In Service
Construction Type:Closure
Splice Type:breaking
Splice Method:Fusion
</description>
<styleUrl>#m_odp</styleUrl>
<Point>
<coordinates>114.8442310407378,-3.401489043148479,0</coordinates>
</Point>
</Placemark>
</Folder>
<Folder>
<name>Drop</name>
</Folder>
</Folder>
<Folder>
<name>BTS</name>
<Placemark>
<name>Telkomsel--</name>
<description>
</description>
<styleUrl>#m_bts</styleUrl>
<Point>
<coordinates>114.8443585116766,-3.401171218629880,0</coordinates>
</Point>
</Placemark>
</Folder>
<Folder>
<name>Kabel</name>
<Folder>
<name>Feeder</name>
<Placemark>
<name>FE-MTP-16-02</name>
<description>
Network Type: Feeder
Specification: AC-OF-SM-96D
Number of Core: 96
Fiber Length: 2609m
Construction Status: In Service
</description>
<styleUrl>#m_kabel_f_e</styleUrl>
<LineString>
<tessellate>1</tessellate>
<coordinates>114.8500710782314,-3.413490862603020,0 114.8500691019378,-3.413525587925699,0 114.8500691019378,-3.413525587925699,0 114.8499961587367,-3.413509795530989,0 114.8499961587367,-3.413509795530989,0 114.8498552130686,-3.413703880461256,0 114.8498552130686,-3.413703880461256,0 114.8497253166786,-3.413737259836476,0 114.8497253166786,-3.413737259836476,0 114.8495344246807,-3.413761038154387,0 114.8495344246807,-3.413761038154387,0 114.8494915750416,-3.413444382712502,0 114.8494915750416,-3.413444382712502,0 114.8494486355711,-3.413084836483722,0 114.8494486355711,-3.413084836483722,0 114.8494159368947,-3.412811071628399,0 114.8494159368947,-3.412811071628399,0 114.8493649125866,-3.412510746769031,0 114.8493649125866,-3.412510746769031,0 114.8493158645721,-3.412134869529989,0 114.8493158645721,-3.412134869529989,0 114.8492852320209,-3.411895829861874,0 114.8492852320209,-3.411895829861874,0 114.8492647504324,-3.411699680916600,0 114.8492647504324,-3.411699680916600,0 114.8492075277488,-3.411329905090570,0 114.8492075277488,-3.411329905090570,0 114.8491687205285,-3.411037745334498,0 114.8491687205285,-3.411037745334498,0 114.8491258708895,-3.410784438472987,0 114.8491258708895,-3.410784438472987,0 114.8490319071107,-3.410414662421721,0 114.8490319071107,-3.410414662421721,0 114.8489685758832,-3.410183787883982,0 114.8489685758832,-3.410183787883982,0 114.8488847630672,-3.409881488445347,0 114.8488847630672,-3.409881488445347,0 114.8487805584943,-3.409603595437885,0 114.8487805584943,-3.409603595437885,0 114.8486130226938,-3.409274646141484,0 114.8486130226938,-3.409274646141484,0 114.8484700109006,-3.408972346520018,0 114.8484700109006,-3.408972346520018,0 114.8483535892397,-3.408682250091195,0 114.8483535892397,-3.408682250091195,0 114.8482330353286,-3.408357428165103,0 114.8482330353286,-3.408357428165103,0 114.8479263504906,-3.408519480217664,0 114.8479263504906,-3.408519480217664,0 114.8476332302134,-3.408688890096694,0 114.8476332302134,-3.408688890096694,0 114.8473973326198,-3.408825458851798,0 114.8473973326198,-3.408825458851798,0 114.8470715136662,-3.409014698978812,0 114.8470715136662,-3.409014698978812,0 114.8468969710065,-3.409115016874318,0 114.8468969710065,-3.409115016874318,0 114.8468215125227,-3.409064678467840,0 114.8468215125227,-3.409064678467840,0 114.8466851482625,-3.408753046905004,0 114.8466851482625,-3.408753046905004,0 114.8464776374319,-3.408298385940061,0 114.8464776374319,-3.408298385940061,0 114.8463714565653,-3.408055218089088,0 114.8463714565653,-3.408055218089088,0 114.8466334053021,-3.407952926066225,0 114.8466334053021,-3.407952926066225,0 114.8470542660128,-3.407758840393202,0 114.8470542660128,-3.407758840393202,0 114.8473770306944,-3.407630078039684,0 114.8473770306944,-3.407630078039684,0 114.8476508371929,-3.407515672455003,0 114.8476508371929,-3.407515672455003,0 114.8478203492871,-3.407450349105494,0 114.8478203492871,-3.407450349105494,0 114.8477815420668,-3.407362503552713,0 114.8477815420668,-3.407362503552713,0 114.8476651204060,-3.407121399338070,0 114.8476651204060,-3.407121399338070,0 114.8475089932096,-3.406803486278453,0 114.8475089932096,-3.406803486278453,0 114.8473770306944,-3.406480996924962,0 114.8473770306944,-3.406480996924962,0 114.8472188373728,-3.406164250219442,0 114.8472188373728,-3.406164250219442,0 114.8470072841234,-3.405783256785037,0 114.8470072841234,-3.405783256785037,0 114.8467825256394,-3.405399122704178,0 114.8467825256394,-3.405399122704178,0 114.8465742063249,-3.405006912823210,0 114.8465742063249,-3.405006912823210,0 114.8463330985027,-3.404586078954866,0 114.8463330985027,-3.404586078954866,0 114.8462186531355,-3.404234696044186,0 114.8462186531355,-3.404234696044186,0 114.8462227853858,-3.403936433264032,0 114.8462227853858,-3.403936433264032,0 114.8462554840621,-3.403650373719015,0 114.8462554840621,-3.403650373719015,0 114.8463943636051,-3.403017058510413,0 114.8463943636051,-3.403017058510413,0 114.8464025382741,-3.402596224085962,0 114.8464025382741,-3.402596224085962,0 114.8462915065050,-3.402232188754451,0 114.8462915065050,-3.402232188754451,0 114.8461590050006,-3.401995839418919,0 114.8461590050006,-3.401995839418919,0 114.8459701791279,-3.401744056448924,0 114.8459701791279,-3.401744056448924,0 114.8458312097535,-3.401540817492004,0 114.8458312097535,-3.401540817492004,0 114.8457399409206,-3.401407388634292,0 114.8457399409206,-3.401407388634292,0 114.8453153072858,-3.401238516317281,0 114.8453153072858,-3.401238516317281,0 114.8446905290057,-3.400997231661462,0 114.8446905290057,-3.400997231661462,0 114.8442863769593,-3.400683175710947,0 114.8442863769593,-3.400683175710947,0 114.8439631631201,-3.400380246252102,0 114.8439631631201,-3.400380246252102,0 114.8436536935047,-3.400102261760292,0 114.8436536935047,-3.400102261760292,0 114.8432143274993,-3.399651187396756,0 114.8432143274993,-3.399651187396756,0 114.8428848254531,-3.399299982795876,0 114.8428848254531,-3.399299982795876,0 114.8425200196162,-3.398847921158029,0 114.8425200196162,-3.398847921158029,0 114.8423289479552,-3.398588331116958,0 114.8423289479552,-3.398588331116958,0 114.8420648432617,-3.398203926010373,0 114.8420648432617,-3.398203926010373,0 114.8419338688933,-3.398004724446009,0 114.8419338688933,-3.398004724446009,0 114.8419162619137,-3.398053448074322,0 114.8419162619137,-3.398053448074322,0 114.8418780835142,-3.398062510848474,0 </coordinates>
</LineString>
</Placemark>
</Folder>
<Folder>
<name>Fiber Catuan Langsung</name>
</Folder>
<Folder>
<name>Distribution</name>
<Placemark>
<name>FE-MTP-15-02</name>
<description>
Network Type: Distribution
Specification: AC-OF-SM-96D
Number of Core: 96
Fiber Length: 1976m
Construction Status: In Service
</description>
<styleUrl>#m_kabel_e_</styleUrl>
<LineString>
<tessellate>1</tessellate>
<coordinates>114.8491433880375,-3.410822753045287,0 114.8491549763047,-3.410791886036296,0 114.8491483287716,-3.410756801731698,0 114.8491472507932,-3.410751238491512,0 114.8491472507932,-3.410751238491512,0 114.8491006282300,-3.410800230896347,0 114.8491006282300,-3.410800230896347,0 114.8486778810573,-3.410970537815006,0 114.8486778810573,-3.410970537815006,0 114.8481570378555,-3.411182838193429,0 114.8481570378555,-3.411182838193429,0 114.8475170780471,-3.411446463896320,0 114.8475170780471,-3.411446463896320,0 114.8470149198034,-3.411649432326317,0 114.8470149198034,-3.411649432326317,0 114.8466272069267,-3.411780078657558,0 114.8466272069267,-3.411780078657558,0 114.8463352544594,-3.411910724977441,0 114.8463352544594,-3.411910724977441,0 114.8459615553012,-3.412057702073720,0 114.8459615553012,-3.412057702073720,0 114.8453706435073,-3.412290999022416,0 114.8453706435073,-3.412290999022416,0 114.8449268757569,-3.412456639833997,0 114.8449268757569,-3.412456639833997,0 114.8447937454318,-3.412498633276282,0 114.8447937454318,-3.412498633276282,0 114.8446582794869,-3.411943386555631,0 114.8446582794869,-3.411943386555631,0 114.8445438341198,-3.411406803395302,0 114.8445438341198,-3.411406803395302,0 114.8444597518092,-3.410954207015427,0 114.8444597518092,-3.410954207015427,0 114.8444879589091,-3.410591519651477,0 114.8444879589091,-3.410591519651477,0 114.8444631654073,-3.410285810565932,0 114.8444631654073,-3.410285810565932,0 114.8444374735901,-3.409961168445760,0 114.8444374735901,-3.409961168445760,0 114.8444069308705,-3.409673135991878,0 114.8444069308705,-3.409673135991878,0 114.8443744118572,-3.409373707802967,0 114.8443744118572,-3.409373707802967,0 114.8443452166105,-3.409030401690982,0 114.8443452166105,-3.409030401690982,0 114.8443281486201,-3.408777363680587,0 114.8443281486201,-3.408777363680587,0 114.8443135959124,-3.408399152532465,0 114.8443135959124,-3.408399152532465,0 114.8443066788848,-3.408089135968814,0 114.8443066788848,-3.408089135968814,0 114.8442938329762,-3.407765659862493,0 114.8442938329762,-3.407765659862493,0 114.8442751480183,-3.407476011850280,0 114.8442751480183,-3.407476011850280,0 114.8442447849617,-3.407116374463812,0 114.8442447849617,-3.407116374463812,0 114.8442249321939,-3.406774234325481,0 114.8442249321939,-3.406774234325481,0 114.8441867537943,-3.406329712246170,0 114.8441867537943,-3.406329712246170,0 114.8440575760565,-3.405544844217077,0 114.8440575760565,-3.405544844217077,0 114.8440510183549,-3.405265245538271,0 114.8440510183549,-3.405265245538271,0 114.8440440114957,-3.404968957022851,0 114.8440440114957,-3.404968957022851,0 114.8440883882707,-3.404497694854563,0 114.8440883882707,-3.404497694854563,0 114.8441304294260,-3.404201406188080,0 114.8441304294260,-3.404201406188080,0 114.8442542172722,-3.403760472552837,0 114.8442542172722,-3.403760472552837,0 114.8443593201604,-3.403461850758295,0 114.8443593201604,-3.403461850758295,0 114.8439085455508,-3.403088573431839,0 114.8439085455508,-3.403088573431839,0 114.8435675450690,-3.402815614328303,0 114.8435675450690,-3.402815614328303,0 114.8431074279805,-3.402414341026473,0 114.8431074279805,-3.402414341026473,0 114.8433643461517,-3.402153046725956,0 114.8433643461517,-3.402153046725956,0 114.8438408125784,-3.401852091627232,0 114.8438408125784,-3.401852091627232,0 114.8442121761169,-3.401600129172769,0 114.8442121761169,-3.401600129172769,0 114.8442937431447,-3.401450548878058,0 </coordinates>
</LineString>
</Placemark>
<Placemark>
<name>DS-MTP-FE-16-02/01.02</name>
<description>
Network Type: Distribution
Specification: AC-OF-SM-24-SC
Number of Core: 24
Fiber Length: 972m
Construction Status: In Service
</description>
<styleUrl>#m_kabel_e_1</styleUrl>
<LineString>
<tessellate>1</tessellate>
<coordinates>114.8427170201580,-3.397642033962628,0 114.8429581279803,-3.397547996435632,0 114.8429581279803,-3.397547996435632,0 114.8431991459710,-3.397456112434126,0 114.8431991459710,-3.397456112434126,0 114.8434708863444,-3.397343680147322,0 114.8434708863444,-3.397343680147322,0 114.8437896086072,-3.397233401383812,0 114.8437896086072,-3.397233401383812,0 114.8435935063807,-3.396879952957263,0 114.8435935063807,-3.396879952957263,0 114.8434423199184,-3.396581688721786,0 114.8434423199184,-3.396581688721786,0 114.8432747841179,-3.396281360624871,0 114.8432747841179,-3.396281360624871,0 114.8431235976556,-3.396017821997609,0 114.8431235976556,-3.396017821997609,0 114.8429764536121,-3.395760385003372,0 114.8429764536121,-3.395760385003372,0 114.8428497911570,-3.395519368662934,0 114.8428497911570,-3.395519368662934,0 114.8427027369449,-3.395304822811506,0 114.8427027369449,-3.395304822811506,0 114.8425759846584,-3.395067036700471,0 114.8425759846584,-3.395067036700471,0 114.8423144850792,-3.394719868911118,0 114.8423144850792,-3.394719868911118,0 114.8420384327924,-3.394349999185729,0 114.8420384327924,-3.394349999185729,0 114.8417354310470,-3.393899371755944,0 114.8417354310470,-3.393899371755944,0 114.8415886463296,-3.393646062012669,0 114.8415886463296,-3.393646062012669,0 114.8415132776773,-3.393516042223580,0 114.8415132776773,-3.393516042223580,0 114.8412941785795,-3.393123021675061,0 114.8412941785795,-3.393123021675061,0 114.8410015972914,-3.392661985111332,0 114.8410015972914,-3.392661985111332,0 114.8407457570985,-3.392298844690476,0 114.8407457570985,-3.392298844690476,0 114.8404629674471,-3.391834757027816,0 114.8404629674471,-3.391834757027816,0 114.8402542888066,-3.391431327265588,0 114.8402542888066,-3.391431327265588,0 114.8400522576992,-3.391047907376180,0 </coordinates>
</LineString>
</Placemark>
<Placemark>
<name>DS-MTP-FE-11-02/04.01.01</name>
<description>
Network Type: Distribution
Specification: AC-OF-SM-24-SC
Number of Core: 24
Fiber Length: 1466m
Construction Status: In Service
</description>
<styleUrl>#m_kabel_e_4</styleUrl>
<LineString>
<tessellate>1</tessellate>
<coordinates>114.8462915065050,-3.402232188754451,0 114.8461590050006,-3.401995839418919,0 114.8461590050006,-3.401995839418919,0 114.8459701791279,-3.401744056448924,0 114.8459701791279,-3.401744056448924,0 114.8458312097535,-3.401540817492004,0 114.8458312097535,-3.401540817492004,0 114.8457399409206,-3.401407388634292,0 114.8457399409206,-3.401407388634292,0 114.8453153072858,-3.401238516317281,0 114.8453153072858,-3.401238516317281,0 114.8446905290057,-3.400997231661462,0 114.8446905290057,-3.400997231661462,0 114.8442863769593,-3.400683175710947,0 114.8442863769593,-3.400683175710947,0 114.8439631631201,-3.400380246252102,0 114.8439631631201,-3.400380246252102,0 114.8436536935047,-3.400102261760292,0 114.8436536935047,-3.400102261760292,0 114.8432143274993,-3.399651187396756,0 114.8432143274993,-3.399651187396756,0 114.8428848254531,-3.399299982795876,0 114.8428848254531,-3.399299982795876,0 114.8425200196162,-3.398847921158029,0 114.8425200196162,-3.398847921158029,0 114.8423289479552,-3.398588331116958,0 114.8423289479552,-3.398588331116958,0 114.8420648432617,-3.398203926010373,0 114.8420648432617,-3.398203926010373,0 114.8419338688933,-3.398004724446009,0 114.8419338688933,-3.398004724446009,0 114.8418341558967,-3.397853079994248,0 114.8418341558967,-3.397853079994248,0 114.8415502882670,-3.397492273814286,0 114.8415502882670,-3.397492273814286,0 114.8412798055349,-3.397072155691487,0 114.8412798055349,-3.397072155691487,0 114.8410365417560,-3.396695556753656,0 114.8410365417560,-3.396695556753656,0 114.8408355886269,-3.396384999398259,0 114.8408355886269,-3.396384999398259,0 114.8405922350165,-3.396073006290067,0 114.8405922350165,-3.396073006290067,0 114.8403434016828,-3.395698829828497,0 114.8403434016828,-3.395698829828497,0 114.8401541266524,-3.395408192460168,0 114.8401541266524,-3.395408192460168,0 114.8399535328494,-3.395112978774654,0 114.8399535328494,-3.395112978774654,0 114.8397765647385,-3.394803228669317,0 114.8397765647385,-3.394803228669317,0 114.8395891761702,-3.394443677989369,0 114.8395891761702,-3.394443677989369,0 114.8394075368198,-3.394127287677101,0 114.8394075368198,-3.394127287677101,0 114.8392478163622,-3.393762622186741,0 114.8392478163622,-3.393762622186741,0 114.8391236691900,-3.393435374315681,0 114.8391236691900,-3.393435374315681,0 114.8390332088409,-3.393143390550749,0 114.8390332088409,-3.393143390550749,0 114.8389238838708,-3.392769662016967,0 114.8389238838708,-3.392769662016967,0 114.8388003655192,-3.392424108853419,0 </coordinates>
</LineString>
</Placemark>
<Placemark>
<name>DS-MTP-FE-16-02/02.03</name>
<description>
Network Type: Distribution
Specification: AC-OF-SM-24-SC
Number of Core: 24
Fiber Length: 321m
Construction Status: In Service
</description>
<styleUrl>#m_kabel_e_2</styleUrl>
<LineString>
<tessellate>1</tessellate>
<coordinates>114.8439631631201,-3.400380246252102,0 114.8442863769593,-3.400683175710947,0 114.8442863769593,-3.400683175710947,0 114.8446905290057,-3.400997231661462,0 114.8446905290057,-3.400997231661462,0 114.8446142620380,-3.400998757075921,0 114.8446142620380,-3.400998757075921,0 114.8443826763578,-3.401287509031812,0 114.8443826763578,-3.401287509031812,0 114.8442937431447,-3.401450548878058,0 114.8442937431447,-3.401450548878058,0 114.8442121761169,-3.401600129172769,0 114.8442121761169,-3.401600129172769,0 114.8438408125784,-3.401852091627232,0 114.8438408125784,-3.401852091627232,0 114.8433643461517,-3.402153046725956,0 </coordinates>
</LineString>
</Placemark>
<Placemark>
<name>DS-MTP-FE-10-01-01/02.01.01</name>
<description>
Network Type: Distribution
Specification: AC-OF-SM-12-SC
Number of Core: 12
Fiber Length: 464m
Construction Status: In Service
</description>
<styleUrl>#m_kabel_e_2</styleUrl>
<LineString>
<tessellate>1</tessellate>
<coordinates>114.8442310407378,-3.401489043148479,0 114.8444553500643,-3.401128865950405,0 114.8444553500643,-3.401128865950405,0 114.8445894685362,-3.400958198996890,0 114.8445894685362,-3.400958198996890,0 114.8443653388728,-3.400782327668105,0 114.8443653388728,-3.400782327668105,0 114.8441792079459,-3.400607263891369,0 114.8441792079459,-3.400607263891369,0 114.8439234575846,-3.400376028928040,0 114.8439234575846,-3.400376028928040,0 114.8437108263568,-3.400190287197231,0 114.8437108263568,-3.400190287197231,0 114.8435170597500,-3.400000148657782,0 114.8435170597500,-3.400000148657782,0 114.8433332644429,-3.399815124723324,0 114.8433332644429,-3.399815124723324,0 114.8429129427215,-3.399379124974186,0 114.8429129427215,-3.399379124974186,0 114.8427666969932,-3.399520091360872,0 114.8427666969932,-3.399520091360872,0 114.8423602991587,-3.399954565653733,0 114.8423602991587,-3.399954565653733,0 114.8421350016854,-3.400090955740492,0 </coordinates>
</LineString>
</Placemark>
<Placemark>
<name>DS-MTP-FE-16-02/01.02D</name>
<description>
Network Type: Distribution
Specification: AC-OF-SM-24-SC
Number of Core: 24
Fiber Length: 815m
Construction Status: In Service
</description>
<styleUrl>#m_kabel_e_1</styleUrl>
<LineString>
<tessellate>1</tessellate>
<coordinates>114.8415886463296,-3.393646062012669,0 114.8415132776773,-3.393516042223580,0 114.8415132776773,-3.393516042223580,0 114.8412941785795,-3.393123021675061,0 114.8412941785795,-3.393123021675061,0 114.8410015972914,-3.392661985111332,0 114.8410015972914,-3.392661985111332,0 114.8407457570985,-3.392298844690476,0 114.8407457570985,-3.392298844690476,0 114.8404629674471,-3.391834757027816,0 114.8404629674471,-3.391834757027816,0 114.8402542888066,-3.391431327265588,0 114.8402542888066,-3.391431327265588,0 114.8400522576992,-3.391047907376180,0 114.8400522576992,-3.391047907376180,0 114.8398233669648,-3.390644477403919,0 114.8398233669648,-3.390644477403919,0 114.8396482853159,-3.390314895854242,0 114.8396482853159,-3.390314895854242,0 114.8393924451230,-3.389924835593569,0 114.8393924451230,-3.389924835593569,0 114.8391433422947,-3.389514585769837,0 114.8391433422947,-3.389514585769837,0 114.8389884727397,-3.389171634060120,0 114.8389884727397,-3.389171634060120,0 114.8388538152786,-3.388808492800780,0 114.8388538152786,-3.388808492800780,0 114.8386922981905,-3.388378053196608,0 114.8386922981905,-3.388378053196608,0 114.8385509033648,-3.388021641574255,0 114.8385509033648,-3.388021641574255,0 114.8383960338098,-3.387624850892896,0 114.8383960338098,-3.387624850892896,0 114.8383320737616,-3.387439915173423,0 </coordinates>
</LineString>
</Placemark>
<Placemark>
<name>FE-MTP-15-02</name>
<description>
Network Type: Distribution
Specification: AC-OF-SM-96D
Number of Core: 96
Fiber Length: 408m
Construction Status: In Service
</description>
<styleUrl>#m_kabel_e_</styleUrl>
<LineString>
<tessellate>1</tessellate>
<coordinates>114.8442937431447,-3.401450548878058,0 114.8443826763578,-3.401287509031812,0 114.8443826763578,-3.401287509031812,0 114.8446142620380,-3.400998757075921,0 114.8446142620380,-3.400998757075921,0 114.8447213412199,-3.400865238439944,0 114.8447213412199,-3.400865238439944,0 114.8449876018701,-3.400533954246379,0 114.8449876018701,-3.400533954246379,0 114.8454687395363,-3.400128014360626,0 114.8454687395363,-3.400128014360626,0 114.8455644999456,-3.400020696901286,0 114.8455644999456,-3.400020696901286,0 114.8462511721488,-3.399638086766712,0 114.8462511721488,-3.399638086766712,0 114.8463959805726,-3.399554099163197,0 114.8463959805726,-3.399554099163197,0 114.8466645768425,-3.399523770305227,0 114.8466645768425,-3.399523770305227,0 114.8469705430283,-3.399535435250670,0 114.8469705430283,-3.399535435250670,0 114.8469643446528,-3.399559213793037,0 114.8469643446528,-3.399559213793037,0 114.8470089010909,-3.399548805072655,0 </coordinates>
</LineString>
</Placemark>
<Placemark>
<name>DS-MTP-FE-16-02/01.01</name>
<description>
Network Type: Distribution
Specification: AC-OF-SM-24-SC
Number of Core: 24
Fiber Length: 111m
Construction Status: In Service
</description>
<styleUrl>#m_kabel_e_1</styleUrl>
<LineString>
<tessellate>1</tessellate>
<coordinates>114.8418780835142,-3.398062510848474,0 114.8419162619137,-3.398053448074322,0 114.8419162619137,-3.398053448074322,0 114.8419338688933,-3.398004724446009,0 114.8419338688933,-3.398004724446009,0 114.8420633161257,-3.397925941117352,0 114.8420633161257,-3.397925941117352,0 114.8422716354401,-3.397831993338499,0 114.8422716354401,-3.397831993338499,0 114.8425025024681,-3.397731854152313,0 114.8425025024681,-3.397731854152313,0 114.8427170201580,-3.397642033962628,0 </coordinates>
</LineString>
</Placemark>
<Placemark>
<name>DS-MTP-FE-16-02/02.02</name>
<description>
Network Type: Distribution
Specification: AC-OF-SM-24-SC
Number of Core: 24
Fiber Length: 244m
Construction Status: In Service
</description>
<styleUrl>#m_kabel_e_2</styleUrl>
<LineString>
<tessellate>1</tessellate>
<coordinates>114.8425200196162,-3.398847921158029,0 114.8428848254531,-3.399299982795876,0 114.8428848254531,-3.399299982795876,0 114.8432143274993,-3.399651187396756,0 114.8432143274993,-3.399651187396756,0 114.8436536935047,-3.400102261760292,0 114.8436536935047,-3.400102261760292,0 114.8439631631201,-3.400380246252102,0 </coordinates>
</LineString>
</Placemark>
</Folder>
<Folder>
<name>Drop</name>
</Folder>
</Folder>
<Folder>
<name>Misc</name>
<Placemark>
<name>R6-KALIMANTAN SELATAN-KALTIMSEL-MTP-FK-OS299640</name>
<description>
</description>
<styleUrl>#m_proj_area</styleUrl>
<Polygon>
<extrude>1</extrude>
<outerBoundaryIs>
<LinearRing>
<coordinates>114.8394500271327,-3.390918874402990,0 114.8405576498780,-3.390474886035575,0 114.8453124326769,-3.401569441435055,0 114.8440979104127,-3.401943078058764,0 114.8394500271327,-3.390918874402990,0 </coordinates>
</LinearRing>
</outerBoundaryIs>
</Polygon>
</Placemark>
<Placemark>
<name></name>
<description>
DS-MTP-FE-16-02/01.02;AC-OF-SM-24-SC
DS-MTP-FE-16-02/01.02D;AC-OF-SM-24-SC
</description>
<styleUrl>#m_multi</styleUrl>
<Point>
<coordinates>114.8403586281268,-3.391633042160165,0</coordinates>
</Point>
</Placemark>
<Placemark>
<name></name>
<description>
DS-MTP-FE-16-02/01.02;AC-OF-SM-24-SC
DS-MTP-FE-16-02/01.02D;AC-OF-SM-24-SC
</description>
<styleUrl>#m_multi</styleUrl>
<Point>
<coordinates>114.8406043622728,-3.392066800876960,0</coordinates>
</Point>
</Placemark>
<Placemark>
<name></name>
<description>
DS-MTP-FE-16-02/01.02;AC-OF-SM-24-SC
DS-MTP-FE-16-02/01.02D;AC-OF-SM-24-SC
</description>
<styleUrl>#m_multi</styleUrl>
<Point>
<coordinates>114.8401532732529,-3.391239617333042,0</coordinates>
</Point>
</Placemark>
<Placemark>
<name></name>
<description>
DS-MTP-FE-16-02/01.02;AC-OF-SM-24-SC
DS-MTP-FE-16-02/01.02D;AC-OF-SM-24-SC
</description>
<styleUrl>#m_multi</styleUrl>
<Point>
<coordinates>114.8408736771950,-3.392480414911818,0</coordinates>
</Point>
</Placemark>
<Placemark>
<name></name>
<description>
DS-MTP-FE-16-02/01.02;AC-OF-SM-24-SC
DS-MTP-FE-16-02/01.02D;AC-OF-SM-24-SC
</description>
<styleUrl>#m_multi</styleUrl>
<Point>
<coordinates>114.8411478879355,-3.392892503410787,0</coordinates>
</Point>
</Placemark>
<Placemark>
<name></name>
<description>
DS-MTP-FE-16-02/01.02;AC-OF-SM-24-SC
DS-MTP-FE-16-02/01.02D;AC-OF-SM-24-SC
</description>
<styleUrl>#m_multi</styleUrl>
<Point>
<coordinates>114.8414037281284,-3.393319531962101,0</coordinates>
</Point>
</Placemark>
<Placemark>
<name></name>
<description>
DS-MTP-FE-16-02/01.02;AC-OF-SM-24-SC
DS-MTP-FE-16-02/01.02D;AC-OF-SM-24-SC
</description>
<styleUrl>#m_multi</styleUrl>
<Point>
<coordinates>114.8415509620035,-3.393581052119520,0</coordinates>
</Point>
</Placemark>
<Placemark>
<name></name>
<description>
DS-MTP-FE-11-02/04.01.01;AC-OF-SM-24-SC
FE-MTP-16-02;AC-OF-SM-96D
DS-MTP-FE-16-02/02.02;AC-OF-SM-24-SC
</description>
<styleUrl>#m_multi</styleUrl>
<Point>
<coordinates>114.8434340105020,-3.399876724595390,0</coordinates>
</Point>
</Placemark>
<Placemark>
<name></name>
<description>
DS-MTP-FE-11-02/04.01.01;AC-OF-SM-24-SC
FE-MTP-16-02;AC-OF-SM-96D
DS-MTP-FE-16-02/02.03;AC-OF-SM-24-SC
</description>
<styleUrl>#m_multi</styleUrl>
<Point>
<coordinates>114.8444884529825,-3.400840203694387,0</coordinates>
</Point>
</Placemark>
<Placemark>
<name></name>
<description>
DS-MTP-FE-11-02/04.01.01;AC-OF-SM-24-SC
FE-MTP-16-02;AC-OF-SM-96D
DS-MTP-FE-16-02/02.03;AC-OF-SM-24-SC
</description>
<styleUrl>#m_multi</styleUrl>
<Point>
<coordinates>114.8441247700398,-3.400531710989129,0</coordinates>
</Point>
</Placemark>
<Placemark>
<name></name>
<description>
DS-MTP-FE-11-02/04.01.01;AC-OF-SM-24-SC
FE-MTP-16-02;AC-OF-SM-96D
DS-MTP-FE-16-02/02.02;AC-OF-SM-24-SC
</description>
<styleUrl>#m_multi</styleUrl>
<Point>
<coordinates>114.8438084283124,-3.400241254012603,0</coordinates>
</Point>
</Placemark>
<Placemark>
<name></name>
<description>
FE-MTP-15-02;AC-OF-SM-96D
DS-MTP-FE-16-02/02.03;AC-OF-SM-24-SC
</description>
<styleUrl>#m_multi</styleUrl>
<Point>
<coordinates>114.8443382097512,-3.401369028957144,0</coordinates>
</Point>
</Placemark>
<Placemark>
<name></name>
<description>
FE-MTP-15-02;AC-OF-SM-96D
DS-MTP-FE-16-02/02.03;AC-OF-SM-24-SC
</description>
<styleUrl>#m_multi</styleUrl>
<Point>
<coordinates>114.8444984691979,-3.401143133060784,0</coordinates>
</Point>
</Placemark>
<Placemark>
<name></name>
<description>
FE-MTP-15-02;AC-OF-SM-96D
DS-MTP-FE-16-02/02.03;AC-OF-SM-24-SC
</description>
<styleUrl>#m_multi</styleUrl>
<Point>
<coordinates>114.8442529596308,-3.401525339027271,0</coordinates>
</Point>
</Placemark>
</Folder>
</Document>
</kml>