<?xml version="1.0" encoding="UTF-8"?>
<kml xmlns="http://www.opengis.net/kml/2.2" xmlns:gx="http://www.google.com/kml/ext/2.2" xmlns:kml="http://www.opengis.net/kml/2.2" xmlns:atom="http://www.w3.org/2005/Atom">
<Document>
	<!-- Project Area -->
	<Style id="s_proj_area">
		<LineStyle>
			<color>ff00ff00</color>
			<width>4</width>
			<gx:altitudeMode>clampedToGround</gx:altitudeMode>
		</LineStyle>
		<PolyStyle>
			<color>0000ff00</color>
			<fill>0</fill>
			<gx:altitudeMode>clampedToGround</gx:altitudeMode>
		</PolyStyle>
    </Style>
	<Style id="h_proj_area">
		<LineStyle>
			<color>ff00ff00</color>
			<width>4</width>
			<gx:altitudeMode>clampedToGround</gx:altitudeMode>
		</LineStyle>
		<PolyStyle>
			<color>0000ff00</color>
			<fill>0</fill>
			<gx:altitudeMode>clampedToGround</gx:altitudeMode>
		</PolyStyle>
    </Style>
	<StyleMap id="m_proj_area">
		<Pair>
			<key>normal</key>
			<styleUrl>#s_proj_area</styleUrl>
		</Pair>
		<Pair>
			<key>highlight</key>
			<styleUrl>#h_proj_area</styleUrl>
		</Pair>
	</StyleMap>
	
	<!-- Tiang Planned -->
	<Style id="s_tiang">
		<IconStyle>
		<color>ff000000</color>
			<scale>1.1</scale>
			<Icon>
				<href>http://maps.google.com/mapfiles/kml/shapes/shaded_dot.png</href>
			</Icon>
			<hotSpot x="25" y="35" xunits="pixels" yunits="pixels"/>
		</IconStyle>
	</Style>
	<Style id="h_tiang">
		<IconStyle>
		<color>ff000000</color>
			<scale>1.3</scale>
			<Icon>
				<href>http://maps.google.com/mapfiles/kml/shapes/shaded_dot.png</href>
			</Icon>
			<hotSpot x="25" y="35" xunits="pixels" yunits="pixels"/>
		</IconStyle>
	</Style>
	<StyleMap id="m_tiang">
		<Pair>
			<key>normal</key>
			<styleUrl>#s_tiang</styleUrl>
		</Pair>
		<Pair>
			<key>highlight</key>
			<styleUrl>#h_tiang</styleUrl>
		</Pair>
	</StyleMap>
	
	<!-- Tiang Existing -->
	<Style id="s_tiang_e">
		<IconStyle>
		<color>ff000000</color>
			<scale>0.9</scale>
			<Icon>
				<href>http://maps.google.com/mapfiles/kml/shapes/donut.png</href>
			</Icon>
			<hotSpot x="25" y="35" xunits="pixels" yunits="pixels"/>
		</IconStyle>
	</Style>
	<Style id="h_tiang_e">
		<IconStyle>
		<color>ff000000</color>
			<scale>1.1</scale>
			<Icon>
				<href>http://maps.google.com/mapfiles/kml/shapes/donut.png</href>
			</Icon>
			<hotSpot x="25" y="35" xunits="pixels" yunits="pixels"/>
		</IconStyle>
	</Style>
	<StyleMap id="m_tiang_e">
		<Pair>
			<key>normal</key>
			<styleUrl>#s_tiang_e</styleUrl>
		</Pair>
		<Pair>
			<key>highlight</key>
			<styleUrl>#h_tiang_e</styleUrl>
		</Pair>
	</StyleMap>
	
	<!-- ODP -->
	<Style id="s_odp">
		<IconStyle>
			<scale>1.1</scale>
			<Icon>
				<href>http://maps.google.com/mapfiles/kml/paddle/ylw-stars.png</href>
			</Icon>
			<hotSpot x="30" y="1" xunits="pixels" yunits="pixels"/>
		</IconStyle>
	</Style>
	<Style id="h_odp">
		<IconStyle>
			<scale>1.3</scale>
			<Icon>
				<href>http://maps.google.com/mapfiles/kml/paddle/ylw-stars.png</href>
			</Icon>
			<hotSpot x="30" y="1" xunits="pixels" yunits="pixels"/>
		</IconStyle>
	</Style>
	<StyleMap id="m_odp">
		<Pair>
			<key>normal</key>
			<styleUrl>#s_odp</styleUrl>
		</Pair>
		<Pair>
			<key>highlight</key>
			<styleUrl>#h_odp</styleUrl>
		</Pair>
	</StyleMap>
	
	<!-- ODP SC-OF-SM-->
	<Style id="s_odp_scofsm">
		<IconStyle>
			<scale>1.1</scale>
			<Icon>
				<href>http://maps.google.com/mapfiles/kml/shapes/forbidden.png</href>
			</Icon>
			<hotSpot x="30" y="30" xunits="pixels" yunits="pixels"/>
		</IconStyle>
	</Style>
	<Style id="h_odp_scofsm">
		<IconStyle>
			<scale>1.3</scale>
			<Icon>
				<href>http://maps.google.com/mapfiles/kml/shapes/forbidden.png</href>
			</Icon>
			<hotSpot x="30" y="30" xunits="pixels" yunits="pixels"/>
		</IconStyle>
	</Style>
	<StyleMap id="m_odp_scofsm">
		<Pair>
			<key>normal</key>
			<styleUrl>#s_odp_scofsm</styleUrl>
		</Pair>
		<Pair>
			<key>highlight</key>
			<styleUrl>#h_odp_scofsm</styleUrl>
		</Pair>
	</StyleMap>
	
	<!-- ODC -->
	<Style id="s_odc">
		<IconStyle>
		<color>ff0000ff</color>
			<scale>2</scale>
			<Icon>
				<href>http://maps.google.com/mapfiles/kml/shapes/triangle.png</href>
			</Icon>
		</IconStyle>
	</Style>
	<Style id="h_odc">
		<IconStyle>
			<color>ff0000ff</color>
			<scale>2.36364</scale>
			<Icon>
				<href>http://maps.google.com/mapfiles/kml/shapes/triangle.png</href>
			</Icon>
		</IconStyle>
	</Style>
	<StyleMap id="m_odc">
		<Pair>
			<key>normal</key>
			<styleUrl>#s_odc</styleUrl>
		</Pair>
		<Pair>
			<key>highlight</key>
			<styleUrl>#h_odc</styleUrl>
		</Pair>
	</StyleMap>
	
	<!-- Underground Route -->
	<Style id="s_urute">
		<LineStyle>
			<color>ff7800F0</color>
			<width>11</width>
		</LineStyle>
	</Style>
	<Style id="h_urute">
		<LineStyle>
			<color>ff7800F0</color>
			<width>11</width>
		</LineStyle>
	</Style>
	<StyleMap id="m_urute">
		<Pair>
			<key>normal</key>
			<styleUrl>#s_urute</styleUrl>
		</Pair>
		<Pair>
			<key>highlight</key>
			<styleUrl>#h_urute</styleUrl>
		</Pair>
	</StyleMap>
	
	<!-- Kabel -->
	<Style id="s_kabel">
		<LineStyle>
			<color>ff00ffff</color>
			<width>6</width>
		</LineStyle>
	</Style>
	<Style id="h_kabel">
		<LineStyle>
			<color>ff00ffff</color>
			<width>6</width>
		</LineStyle>
	</Style>
	<StyleMap id="m_kabel_unset">
		<Pair>
			<key>normal</key>
			<styleUrl>#s_kabel</styleUrl>
		</Pair>
		<Pair>
			<key>highlight</key>
			<styleUrl>#h_kabel</styleUrl>
		</Pair>
	</StyleMap>
	
	<!-- Kabel Existing-->
	<Style id="s_kabel_e">
		<LineStyle>
			<color>ff00ffff</color>
			<width>3</width>
		</LineStyle>
	</Style>
	<Style id="h_kabel_e">
		<LineStyle>
			<color>ff00ffff</color>
			<width>3</width>
		</LineStyle>
	</Style>
	<StyleMap id="m_kabel_e_unset">
		<Pair>
			<key>normal</key>
			<styleUrl>#s_kabel</styleUrl>
		</Pair>
		<Pair>
			<key>highlight</key>
			<styleUrl>#h_kabel</styleUrl>
		</Pair>
	</StyleMap>
	
	<!-- Kabel D01 -->
	<Style id="s_kabel_D01">
		<LineStyle>
			<color>ffff0000</color>
			<width>6</width>
		</LineStyle>
	</Style>
	<Style id="h_kabel_D01">
		<LineStyle>
			<color>ffff0000</color>
			<width>6</width>
		</LineStyle>
	</Style>
	<StyleMap id="m_kabel_1">
		<Pair>
			<key>normal</key>
			<styleUrl>#s_kabel_D01</styleUrl>
		</Pair>
		<Pair>
			<key>highlight</key>
			<styleUrl>#h_kabel_D01</styleUrl>
		</Pair>
	</StyleMap>
	
	<!-- Kabel Existing D01-->
	<Style id="s_kabel_e_D01">
		<LineStyle>
			<color>ffff0000</color>
			<width>3</width>
		</LineStyle>
	</Style>
	<Style id="h_kabel_e_D01">
		<LineStyle>
			<color>ffff0000</color>
			<width>3</width>
		</LineStyle>
	</Style>
	<StyleMap id="m_kabel_e_1">
		<Pair>
			<key>normal</key>
			<styleUrl>#s_kabel_e_D01</styleUrl>
		</Pair>
		<Pair>
			<key>highlight</key>
			<styleUrl>#h_kabel_e_D01</styleUrl>
		</Pair>
	</StyleMap>
	
	<!-- Kabel D02 -->
	<Style id="s_kabel_D02">
		<LineStyle>
			<color>ff0055ff</color>
			<width>6</width>
		</LineStyle>
	</Style>
	<Style id="h_kabel_D02">
		<LineStyle>
			<color>ff0055ff</color>
			<width>6</width>
		</LineStyle>
	</Style>
	<StyleMap id="m_kabel_2">
		<Pair>
			<key>normal</key>
			<styleUrl>#s_kabel_D02</styleUrl>
		</Pair>
		<Pair>
			<key>highlight</key>
			<styleUrl>#h_kabel_D02</styleUrl>
		</Pair>
	</StyleMap>
	
	<!-- Kabel Existing D02-->
	<Style id="s_kabel_e_D02">
		<LineStyle>
			<color>ff0055ff</color>
			<width>3</width>
		</LineStyle>
	</Style>
	<Style id="h_kabel_e_D02">
		<LineStyle>
			<color>ff0055ff</color>
			<width>3</width>
		</LineStyle>
	</Style>
	<StyleMap id="m_kabel_e_2">
		<Pair>
			<key>normal</key>
			<styleUrl>#s_kabel_e_D02</styleUrl>
		</Pair>
		<Pair>
			<key>highlight</key>
			<styleUrl>#h_kabel_e_D02</styleUrl>
		</Pair>
	</StyleMap>
	
	<!-- Kabel D03 -->
	<Style id="s_kabel_D03">
		<LineStyle>
			<color>ff00ff55</color>
			<width>6</width>
		</LineStyle>
	</Style>
	<Style id="h_kabel_D03">
		<LineStyle>
			<color>ff00ff55</color>
			<width>6</width>
		</LineStyle>
	</Style>
	<StyleMap id="m_kabel_3">
		<Pair>
			<key>normal</key>
			<styleUrl>#s_kabel_D03</styleUrl>
		</Pair>
		<Pair>
			<key>highlight</key>
			<styleUrl>#h_kabel_D03</styleUrl>
		</Pair>
	</StyleMap>
	
	<!-- Kabel Existing D03-->
	<Style id="s_kabel_e_D03">
		<LineStyle>
			<color>ff00ff55</color>
			<width>3</width>
		</LineStyle>
	</Style>
	<Style id="h_kabel_e_D03">
		<LineStyle>
			<color>ff00ff55</color>
			<width>3</width>
		</LineStyle>
	</Style>
	<StyleMap id="m_kabel_e_3">
		<Pair>
			<key>normal</key>
			<styleUrl>#s_kabel_e_D03</styleUrl>
		</Pair>
		<Pair>
			<key>highlight</key>
			<styleUrl>#h_kabel_e_D03</styleUrl>
		</Pair>
	</StyleMap>
	
	<!-- Kabel D04 -->
	<Style id="s_kabel_D04">
		<LineStyle>
			<color>ff0055aa</color>
			<width>6</width>
		</LineStyle>
	</Style>
	<Style id="h_kabel_D04">
		<LineStyle>
			<color>ff0055aa</color>
			<width>6</width>
		</LineStyle>
	</Style>
	<StyleMap id="m_kabel_4">
		<Pair>
			<key>normal</key>
			<styleUrl>#s_kabel_D04</styleUrl>
		</Pair>
		<Pair>
			<key>highlight</key>
			<styleUrl>#h_kabel_D04</styleUrl>
		</Pair>
	</StyleMap>
	
	<!-- Kabel Existing D04-->
	<Style id="s_kabel_e_D04">
		<LineStyle>
			<color>ff0055aa</color>
			<width>3</width>
		</LineStyle>
	</Style>
	<Style id="h_kabel_e_D04">
		<LineStyle>
			<color>ff0055aa</color>
			<width>3</width>
		</LineStyle>
	</Style>
	<StyleMap id="m_kabel_e_4">
		<Pair>
			<key>normal</key>
			<styleUrl>#s_kabel_e_D04</styleUrl>
		</Pair>
		<Pair>
			<key>highlight</key>
			<styleUrl>#h_kabel_e_D04</styleUrl>
		</Pair>
	</StyleMap>
	
	<!-- Kabel D05 -->
	<Style id="s_kabel_D05">
		<LineStyle>
			<color>ffaaaaaa</color>
			<width>6</width>
		</LineStyle>
	</Style>
	<Style id="h_kabel_D05">
		<LineStyle>
			<color>ffaaaaaa</color>
			<width>6</width>
		</LineStyle>
	</Style>
	<StyleMap id="m_kabel_5">
		<Pair>
			<key>normal</key>
			<styleUrl>#s_kabel_D05</styleUrl>
		</Pair>
		<Pair>
			<key>highlight</key>
			<styleUrl>#h_kabel_D05</styleUrl>
		</Pair>
	</StyleMap>
	
	<!-- Kabel Existing D05-->
	<Style id="s_kabel_e_D05">
		<LineStyle>
			<color>ffaaaaaa</color>
			<width>3</width>
		</LineStyle>
	</Style>
	<Style id="h_kabel_e_D05">
		<LineStyle>
			<color>ffaaaaaa</color>
			<width>3</width>
		</LineStyle>
	</Style>
	<StyleMap id="m_kabel_e_5">
		<Pair>
			<key>normal</key>
			<styleUrl>#s_kabel_e_D05</styleUrl>
		</Pair>
		<Pair>
			<key>highlight</key>
			<styleUrl>#h_kabel_e_D05</styleUrl>
		</Pair>
	</StyleMap>
	
	<!-- Kabel D06 -->
	<Style id="s_kabel_D06">
		<LineStyle>
			<color>ffffffff</color>
			<width>6</width>
		</LineStyle>
	</Style>
	<Style id="h_kabel_D06">
		<LineStyle>
			<color>ffffffff</color>
			<width>6</width>
		</LineStyle>
	</Style>
	<StyleMap id="m_kabel_6">
		<Pair>
			<key>normal</key>
			<styleUrl>#s_kabel_D06</styleUrl>
		</Pair>
		<Pair>
			<key>highlight</key>
			<styleUrl>#h_kabel_D06</styleUrl>
		</Pair>
	</StyleMap>
	
	<!-- Kabel Existing D06-->
	<Style id="s_kabel_e_D06">
		<LineStyle>
			<color>ffffffff</color>
			<width>3</width>
		</LineStyle>
	</Style>
	<Style id="h_kabel_e_D06">
		<LineStyle>
			<color>ffffffff</color>
			<width>3</width>
		</LineStyle>
	</Style>
	<StyleMap id="m_kabel_e_6">
		<Pair>
			<key>normal</key>
			<styleUrl>#s_kabel_e_D06</styleUrl>
		</Pair>
		<Pair>
			<key>highlight</key>
			<styleUrl>#h_kabel_e_D06</styleUrl>
		</Pair>
	</StyleMap>
	
	<!-- Kabel D07 -->
	<Style id="s_kabel_D07">
		<LineStyle>
			<color>ff0000ff</color>
			<width>6</width>
		</LineStyle>
	</Style>
	<Style id="h_kabel_D07">
		<LineStyle>
			<color>ff0000ff</color>
			<width>6</width>
		</LineStyle>
	</Style>
	<StyleMap id="m_kabel_7">
		<Pair>
			<key>normal</key>
			<styleUrl>#s_kabel_D07</styleUrl>
		</Pair>
		<Pair>
			<key>highlight</key>
			<styleUrl>#h_kabel_D07</styleUrl>
		</Pair>
	</StyleMap>
	
	<!-- Kabel Existing D07-->
	<Style id="s_kabel_e_D07">
		<LineStyle>
			<color>ff0000ff</color>
			<width>3</width>
		</LineStyle>
	</Style>
	<Style id="h_kabel_e_D07">
		<LineStyle>
			<color>ff0000ff</color>
			<width>3</width>
		</LineStyle>
	</Style>
	<StyleMap id="m_kabel_e_7">
		<Pair>
			<key>normal</key>
			<styleUrl>#s_kabel_e_D07</styleUrl>
		</Pair>
		<Pair>
			<key>highlight</key>
			<styleUrl>#h_kabel_e_D07</styleUrl>
		</Pair>
	</StyleMap>
	
	<!-- Kabel D08 -->
	<Style id="s_kabel_D08">
		<LineStyle>
			<color>ff000000</color>
			<width>6</width>
		</LineStyle>
	</Style>
	<Style id="h_kabel_D08">
		<LineStyle>
			<color>ff000000</color>
			<width>6</width>
		</LineStyle>
	</Style>
	<StyleMap id="m_kabel_8">
		<Pair>
			<key>normal</key>
			<styleUrl>#s_kabel_D08</styleUrl>
		</Pair>
		<Pair>
			<key>highlight</key>
			<styleUrl>#h_kabel_D08</styleUrl>
		</Pair>
	</StyleMap>
	
	<!-- Kabel Existing D08-->
	<Style id="s_kabel_e_D08">
		<LineStyle>
			<color>ff000000</color>
			<width>3</width>
		</LineStyle>
	</Style>
	<Style id="h_kabel_e_D08">
		<LineStyle>
			<color>ff000000</color>
			<width>3</width>
		</LineStyle>
	</Style>
	<StyleMap id="m_kabel_e_8">
		<Pair>
			<key>normal</key>
			<styleUrl>#s_kabel_e_D08</styleUrl>
		</Pair>
		<Pair>
			<key>highlight</key>
			<styleUrl>#h_kabel_e_D08</styleUrl>
		</Pair>
	</StyleMap>
	
	<!-- Kabel D09 -->
	<Style id="s_kabel_D09">
		<LineStyle>
			<color>ff00ffff</color>
			<width>6</width>
		</LineStyle>
	</Style>
	<Style id="h_kabel_D09">
		<LineStyle>
			<color>ff00ffff</color>
			<width>6</width>
		</LineStyle>
	</Style>
	<StyleMap id="m_kabel_9">
		<Pair>
			<key>normal</key>
			<styleUrl>#s_kabel_D09</styleUrl>
		</Pair>
		<Pair>
			<key>highlight</key>
			<styleUrl>#h_kabel_D09</styleUrl>
		</Pair>
	</StyleMap>
	
	<!-- Kabel Existing D09-->
	<Style id="s_kabel_e_D09">
		<LineStyle>
			<color>ff00ffff</color>
			<width>3</width>
		</LineStyle>
	</Style>
	<Style id="h_kabel_e_D09">
		<LineStyle>
			<color>ff00ffff</color>
			<width>3</width>
		</LineStyle>
	</Style>
	<StyleMap id="m_kabel_e_9">
		<Pair>
			<key>normal</key>
			<styleUrl>#s_kabel_e_D09</styleUrl>
		</Pair>
		<Pair>
			<key>highlight</key>
			<styleUrl>#h_kabel_e_D09</styleUrl>
		</Pair>
	</StyleMap>
	
	<!-- Kabel D10 -->
	<Style id="s_kabel_D10">
		<LineStyle>
			<color>ffb95eff</color>
			<width>6</width>
		</LineStyle>
	</Style>
	<Style id="h_kabel_D10">
		<LineStyle>
			<color>ffb95eff</color>
			<width>6</width>
		</LineStyle>
	</Style>
	<StyleMap id="m_kabel_10">
		<Pair>
			<key>normal</key>
			<styleUrl>#s_kabel_D10</styleUrl>
		</Pair>
		<Pair>
			<key>highlight</key>
			<styleUrl>#h_kabel_D10</styleUrl>
		</Pair>
	</StyleMap>
	
	<!-- Kabel Existing D10-->
	<Style id="s_kabel_e_D10">
		<LineStyle>
			<color>ffb95eff</color>
			<width>3</width>
		</LineStyle>
	</Style>
	<Style id="h_kabel_e_D10">
		<LineStyle>
			<color>ffb95eff</color>
			<width>3</width>
		</LineStyle>
	</Style>
	<StyleMap id="m_kabel_e_10">
		<Pair>
			<key>normal</key>
			<styleUrl>#s_kabel_e_D10</styleUrl>
		</Pair>
		<Pair>
			<key>highlight</key>
			<styleUrl>#h_kabel_e_D10</styleUrl>
		</Pair>
	</StyleMap>
	
	<!-- Kabel D11 -->
	<Style id="s_kabel_D11">
		<LineStyle>
			<color>ffff00aa</color>
			<width>6</width>
		</LineStyle>
	</Style>
	<Style id="h_kabel_D11">
		<LineStyle>
			<color>ffff00aa</color>
			<width>6</width>
		</LineStyle>
	</Style>
	<StyleMap id="m_kabel_11">
		<Pair>
			<key>normal</key>
			<styleUrl>#s_kabel_D11</styleUrl>
		</Pair>
		<Pair>
			<key>highlight</key>
			<styleUrl>#h_kabel_D11</styleUrl>
		</Pair>
	</StyleMap>
	
	<!-- Kabel Existing D11-->
	<Style id="s_kabel_e_D11">
		<LineStyle>
			<color>ffff00aa</color>
			<width>3</width>
		</LineStyle>
	</Style>
	<Style id="h_kabel_e_D11">
		<LineStyle>
			<color>ffff00aa</color>
			<width>3</width>
		</LineStyle>
	</Style>
	<StyleMap id="m_kabel_e_11">
		<Pair>
			<key>normal</key>
			<styleUrl>#s_kabel_e_D11</styleUrl>
		</Pair>
		<Pair>
			<key>highlight</key>
			<styleUrl>#h_kabel_e_D11</styleUrl>
		</Pair>
	</StyleMap>
	
	<!-- Kabel D12 -->
	<Style id="s_kabel_D12">
		<LineStyle>
			<color>ffffffaa</color>
			<width>6</width>
		</LineStyle>
	</Style>
	<Style id="h_kabel_D12">
		<LineStyle>
			<color>ffffffaa</color>
			<width>6</width>
		</LineStyle>
	</Style>
	<StyleMap id="m_kabel_12">
		<Pair>
			<key>normal</key>
			<styleUrl>#s_kabel_D12</styleUrl>
		</Pair>
		<Pair>
			<key>highlight</key>
			<styleUrl>#h_kabel_D12</styleUrl>
		</Pair>
	</StyleMap>
	
	<!-- Kabel Existing D12-->
	<Style id="s_kabel_e_D12">
		<LineStyle>
			<color>ffffffaa</color>
			<width>3</width>
		</LineStyle>
	</Style>
	<Style id="h_kabel_e_D12">
		<LineStyle>
			<color>ffffffaa</color>
			<width>3</width>
		</LineStyle>
	</Style>
	<StyleMap id="m_kabel_e_12">
		<Pair>
			<key>normal</key>
			<styleUrl>#s_kabel_e_D12</styleUrl>
		</Pair>
		<Pair>
			<key>highlight</key>
			<styleUrl>#h_kabel_e_D12</styleUrl>
		</Pair>
	</StyleMap>
	
	<!-- Kabel Feeder -->
	<Style id="s_kabel_f">
		<LineStyle>
			<color>FFF00014</color>
			<width>8</width>
		</LineStyle>
	</Style>
	<Style id="h_kabel_f">
		<LineStyle>
			<color>FFF00014</color>
			<width>8</width>
		</LineStyle>
	</Style>
	<StyleMap id="m_kabel_f">
		<Pair>
			<key>normal</key>
			<styleUrl>#s_kabel_f</styleUrl>
		</Pair>
		<Pair>
			<key>highlight</key>
			<styleUrl>#h_kabel_f</styleUrl>
		</Pair>
	</StyleMap>
	
	<!-- Kabel Feeder Existing-->
	<Style id="s_kabel_f_e">
		<LineStyle>
			<color>FFF00014</color>
			<width>4</width>
		</LineStyle>
	</Style>
	<Style id="h_kabel_f_e">
		<LineStyle>
			<color>FFF00014</color>
			<width>4</width>
		</LineStyle>
	</Style>
	<StyleMap id="m_kabel_f_e">
		<Pair>
			<key>normal</key>
			<styleUrl>#s_kabel_f_e</styleUrl>
		</Pair>
		<Pair>
			<key>highlight</key>
			<styleUrl>#h_kabel_f_e</styleUrl>
		</Pair>
	</StyleMap>
	
	<!-- Manhole -->
	<Style id="s_manhole">
		<IconStyle>
			<scale>1.1</scale>
			<Icon>
				<href>http://maps.google.com/mapfiles/kml/shapes/square.png</href>
			</Icon>
			<hotSpot x="1" y="1" xunits="pixels" yunits="pixels"/>
		</IconStyle>
	</Style>
	<Style id="h_manhole">
		<IconStyle>
			<scale>1.3</scale>
			<Icon>
				<href>http://maps.google.com/mapfiles/kml/shapes/square.png</href>
			</Icon>
			<hotSpot x="1" y="1" xunits="pixels" yunits="pixels"/>
		</IconStyle>
	</Style>
	<StyleMap id="m_manhole">
		<Pair>
			<key>normal</key>
			<styleUrl>#s_manhole</styleUrl>
		</Pair>
		<Pair>
			<key>highlight</key>
			<styleUrl>#h_manhole</styleUrl>
		</Pair>
	</StyleMap>
	
	<!-- Handhole -->
	<Style id="s_handhole">
		<IconStyle>
			<scale>1.1</scale>
			<Icon>
				<href>http://maps.google.com/mapfiles/kml/shapes/placemark_square.png</href>
			</Icon>
			<hotSpot x="15" y="15" xunits="pixels" yunits="pixels"/>
		</IconStyle>
	</Style>
	<Style id="h_handhole">
		<IconStyle>
			<scale>1.3</scale>
			<Icon>
				<href>http://maps.google.com/mapfiles/kml/shapes/placemark_square.png</href>
			</Icon>
			<hotSpot x="15" y="15" xunits="pixels" yunits="pixels"/>
		</IconStyle>
	</Style>
	<StyleMap id="m_handhole">
		<Pair>
			<key>normal</key>
			<styleUrl>#s_handhole</styleUrl>
		</Pair>
		<Pair>
			<key>highlight</key>
			<styleUrl>#h_handhole</styleUrl>
		</Pair>
	</StyleMap>
	
	<!-- STO Building -->
	<Style id="s_sto">
		<IconStyle>
			<scale>1.1</scale>
			<Icon>
				<href>http://maps.google.com/mapfiles/kml/shapes/homegardenbusiness.png</href>
			</Icon>
			<hotSpot x="30" y="40" xunits="pixels" yunits="pixels"/>
		</IconStyle>
	</Style>
	<Style id="h_sto">
		<IconStyle>
			<scale>1.3</scale>
			<Icon>
				<href>http://maps.google.com/mapfiles/kml/shapes/homegardenbusiness.png</href>
			</Icon>
			<hotSpot x="30" y="40" xunits="pixels" yunits="pixels"/>
		</IconStyle>
	</Style>
	<StyleMap id="m_sto">
		<Pair>
			<key>normal</key>
			<styleUrl>#s_sto</styleUrl>
		</Pair>
		<Pair>
			<key>highlight</key>
			<styleUrl>#h_sto</styleUrl>
		</Pair>
	</StyleMap>
	
	<!-- MULTIPLE CABLE TEXT INFO -->
	<Style id="s_multi">
		<IconStyle>
			<scale>1.1</scale>
			<Icon>
				<href>http://maps.google.com/mapfiles/kml/shapes/info-i.png</href>
			</Icon>
			<hotSpot x="30" y="30" xunits="pixels" yunits="pixels"/>
		</IconStyle>
	</Style>
	<Style id="h_multi">
		<IconStyle>
			<scale>1.3</scale>
			<Icon>
				<href>http://maps.google.com/mapfiles/kml/shapes/info-i.png</href>
			</Icon>
			<hotSpot x="30" y="30" xunits="pixels" yunits="pixels"/>
		</IconStyle>
	</Style>
	<StyleMap id="m_multi">
		<Pair>
			<key>normal</key>
			<styleUrl>#s_multi</styleUrl>
		</Pair>
		<Pair>
			<key>highlight</key>
			<styleUrl>#h_multi</styleUrl>
		</Pair>
	</StyleMap>
	
	<!-- Demand Point -->
	<Style id="s_dpoint">
		<IconStyle>
		<color>ffffffff</color>
			<scale>1.1</scale>
			<Icon>
				<href>http://maps.google.com/mapfiles/kml/shapes/open-diamond.png</href>
			</Icon>
			<hotSpot x="30" y="30" xunits="pixels" yunits="pixels"/>
		</IconStyle>
	</Style>
	<Style id="h_dpoint">
		<IconStyle>
		<color>ffffffff</color>
			<scale>1.3</scale>
			<Icon>
				<href>http://maps.google.com/mapfiles/kml/shapes/open-diamond.png</href>
			</Icon>
			<hotSpot x="30" y="30" xunits="pixels" yunits="pixels"/>
		</IconStyle>
	</Style>
	<StyleMap id="m_dpoint">
		<Pair>
			<key>normal</key>
			<styleUrl>#s_dpoint</styleUrl>
		</Pair>
		<Pair>
			<key>highlight</key>
			<styleUrl>#h_dpoint</styleUrl>
		</Pair>
	</StyleMap>
	
	<!-- Tower -->
	<Style id="s_tower">
		<IconStyle>
			<scale>1.1</scale>
			<Icon>
				<href>http://maps.google.com/mapfiles/kml/paddle/T.png</href>
			</Icon>
			<hotSpot x="30" y="30" xunits="pixels" yunits="pixels"/>
		</IconStyle>
	</Style>
	<Style id="h_tower">
		<IconStyle>
			<scale>1.3</scale>
			<Icon>
				<href>http://maps.google.com/mapfiles/kml/paddle/T.png</href>
			</Icon>
			<hotSpot x="30" y="30" xunits="pixels" yunits="pixels"/>
		</IconStyle>
	</Style>
	<StyleMap id="m_tower">
		<Pair>
			<key>normal</key>
			<styleUrl>#s_tower</styleUrl>
		</Pair>
		<Pair>
			<key>highlight</key>
			<styleUrl>#h_tower</styleUrl>
		</Pair>
	</StyleMap>
	
	<!-- Wi-Fi -->
	<Style id="s_wifi">
		<IconStyle>
			<color>ff0000ff</color>
			<scale>1.2</scale>
			<Icon>
				<href>http://maps.google.com/mapfiles/kml/shapes/target.png</href>
			</Icon>
			<hotSpot x="30" y="30" xunits="pixels" yunits="pixels"/>
		</IconStyle>
	</Style>
	<Style id="h_wifi">
		<IconStyle>
			<color>ff0000ff</color>
			<scale>1.4</scale>
			<Icon>
				<href>http://maps.google.com/mapfiles/kml/shapes/target.png</href>
			</Icon>
			<hotSpot x="30" y="30" xunits="pixels" yunits="pixels"/>
		</IconStyle>
	</Style>
	<StyleMap id="m_wifi">
		<Pair>
			<key>normal</key>
			<styleUrl>#s_wifi</styleUrl>
		</Pair>
		<Pair>
			<key>highlight</key>
			<styleUrl>#h_wifi</styleUrl>
		</Pair>
	</StyleMap>
	
	<!-- BTS -->
	<Style id="s_bts">
		<IconStyle>
			<scale>1.2</scale>
			<Icon>
				<href>http://maps.google.com/mapfiles/kml/shapes/picnic.png</href>
			</Icon>
			<hotSpot x="30" y="30" xunits="pixels" yunits="pixels"/>
		</IconStyle>
	</Style>
	<Style id="h_bts">
		<IconStyle>
			<scale>1.4</scale>
			<Icon>
				<href>http://maps.google.com/mapfiles/kml/shapes/picnic.png</href>
			</Icon>
			<hotSpot x="30" y="30" xunits="pixels" yunits="pixels"/>
		</IconStyle>
	</Style>
	<StyleMap id="m_bts">
		<Pair>
			<key>normal</key>
			<styleUrl>#s_bts</styleUrl>
		</Pair>
		<Pair>
			<key>highlight</key>
			<styleUrl>#h_bts</styleUrl>
		</Pair>
	</StyleMap>
	
	<!-- HRB -->
	<Style id="s_hrb">
		<IconStyle>
			<scale>1.2</scale>
			<Icon>
				<href>http://maps.google.com/mapfiles/kml/shapes/ranger_station.png</href>
			</Icon>
			<hotSpot x="30" y="30" xunits="pixels" yunits="pixels"/>
		</IconStyle>
	</Style>
	<Style id="h_hrb">
		<IconStyle>
			<scale>1.4</scale>
			<Icon>
				<href>http://maps.google.com/mapfiles/kml/shapes/ranger_station.png</href>
			</Icon>
			<hotSpot x="30" y="30" xunits="pixels" yunits="pixels"/>
		</IconStyle>
	</Style>
	<StyleMap id="m_hrb">
		<Pair>
			<key>normal</key>
			<styleUrl>#s_hrb</styleUrl>
		</Pair>
		<Pair>
			<key>highlight</key>
			<styleUrl>#h_hrb</styleUrl>
		</Pair>
	</StyleMap>
<Folder>
<name>Tiang</name>
<Folder>
<name>Tiang Baru</name>
</Folder>
<Folder>
<name>Tiang Existing</name>
<Placemark>
<name>TE</name>
<description>
Designator:PU-S7.0-140
Construction Status: In Service
Material Type:Steel
Usage:Telco
</description>
<styleUrl>#m_tiang_e</styleUrl>
<Point>
<coordinates>114.6329736963823,-3.353542369644610,0</coordinates>
</Point>
</Placemark>
<Placemark>
<name>TE</name>
<description>
Designator:PU-S7.0-140
Construction Status: In Service
Material Type:Steel
Usage:Telco
</description>
<styleUrl>#m_tiang_e</styleUrl>
<Point>
<coordinates>114.6330290326038,-3.353630756714014,0</coordinates>
</Point>
</Placemark>
<Placemark>
<name>TE</name>
<description>
Designator:PU-S7.0-140
Construction Status: In Service
Material Type:Steel
Usage:Telco
</description>
<styleUrl>#m_tiang_e</styleUrl>
<Point>
<coordinates>114.6332495690060,-3.353310678845536,0</coordinates>
</Point>
</Placemark>
<Placemark>
<name>TE</name>
<description>
Designator:PU-S7.0-140
Construction Status: In Service
Material Type:Steel
Usage:Telco
</description>
<styleUrl>#m_tiang_e</styleUrl>
<Point>
<coordinates>114.6332308840481,-3.353466276001070,0</coordinates>
</Point>
</Placemark>
</Folder>
</Folder>
<Folder>
<name>ODP</name>
<Folder>
<name>Feeder</name>
</Folder>
<Folder>
<name>Fiber Catuan Langsung</name>
</Folder>
<Folder>
<name>Distribution</name>
<Placemark>
<name>FAW/D05/149.01</name>
<description>
Network Type:Distribution
Specification ID:ODP-CA-8
Type: breaking
Construction Status:Planned
Construction Type:Closure
Splice Type:breaking
Splice Method:Fusion
</description>
<styleUrl>#m_odp</styleUrl>
<Point>
<coordinates>114.6332308840481,-3.353466276001070,0</coordinates>
</Point>
</Placemark>
</Folder>
<Folder>
<name>Drop</name>
</Folder>
</Folder>
<Folder>
<name>Kabel</name>
<Folder>
<name>Feeder</name>
</Folder>
<Folder>
<name>Fiber Catuan Langsung</name>
</Folder>
<Folder>
<name>Distribution</name>
<Placemark>
<name>DS-ULI-FE-07-18-01/02.01</name>
<description>
Network Type: Distribution
Specification: AC-OF-SM-12-SC
Number of Core: 12
Fiber Length: 1794m
Construction Status: In Service
</description>
<styleUrl>#m_kabel_e_2</styleUrl>
<LineString>
<tessellate>1</tessellate>
<coordinates>114.6309373054647,-3.355382793760576,0 114.6309899467404,-3.355340709001805,0 114.6309899467404,-3.355340709001805,0 114.6313193589550,-3.355067561839927,0 114.6313193589550,-3.355067561839927,0 114.6315716058868,-3.354854625467316,0 114.6315716058868,-3.354854625467316,0 114.6318350817597,-3.354622934867192,0 114.6318350817597,-3.354622934867192,0 114.6321202968624,-3.354451096153857,0 114.6321202968624,-3.354451096153857,0 114.6324348868749,-3.354127788067977,0 114.6324348868749,-3.354127788067977,0 114.6327188443362,-3.353884880726705,0 114.6327188443362,-3.353884880726705,0 114.6330290326038,-3.353630756714014,0 114.6330290326038,-3.353630756714014,0 114.6332308840481,-3.353466276001070,0 114.6332308840481,-3.353466276001070,0 114.6332495690060,-3.353310678845536,0 114.6332495690060,-3.353310678845536,0 114.6335333468043,-3.353065976712481,0 114.6335333468043,-3.353065976712481,0 114.6338248501140,-3.352818672280049,0 114.6338248501140,-3.352818672280049,0 114.6341034176836,-3.352589673365002,0 114.6341034176836,-3.352589673365002,0 114.6346716021008,-3.352095064306049,0 114.6346716021008,-3.352095064306049,0 114.6353125500560,-3.351529027472606,0 114.6353125500560,-3.351529027472606,0 114.6356415131131,-3.351267365479422,0 114.6356415131131,-3.351267365479422,0 114.6358739072770,-3.351061427768128,0 114.6358739072770,-3.351061427768128,0 114.6360894131137,-3.350874064806699,0 114.6360894131137,-3.350874064806699,0 114.6364605071576,-3.350540436641363,0 114.6364605071576,-3.350540436641363,0 114.6366516686501,-3.350379185993140,0 114.6366516686501,-3.350379185993140,0 114.6369028376035,-3.350163736436083,0 114.6369028376035,-3.350163736436083,0 114.6371661338132,-3.349919482465890,0 114.6371661338132,-3.349919482465890,0 114.6373602597462,-3.349723863901762,0 114.6373602597462,-3.349723863901762,0 114.6376012777369,-3.349508952652254,0 114.6376012777369,-3.349508952652254,0 114.6378404990971,-3.349289644440006,0 114.6378404990971,-3.349289644440006,0 114.6380870866425,-3.349015688597174,0 114.6380870866425,-3.349015688597174,0 114.6382384527679,-3.348840977786766,0 114.6382384527679,-3.348840977786766,0 114.6383897290618,-3.348666266956417,0 114.6383897290618,-3.348666266956417,0 114.6387328855003,-3.348267043212218,0 114.6387328855003,-3.348267043212218,0 114.6389241368243,-3.348010495464602,0 114.6389241368243,-3.348010495464602,0 114.6391824024685,-3.347753588740368,0 114.6391824024685,-3.347753588740368,0 114.6392623525287,-3.347674084939215,0 114.6392623525287,-3.347674084939215,0 114.6397580429026,-3.347297473761892,0 114.6397580429026,-3.347297473761892,0 114.6401261725060,-3.346973805230273,0 114.6401261725060,-3.346973805230273,0 114.6403977332164,-3.346745702775152,0 114.6403977332164,-3.346745702775152,0 114.6408076344805,-3.346383000060197,0 114.6408076344805,-3.346383000060197,0 114.6410616780428,-3.346188637313176,0 114.6410616780428,-3.346188637313176,0 114.6413531813526,-3.345951381922819,0 114.6413531813526,-3.345951381922819,0 114.6417119684771,-3.345650505423723,0 114.6417119684771,-3.345650505423723,0 114.6419978124004,-3.345539325575074,0 114.6419978124004,-3.345539325575074,0 114.6425509051208,-3.345331951356408,0 </coordinates>
</LineString>
</Placemark>
<Placemark>
<name>DS-ULI-FE-21-04-01/08.01</name>
<description>
Network Type: Distribution
Specification: AC-OF-SM-24-SC
Number of Core: 24
Fiber Length: 1841m
Construction Status: In Service
</description>
<styleUrl>#m_kabel_e_8</styleUrl>
<LineString>
<tessellate>1</tessellate>
<coordinates>114.6336411446384,-3.358691872537452,0 114.6335910186455,-3.358696269442947,0 114.6335910186455,-3.358696269442947,0 114.6334906768283,-3.358744994333654,0 114.6334906768283,-3.358744994333654,0 114.6333447904262,-3.358576027532894,0 114.6333447904262,-3.358576027532894,0 114.6331723138916,-3.358322532430284,0 114.6331723138916,-3.358322532430284,0 114.6330540057687,-3.358179767559273,0 114.6330540057687,-3.358179767559273,0 114.6329677675014,-3.358091201287516,0 114.6329677675014,-3.358091201287516,0 114.6327740907262,-3.357905095447440,0 114.6327740907262,-3.357905095447440,0 114.6327234257441,-3.357830886410380,0 114.6325872411471,-3.357655997141898,0 114.6325872411471,-3.357655997141898,0 114.6323958101600,-3.357410218910819,0 114.6323958101600,-3.357410218910819,0 114.6322298014955,-3.357197103399123,0 114.6322037503523,-3.357162825448782,0 114.6322037503523,-3.357162825448782,0 114.6320307348285,-3.356923687370661,0 114.6320307348285,-3.356923687370661,0 114.6319276082339,-3.356798779211400,0 114.6318019339257,-3.356632593914701,0 114.6318019339257,-3.356632593914701,0 114.6316077181613,-3.356375778372035,0 114.6316077181613,-3.356375778372035,0 114.6315415123248,-3.356288288790505,0 114.6314845591358,-3.356221348040639,0 114.6314845591358,-3.356221348040639,0 114.6311981762232,-3.355840970185099,0 114.6311981762232,-3.355840970185099,0 114.6310692679799,-3.355656838195522,0 114.6310692679799,-3.355656838195522,0 114.6309402699051,-3.355472706183749,0 114.6309402699051,-3.355472706183749,0 114.6308967016139,-3.355412315904098,0 114.6308967016139,-3.355412315904098,0 114.6309899467404,-3.355340709001805,0 114.6309899467404,-3.355340709001805,0 114.6313193589550,-3.355067561839927,0 114.6313193589550,-3.355067561839927,0 114.6315716058868,-3.354854625467316,0 114.6315716058868,-3.354854625467316,0 114.6318350817597,-3.354622934867192,0 114.6318350817597,-3.354622934867192,0 114.6321202968624,-3.354451096153857,0 114.6321202968624,-3.354451096153857,0 114.6324348868749,-3.354127788067977,0 114.6324348868749,-3.354127788067977,0 114.6327188443362,-3.353884880726705,0 114.6327188443362,-3.353884880726705,0 114.6330290326038,-3.353630756714014,0 114.6330290326038,-3.353630756714014,0 114.6332308840481,-3.353466276001070,0 114.6332308840481,-3.353466276001070,0 114.6332495690060,-3.353310678845536,0 114.6332495690060,-3.353310678845536,0 114.6335333468043,-3.353065976712481,0 114.6335333468043,-3.353065976712481,0 114.6338248501140,-3.352818672280049,0 114.6338248501140,-3.352818672280049,0 114.6341034176836,-3.352589673365002,0 114.6341034176836,-3.352589673365002,0 114.6346716021008,-3.352095064306049,0 114.6346716021008,-3.352095064306049,0 114.6353125500560,-3.351529027472606,0 114.6353125500560,-3.351529027472606,0 114.6356415131131,-3.351267365479422,0 114.6356415131131,-3.351267365479422,0 114.6358739072770,-3.351061427768128,0 114.6358739072770,-3.351061427768128,0 114.6360894131137,-3.350874064806699,0 114.6360894131137,-3.350874064806699,0 114.6364605071576,-3.350540436641363,0 114.6364605071576,-3.350540436641363,0 114.6366516686501,-3.350379185993140,0 114.6366516686501,-3.350379185993140,0 114.6369028376035,-3.350163736436083,0 114.6369028376035,-3.350163736436083,0 114.6371661338132,-3.349919482465890,0 114.6371661338132,-3.349919482465890,0 114.6373602597462,-3.349723863901762,0 114.6373602597462,-3.349723863901762,0 114.6376012777369,-3.349508952652254,0 114.6376012777369,-3.349508952652254,0 114.6378404990971,-3.349289644440006,0 114.6378404990971,-3.349289644440006,0 114.6380870866425,-3.349015688597174,0 114.6380870866425,-3.349015688597174,0 114.6382384527679,-3.348840977786766,0 114.6382384527679,-3.348840977786766,0 114.6383897290618,-3.348666266956417,0 114.6383897290618,-3.348666266956417,0 114.6387328855003,-3.348267043212218,0 114.6387328855003,-3.348267043212218,0 114.6389241368243,-3.348010495464602,0 114.6389241368243,-3.348010495464602,0 114.6391824024685,-3.347753588740368,0 114.6391824024685,-3.347753588740368,0 114.6392500456093,-3.347896982718903,0 </coordinates>
</LineString>
</Placemark>
<Placemark>
<name>DS-ULI-FE-21-04-01/05.07</name>
<description>
Network Type: Distribution
Specification: AC-OF-SM-24-SC
Number of Core: 24
Fiber Length: 155m
Construction Status: In Service
</description>
<styleUrl>#m_kabel_e_5</styleUrl>
<LineString>
<tessellate>1</tessellate>
<coordinates>114.6325252573924,-3.353944194270190,0 114.6329736963823,-3.353542369644610,0 114.6329736963823,-3.353542369644610,0 114.6332495690060,-3.353310678845536,0 114.6332495690060,-3.353310678845536,0 114.6335333468043,-3.353065976712481,0 </coordinates>
</LineString>
</Placemark>
<Placemark>
<name>DS-ULI-FE-21-04-01/09.01</name>
<description>
Network Type: Distribution
Specification: AC-OF-SM-12-SC
Number of Core: 12
Fiber Length: 1377m
Construction Status: In Service
</description>
<styleUrl>#m_kabel_e_9</styleUrl>
<LineString>
<tessellate>1</tessellate>
<coordinates>114.6332308840481,-3.353466276001070,0 114.6332495690060,-3.353310678845536,0 114.6332495690060,-3.353310678845536,0 114.6335333468043,-3.353065976712481,0 114.6335333468043,-3.353065976712481,0 114.6338248501140,-3.352818672280049,0 114.6338248501140,-3.352818672280049,0 114.6341034176836,-3.352589673365002,0 114.6341034176836,-3.352589673365002,0 114.6346716021008,-3.352095064306049,0 114.6346716021008,-3.352095064306049,0 114.6353125500560,-3.351529027472606,0 114.6353125500560,-3.351529027472606,0 114.6356415131131,-3.351267365479422,0 114.6356415131131,-3.351267365479422,0 114.6358739072770,-3.351061427768128,0 114.6358739072770,-3.351061427768128,0 114.6360894131137,-3.350874064806699,0 114.6360894131137,-3.350874064806699,0 114.6364605071576,-3.350540436641363,0 114.6364605071576,-3.350540436641363,0 114.6366516686501,-3.350379185993140,0 114.6366516686501,-3.350379185993140,0 114.6369028376035,-3.350163736436083,0 114.6369028376035,-3.350163736436083,0 114.6371661338132,-3.349919482465890,0 114.6371661338132,-3.349919482465890,0 114.6373602597462,-3.349723863901762,0 114.6373602597462,-3.349723863901762,0 114.6376012777369,-3.349508952652254,0 114.6376012777369,-3.349508952652254,0 114.6378404990971,-3.349289644440006,0 114.6378404990971,-3.349289644440006,0 114.6380870866425,-3.349015688597174,0 114.6380870866425,-3.349015688597174,0 114.6382384527679,-3.348840977786766,0 114.6382384527679,-3.348840977786766,0 114.6383897290618,-3.348666266956417,0 114.6383897290618,-3.348666266956417,0 114.6387328855003,-3.348267043212218,0 114.6387328855003,-3.348267043212218,0 114.6389241368243,-3.348010495464602,0 114.6389241368243,-3.348010495464602,0 114.6391824024685,-3.347753588740368,0 114.6391824024685,-3.347753588740368,0 114.6392623525287,-3.347674084939215,0 114.6392623525287,-3.347674084939215,0 114.6397580429026,-3.347297473761892,0 114.6397580429026,-3.347297473761892,0 114.6401261725060,-3.346973805230273,0 114.6401261725060,-3.346973805230273,0 114.6403977332164,-3.346745702775152,0 114.6403977332164,-3.346745702775152,0 114.6408076344805,-3.346383000060197,0 114.6408076344805,-3.346383000060197,0 114.6410616780428,-3.346188637313176,0 114.6410616780428,-3.346188637313176,0 114.6413531813526,-3.345951381922819,0 114.6413531813526,-3.345951381922819,0 114.6417119684771,-3.345650505423723,0 114.6417119684771,-3.345650505423723,0 114.6417854506672,-3.345936934827135,0 </coordinates>
</LineString>
</Placemark>
<Placemark>
<name>DS-ULI-FE-21-04-01/09.01.00A</name>
<description>
Network Type: Distribution
Specification: AC-OF-SM-12-SC
Number of Core: 12
Fiber Length: 861m
Construction Status: In Service
</description>
<styleUrl>#m_kabel_e_9</styleUrl>
<LineString>
<tessellate>1</tessellate>
<coordinates>114.6336411446384,-3.358691872537452,0 114.6335910186455,-3.358696269442947,0 114.6335910186455,-3.358696269442947,0 114.6334906768283,-3.358744994333654,0 114.6334906768283,-3.358744994333654,0 114.6333447904262,-3.358576027532894,0 114.6333447904262,-3.358576027532894,0 114.6331723138916,-3.358322532430284,0 114.6331723138916,-3.358322532430284,0 114.6330540057687,-3.358179767559273,0 114.6330540057687,-3.358179767559273,0 114.6329677675014,-3.358091201287516,0 114.6329677675014,-3.358091201287516,0 114.6327740907262,-3.357905095447440,0 114.6327740907262,-3.357905095447440,0 114.6327234257441,-3.357830886410380,0 114.6325872411471,-3.357655997141898,0 114.6325872411471,-3.357655997141898,0 114.6323958101600,-3.357410218910819,0 114.6323958101600,-3.357410218910819,0 114.6322298014955,-3.357197103399123,0 114.6322037503523,-3.357162825448782,0 114.6322037503523,-3.357162825448782,0 114.6320307348285,-3.356923687370661,0 114.6320307348285,-3.356923687370661,0 114.6319276082339,-3.356798779211400,0 114.6318019339257,-3.356632593914701,0 114.6318019339257,-3.356632593914701,0 114.6316077181613,-3.356375778372035,0 114.6316077181613,-3.356375778372035,0 114.6315415123248,-3.356288288790505,0 114.6314845591358,-3.356221348040639,0 114.6314845591358,-3.356221348040639,0 114.6311981762232,-3.355840970185099,0 114.6311981762232,-3.355840970185099,0 114.6310692679799,-3.355656838195522,0 114.6310692679799,-3.355656838195522,0 114.6309402699051,-3.355472706183749,0 114.6309402699051,-3.355472706183749,0 114.6308967016139,-3.355412315904098,0 114.6308967016139,-3.355412315904098,0 114.6309899467404,-3.355340709001805,0 114.6309899467404,-3.355340709001805,0 114.6313193589550,-3.355067561839927,0 114.6313193589550,-3.355067561839927,0 114.6315716058868,-3.354854625467316,0 114.6315716058868,-3.354854625467316,0 114.6318350817597,-3.354622934867192,0 114.6318350817597,-3.354622934867192,0 114.6321202968624,-3.354451096153857,0 114.6321202968624,-3.354451096153857,0 114.6324348868749,-3.354127788067977,0 114.6324348868749,-3.354127788067977,0 114.6327188443362,-3.353884880726705,0 114.6327188443362,-3.353884880726705,0 114.6330290326038,-3.353630756714014,0 114.6330290326038,-3.353630756714014,0 114.6332308840481,-3.353466276001070,0 </coordinates>
</LineString>
</Placemark>
<Placemark>
<name>DSULN-FE-10-01-04/01.01</name>
<description>
Network Type: Distribution
Specification: AC-OF-SM-12-SC
Number of Core: 12
Fiber Length: 2274m
Construction Status: In Service
</description>
<styleUrl>#m_kabel_e_1</styleUrl>
<LineString>
<tessellate>1</tessellate>
<coordinates>114.6368282774349,-3.362849185894410,0 114.6367399730425,-3.362867401596029,0 114.6367399730425,-3.362867401596029,0 114.6365774678076,-3.362898269582511,0 114.6365774678076,-3.362898269582511,0 114.6363708552923,-3.362588064236461,0 114.6363708552923,-3.362588064236461,0 114.6362205671452,-3.362384999493525,0 114.6362205671452,-3.362384999493525,0 114.6360156614289,-3.362124595616558,0 114.6360156614289,-3.362124595616558,0 114.6358281830291,-3.361906814669449,0 114.6358281830291,-3.361906814669449,0 114.6356717863381,-3.361704288231305,0 114.6356717863381,-3.361704288231305,0 114.6355955193705,-3.361605492648489,0 114.6355955193705,-3.361605492648489,0 114.6354077714761,-3.361354600294941,0 114.6354077714761,-3.361354600294941,0 114.6352003504770,-3.361082800198691,0 114.6352003504770,-3.361082800198691,0 114.6349635545681,-3.360777260580692,0 114.6349635545681,-3.360777260580692,0 114.6346793276122,-3.360350312606664,0 114.6346793276122,-3.360350312606664,0 114.6345529346518,-3.360237787836996,0 114.6345529346518,-3.360237787836996,0 114.6343385067934,-3.359961680372568,0 114.6343385067934,-3.359961680372568,0 114.6341198568533,-3.359922467186209,0 114.6341198568533,-3.359922467186209,0 114.6339278868771,-3.359673010279132,0 114.6339278868771,-3.359673010279132,0 114.6337373542053,-3.359426335045669,0 114.6337373542053,-3.359426335045669,0 114.6335299332062,-3.359154444873087,0 114.6335299332062,-3.359154444873087,0 114.6333365259255,-3.358903641849147,0 114.6333365259255,-3.358903641849147,0 114.6332493893430,-3.358790129912423,0 114.6332493893430,-3.358790129912423,0 114.6331235353717,-3.358626188151748,0 114.6331235353717,-3.358626188151748,0 114.6328923090176,-3.358315084608932,0 114.6328923090176,-3.358315084608932,0 114.6327171375371,-3.358083843197838,0 114.6327171375371,-3.358083843197838,0 114.6325685561891,-3.357889033274067,0 114.6325685561891,-3.357889033274067,0 114.6324018288724,-3.357667662409275,0 114.6324018288724,-3.357667662409275,0 114.6323243042634,-3.357566354045771,0 114.6323243042634,-3.357566354045771,0 114.6321818314593,-3.357380337874555,0 114.6321818314593,-3.357380337874555,0 114.6319589594373,-3.357087449848461,0 114.6319589594373,-3.357087449848461,0 114.6317068921686,-3.356789357259319,0 114.6317068921686,-3.356789357259319,0 114.6316170606402,-3.356675665699594,0 114.6316170606402,-3.356675665699594,0 114.6314700962597,-3.356485162775114,0 114.6314700962597,-3.356485162775114,0 114.6313418168372,-3.356320682369478,0 114.6313418168372,-3.356320682369478,0 114.6313089384978,-3.356278507903648,0 114.6313089384978,-3.356278507903648,0 114.6311793116022,-3.356123269966170,0 114.6311793116022,-3.356123269966170,0 114.6310537271255,-3.355964263230037,0 114.6310537271255,-3.355964263230037,0 114.6316772477643,-3.355533275926910,0 114.6316772477643,-3.355533275926910,0 114.6324681245404,-3.354939064209438,0 114.6324681245404,-3.354939064209438,0 114.6321568582944,-3.354584977805803,0 114.6321568582944,-3.354584977805803,0 114.6321202968624,-3.354451096153857,0 114.6321202968624,-3.354451096153857,0 114.6320271415674,-3.354339109347510,0 114.6320271415674,-3.354339109347510,0 114.6323254720733,-3.354086421138922,0 114.6323254720733,-3.354086421138922,0 114.6325252573924,-3.353944194270190,0 114.6325252573924,-3.353944194270190,0 114.6329736963823,-3.353542369644610,0 114.6329736963823,-3.353542369644610,0 114.6332495690060,-3.353310678845536,0 114.6332495690060,-3.353310678845536,0 114.6335333468043,-3.353065976712481,0 114.6335333468043,-3.353065976712481,0 114.6338248501140,-3.352818672280049,0 114.6338248501140,-3.352818672280049,0 114.6341034176836,-3.352589673365002,0 114.6341034176836,-3.352589673365002,0 114.6346716021008,-3.352095064306049,0 114.6346716021008,-3.352095064306049,0 114.6353125500560,-3.351529027472606,0 114.6353125500560,-3.351529027472606,0 114.6356415131131,-3.351267365479422,0 114.6356415131131,-3.351267365479422,0 114.6358739072770,-3.351061427768128,0 114.6358739072770,-3.351061427768128,0 114.6360894131137,-3.350874064806699,0 114.6360894131137,-3.350874064806699,0 114.6364605071576,-3.350540436641363,0 114.6364605071576,-3.350540436641363,0 114.6366516686501,-3.350379185993140,0 114.6366516686501,-3.350379185993140,0 114.6369028376035,-3.350163736436083,0 114.6369028376035,-3.350163736436083,0 114.6371661338132,-3.349919482465890,0 114.6371661338132,-3.349919482465890,0 114.6375236632963,-3.350199270809096,0 114.6375236632963,-3.350199270809096,0 114.6378617891693,-3.350432487544848,0 114.6381053224428,-3.350265493956609,0 114.6378617891693,-3.350432487544848,0    </coordinates>
</LineString>
</Placemark>
</Folder>
<Folder>
<name>Drop</name>
</Folder>
</Folder>
<Folder>
<name>Misc</name>
<Placemark>
<name>R6-KALIMANTAN SELATAN-KALSEL-ULI-FAW-MAHLIGAI PERMATA</name>
<description>
</description>
<styleUrl>#m_proj_area</styleUrl>
<Polygon>
<extrude>1</extrude>
<outerBoundaryIs>
<LinearRing>
<coordinates>114.6328040944567,-3.353486465942239,0 114.6333022102817,-3.353100075288555,0 114.6336420429537,-3.353505130420945,0 114.6331206607628,-3.353989329990853,0 114.6328040944567,-3.353486465942239,0 </coordinates>
</LinearRing>
</outerBoundaryIs>
</Polygon>
</Placemark>
<Placemark>
<name></name>
<description>
DSULN-FE-10-01-04/01.01;AC-OF-SM-12-SC
DS-ULI-FE-21-04-01/05.07;AC-OF-SM-24-SC
</description>
<styleUrl>#m_multi</styleUrl>
<Point>
<coordinates>114.6331116326942,-3.353426524249463,0</coordinates>
</Point>
</Placemark>
<Placemark>
<name></name>
<description>
DS-ULI-FE-07-18-01/02.01;AC-OF-SM-12-SC
DS-ULI-FE-21-04-01/08.01;AC-OF-SM-24-SC
DS-ULI-FE-21-04-01/09.01.00A;AC-OF-SM-12-SC
</description>
<styleUrl>#m_multi</styleUrl>
<Point>
<coordinates>114.6331299583260,-3.353548516359750,0</coordinates>
</Point>
</Placemark>
<Placemark>
<name></name>
<description>
DS-ULI-FE-07-18-01/02.01;AC-OF-SM-12-SC
DS-ULI-FE-21-04-01/08.01;AC-OF-SM-24-SC
DS-ULI-FE-21-04-01/09.01;AC-OF-SM-12-SC
</description>
<styleUrl>#m_multi</styleUrl>
<Point>
<coordinates>114.6332402265271,-3.353388477425282,0</coordinates>
</Point>
</Placemark>
</Folder>
</Document>
</kml>