<?xml version="1.0" encoding="UTF-8"?>
<kml xmlns="http://www.opengis.net/kml/2.2" xmlns:gx="http://www.google.com/kml/ext/2.2" xmlns:kml="http://www.opengis.net/kml/2.2" xmlns:atom="http://www.w3.org/2005/Atom">
<Document>
	<!-- Project Area -->
	<Style id="s_proj_area">
		<LineStyle>
			<color>ff00ff00</color>
			<width>4</width>
			<gx:altitudeMode>clampedToGround</gx:altitudeMode>
		</LineStyle>
		<PolyStyle>
			<color>0000ff00</color>
			<fill>0</fill>
			<gx:altitudeMode>clampedToGround</gx:altitudeMode>
		</PolyStyle>
    </Style>
	<Style id="h_proj_area">
		<LineStyle>
			<color>ff00ff00</color>
			<width>4</width>
			<gx:altitudeMode>clampedToGround</gx:altitudeMode>
		</LineStyle>
		<PolyStyle>
			<color>0000ff00</color>
			<fill>0</fill>
			<gx:altitudeMode>clampedToGround</gx:altitudeMode>
		</PolyStyle>
    </Style>
	<StyleMap id="m_proj_area">
		<Pair>
			<key>normal</key>
			<styleUrl>#s_proj_area</styleUrl>
		</Pair>
		<Pair>
			<key>highlight</key>
			<styleUrl>#h_proj_area</styleUrl>
		</Pair>
	</StyleMap>
	
	<!-- Tiang Planned -->
	<Style id="s_tiang">
		<IconStyle>
		<color>ff000000</color>
			<scale>1.1</scale>
			<Icon>
				<href>http://maps.google.com/mapfiles/kml/shapes/shaded_dot.png</href>
			</Icon>
			<hotSpot x="25" y="35" xunits="pixels" yunits="pixels"/>
		</IconStyle>
	</Style>
	<Style id="h_tiang">
		<IconStyle>
		<color>ff000000</color>
			<scale>1.3</scale>
			<Icon>
				<href>http://maps.google.com/mapfiles/kml/shapes/shaded_dot.png</href>
			</Icon>
			<hotSpot x="25" y="35" xunits="pixels" yunits="pixels"/>
		</IconStyle>
	</Style>
	<StyleMap id="m_tiang">
		<Pair>
			<key>normal</key>
			<styleUrl>#s_tiang</styleUrl>
		</Pair>
		<Pair>
			<key>highlight</key>
			<styleUrl>#h_tiang</styleUrl>
		</Pair>
	</StyleMap>
	
	<!-- Tiang Existing -->
	<Style id="s_tiang_e">
		<IconStyle>
		<color>ff000000</color>
			<scale>0.9</scale>
			<Icon>
				<href>http://maps.google.com/mapfiles/kml/shapes/donut.png</href>
			</Icon>
			<hotSpot x="25" y="35" xunits="pixels" yunits="pixels"/>
		</IconStyle>
	</Style>
	<Style id="h_tiang_e">
		<IconStyle>
		<color>ff000000</color>
			<scale>1.1</scale>
			<Icon>
				<href>http://maps.google.com/mapfiles/kml/shapes/donut.png</href>
			</Icon>
			<hotSpot x="25" y="35" xunits="pixels" yunits="pixels"/>
		</IconStyle>
	</Style>
	<StyleMap id="m_tiang_e">
		<Pair>
			<key>normal</key>
			<styleUrl>#s_tiang_e</styleUrl>
		</Pair>
		<Pair>
			<key>highlight</key>
			<styleUrl>#h_tiang_e</styleUrl>
		</Pair>
	</StyleMap>
	
	<!-- ODP -->
	<Style id="s_odp">
		<IconStyle>
			<scale>1.1</scale>
			<Icon>
				<href>http://maps.google.com/mapfiles/kml/paddle/ylw-stars.png</href>
			</Icon>
			<hotSpot x="30" y="1" xunits="pixels" yunits="pixels"/>
		</IconStyle>
	</Style>
	<Style id="h_odp">
		<IconStyle>
			<scale>1.3</scale>
			<Icon>
				<href>http://maps.google.com/mapfiles/kml/paddle/ylw-stars.png</href>
			</Icon>
			<hotSpot x="30" y="1" xunits="pixels" yunits="pixels"/>
		</IconStyle>
	</Style>
	<StyleMap id="m_odp">
		<Pair>
			<key>normal</key>
			<styleUrl>#s_odp</styleUrl>
		</Pair>
		<Pair>
			<key>highlight</key>
			<styleUrl>#h_odp</styleUrl>
		</Pair>
	</StyleMap>
	
	<!-- ODP SC-OF-SM-->
	<Style id="s_odp_scofsm">
		<IconStyle>
			<scale>1.1</scale>
			<Icon>
				<href>http://maps.google.com/mapfiles/kml/shapes/forbidden.png</href>
			</Icon>
			<hotSpot x="30" y="30" xunits="pixels" yunits="pixels"/>
		</IconStyle>
	</Style>
	<Style id="h_odp_scofsm">
		<IconStyle>
			<scale>1.3</scale>
			<Icon>
				<href>http://maps.google.com/mapfiles/kml/shapes/forbidden.png</href>
			</Icon>
			<hotSpot x="30" y="30" xunits="pixels" yunits="pixels"/>
		</IconStyle>
	</Style>
	<StyleMap id="m_odp_scofsm">
		<Pair>
			<key>normal</key>
			<styleUrl>#s_odp_scofsm</styleUrl>
		</Pair>
		<Pair>
			<key>highlight</key>
			<styleUrl>#h_odp_scofsm</styleUrl>
		</Pair>
	</StyleMap>
	
	<!-- ODC -->
	<Style id="s_odc">
		<IconStyle>
		<color>ff0000ff</color>
			<scale>2</scale>
			<Icon>
				<href>http://maps.google.com/mapfiles/kml/shapes/triangle.png</href>
			</Icon>
		</IconStyle>
	</Style>
	<Style id="h_odc">
		<IconStyle>
			<color>ff0000ff</color>
			<scale>2.36364</scale>
			<Icon>
				<href>http://maps.google.com/mapfiles/kml/shapes/triangle.png</href>
			</Icon>
		</IconStyle>
	</Style>
	<StyleMap id="m_odc">
		<Pair>
			<key>normal</key>
			<styleUrl>#s_odc</styleUrl>
		</Pair>
		<Pair>
			<key>highlight</key>
			<styleUrl>#h_odc</styleUrl>
		</Pair>
	</StyleMap>
	
	<!-- Underground Route -->
	<Style id="s_urute">
		<LineStyle>
			<color>ff7800F0</color>
			<width>11</width>
		</LineStyle>
	</Style>
	<Style id="h_urute">
		<LineStyle>
			<color>ff7800F0</color>
			<width>11</width>
		</LineStyle>
	</Style>
	<StyleMap id="m_urute">
		<Pair>
			<key>normal</key>
			<styleUrl>#s_urute</styleUrl>
		</Pair>
		<Pair>
			<key>highlight</key>
			<styleUrl>#h_urute</styleUrl>
		</Pair>
	</StyleMap>
	
	<!-- Kabel -->
	<Style id="s_kabel">
		<LineStyle>
			<color>ff00ffff</color>
			<width>6</width>
		</LineStyle>
	</Style>
	<Style id="h_kabel">
		<LineStyle>
			<color>ff00ffff</color>
			<width>6</width>
		</LineStyle>
	</Style>
	<StyleMap id="m_kabel_unset">
		<Pair>
			<key>normal</key>
			<styleUrl>#s_kabel</styleUrl>
		</Pair>
		<Pair>
			<key>highlight</key>
			<styleUrl>#h_kabel</styleUrl>
		</Pair>
	</StyleMap>
	
	<!-- Kabel Existing-->
	<Style id="s_kabel_e">
		<LineStyle>
			<color>ff00ffff</color>
			<width>3</width>
		</LineStyle>
	</Style>
	<Style id="h_kabel_e">
		<LineStyle>
			<color>ff00ffff</color>
			<width>3</width>
		</LineStyle>
	</Style>
	<StyleMap id="m_kabel_e_unset">
		<Pair>
			<key>normal</key>
			<styleUrl>#s_kabel</styleUrl>
		</Pair>
		<Pair>
			<key>highlight</key>
			<styleUrl>#h_kabel</styleUrl>
		</Pair>
	</StyleMap>
	
	<!-- Kabel D01 -->
	<Style id="s_kabel_D01">
		<LineStyle>
			<color>ffff0000</color>
			<width>6</width>
		</LineStyle>
	</Style>
	<Style id="h_kabel_D01">
		<LineStyle>
			<color>ffff0000</color>
			<width>6</width>
		</LineStyle>
	</Style>
	<StyleMap id="m_kabel_1">
		<Pair>
			<key>normal</key>
			<styleUrl>#s_kabel_D01</styleUrl>
		</Pair>
		<Pair>
			<key>highlight</key>
			<styleUrl>#h_kabel_D01</styleUrl>
		</Pair>
	</StyleMap>
	
	<!-- Kabel Existing D01-->
	<Style id="s_kabel_e_D01">
		<LineStyle>
			<color>ffff0000</color>
			<width>3</width>
		</LineStyle>
	</Style>
	<Style id="h_kabel_e_D01">
		<LineStyle>
			<color>ffff0000</color>
			<width>3</width>
		</LineStyle>
	</Style>
	<StyleMap id="m_kabel_e_1">
		<Pair>
			<key>normal</key>
			<styleUrl>#s_kabel_e_D01</styleUrl>
		</Pair>
		<Pair>
			<key>highlight</key>
			<styleUrl>#h_kabel_e_D01</styleUrl>
		</Pair>
	</StyleMap>
	
	<!-- Kabel D02 -->
	<Style id="s_kabel_D02">
		<LineStyle>
			<color>ff0055ff</color>
			<width>6</width>
		</LineStyle>
	</Style>
	<Style id="h_kabel_D02">
		<LineStyle>
			<color>ff0055ff</color>
			<width>6</width>
		</LineStyle>
	</Style>
	<StyleMap id="m_kabel_2">
		<Pair>
			<key>normal</key>
			<styleUrl>#s_kabel_D02</styleUrl>
		</Pair>
		<Pair>
			<key>highlight</key>
			<styleUrl>#h_kabel_D02</styleUrl>
		</Pair>
	</StyleMap>
	
	<!-- Kabel Existing D02-->
	<Style id="s_kabel_e_D02">
		<LineStyle>
			<color>ff0055ff</color>
			<width>3</width>
		</LineStyle>
	</Style>
	<Style id="h_kabel_e_D02">
		<LineStyle>
			<color>ff0055ff</color>
			<width>3</width>
		</LineStyle>
	</Style>
	<StyleMap id="m_kabel_e_2">
		<Pair>
			<key>normal</key>
			<styleUrl>#s_kabel_e_D02</styleUrl>
		</Pair>
		<Pair>
			<key>highlight</key>
			<styleUrl>#h_kabel_e_D02</styleUrl>
		</Pair>
	</StyleMap>
	
	<!-- Kabel D03 -->
	<Style id="s_kabel_D03">
		<LineStyle>
			<color>ff00ff55</color>
			<width>6</width>
		</LineStyle>
	</Style>
	<Style id="h_kabel_D03">
		<LineStyle>
			<color>ff00ff55</color>
			<width>6</width>
		</LineStyle>
	</Style>
	<StyleMap id="m_kabel_3">
		<Pair>
			<key>normal</key>
			<styleUrl>#s_kabel_D03</styleUrl>
		</Pair>
		<Pair>
			<key>highlight</key>
			<styleUrl>#h_kabel_D03</styleUrl>
		</Pair>
	</StyleMap>
	
	<!-- Kabel Existing D03-->
	<Style id="s_kabel_e_D03">
		<LineStyle>
			<color>ff00ff55</color>
			<width>3</width>
		</LineStyle>
	</Style>
	<Style id="h_kabel_e_D03">
		<LineStyle>
			<color>ff00ff55</color>
			<width>3</width>
		</LineStyle>
	</Style>
	<StyleMap id="m_kabel_e_3">
		<Pair>
			<key>normal</key>
			<styleUrl>#s_kabel_e_D03</styleUrl>
		</Pair>
		<Pair>
			<key>highlight</key>
			<styleUrl>#h_kabel_e_D03</styleUrl>
		</Pair>
	</StyleMap>
	
	<!-- Kabel D04 -->
	<Style id="s_kabel_D04">
		<LineStyle>
			<color>ff0055aa</color>
			<width>6</width>
		</LineStyle>
	</Style>
	<Style id="h_kabel_D04">
		<LineStyle>
			<color>ff0055aa</color>
			<width>6</width>
		</LineStyle>
	</Style>
	<StyleMap id="m_kabel_4">
		<Pair>
			<key>normal</key>
			<styleUrl>#s_kabel_D04</styleUrl>
		</Pair>
		<Pair>
			<key>highlight</key>
			<styleUrl>#h_kabel_D04</styleUrl>
		</Pair>
	</StyleMap>
	
	<!-- Kabel Existing D04-->
	<Style id="s_kabel_e_D04">
		<LineStyle>
			<color>ff0055aa</color>
			<width>3</width>
		</LineStyle>
	</Style>
	<Style id="h_kabel_e_D04">
		<LineStyle>
			<color>ff0055aa</color>
			<width>3</width>
		</LineStyle>
	</Style>
	<StyleMap id="m_kabel_e_4">
		<Pair>
			<key>normal</key>
			<styleUrl>#s_kabel_e_D04</styleUrl>
		</Pair>
		<Pair>
			<key>highlight</key>
			<styleUrl>#h_kabel_e_D04</styleUrl>
		</Pair>
	</StyleMap>
	
	<!-- Kabel D05 -->
	<Style id="s_kabel_D05">
		<LineStyle>
			<color>ffaaaaaa</color>
			<width>6</width>
		</LineStyle>
	</Style>
	<Style id="h_kabel_D05">
		<LineStyle>
			<color>ffaaaaaa</color>
			<width>6</width>
		</LineStyle>
	</Style>
	<StyleMap id="m_kabel_5">
		<Pair>
			<key>normal</key>
			<styleUrl>#s_kabel_D05</styleUrl>
		</Pair>
		<Pair>
			<key>highlight</key>
			<styleUrl>#h_kabel_D05</styleUrl>
		</Pair>
	</StyleMap>
	
	<!-- Kabel Existing D05-->
	<Style id="s_kabel_e_D05">
		<LineStyle>
			<color>ffaaaaaa</color>
			<width>3</width>
		</LineStyle>
	</Style>
	<Style id="h_kabel_e_D05">
		<LineStyle>
			<color>ffaaaaaa</color>
			<width>3</width>
		</LineStyle>
	</Style>
	<StyleMap id="m_kabel_e_5">
		<Pair>
			<key>normal</key>
			<styleUrl>#s_kabel_e_D05</styleUrl>
		</Pair>
		<Pair>
			<key>highlight</key>
			<styleUrl>#h_kabel_e_D05</styleUrl>
		</Pair>
	</StyleMap>
	
	<!-- Kabel D06 -->
	<Style id="s_kabel_D06">
		<LineStyle>
			<color>ffffffff</color>
			<width>6</width>
		</LineStyle>
	</Style>
	<Style id="h_kabel_D06">
		<LineStyle>
			<color>ffffffff</color>
			<width>6</width>
		</LineStyle>
	</Style>
	<StyleMap id="m_kabel_6">
		<Pair>
			<key>normal</key>
			<styleUrl>#s_kabel_D06</styleUrl>
		</Pair>
		<Pair>
			<key>highlight</key>
			<styleUrl>#h_kabel_D06</styleUrl>
		</Pair>
	</StyleMap>
	
	<!-- Kabel Existing D06-->
	<Style id="s_kabel_e_D06">
		<LineStyle>
			<color>ffffffff</color>
			<width>3</width>
		</LineStyle>
	</Style>
	<Style id="h_kabel_e_D06">
		<LineStyle>
			<color>ffffffff</color>
			<width>3</width>
		</LineStyle>
	</Style>
	<StyleMap id="m_kabel_e_6">
		<Pair>
			<key>normal</key>
			<styleUrl>#s_kabel_e_D06</styleUrl>
		</Pair>
		<Pair>
			<key>highlight</key>
			<styleUrl>#h_kabel_e_D06</styleUrl>
		</Pair>
	</StyleMap>
	
	<!-- Kabel D07 -->
	<Style id="s_kabel_D07">
		<LineStyle>
			<color>ff0000ff</color>
			<width>6</width>
		</LineStyle>
	</Style>
	<Style id="h_kabel_D07">
		<LineStyle>
			<color>ff0000ff</color>
			<width>6</width>
		</LineStyle>
	</Style>
	<StyleMap id="m_kabel_7">
		<Pair>
			<key>normal</key>
			<styleUrl>#s_kabel_D07</styleUrl>
		</Pair>
		<Pair>
			<key>highlight</key>
			<styleUrl>#h_kabel_D07</styleUrl>
		</Pair>
	</StyleMap>
	
	<!-- Kabel Existing D07-->
	<Style id="s_kabel_e_D07">
		<LineStyle>
			<color>ff0000ff</color>
			<width>3</width>
		</LineStyle>
	</Style>
	<Style id="h_kabel_e_D07">
		<LineStyle>
			<color>ff0000ff</color>
			<width>3</width>
		</LineStyle>
	</Style>
	<StyleMap id="m_kabel_e_7">
		<Pair>
			<key>normal</key>
			<styleUrl>#s_kabel_e_D07</styleUrl>
		</Pair>
		<Pair>
			<key>highlight</key>
			<styleUrl>#h_kabel_e_D07</styleUrl>
		</Pair>
	</StyleMap>
	
	<!-- Kabel D08 -->
	<Style id="s_kabel_D08">
		<LineStyle>
			<color>ff000000</color>
			<width>6</width>
		</LineStyle>
	</Style>
	<Style id="h_kabel_D08">
		<LineStyle>
			<color>ff000000</color>
			<width>6</width>
		</LineStyle>
	</Style>
	<StyleMap id="m_kabel_8">
		<Pair>
			<key>normal</key>
			<styleUrl>#s_kabel_D08</styleUrl>
		</Pair>
		<Pair>
			<key>highlight</key>
			<styleUrl>#h_kabel_D08</styleUrl>
		</Pair>
	</StyleMap>
	
	<!-- Kabel Existing D08-->
	<Style id="s_kabel_e_D08">
		<LineStyle>
			<color>ff000000</color>
			<width>3</width>
		</LineStyle>
	</Style>
	<Style id="h_kabel_e_D08">
		<LineStyle>
			<color>ff000000</color>
			<width>3</width>
		</LineStyle>
	</Style>
	<StyleMap id="m_kabel_e_8">
		<Pair>
			<key>normal</key>
			<styleUrl>#s_kabel_e_D08</styleUrl>
		</Pair>
		<Pair>
			<key>highlight</key>
			<styleUrl>#h_kabel_e_D08</styleUrl>
		</Pair>
	</StyleMap>
	
	<!-- Kabel D09 -->
	<Style id="s_kabel_D09">
		<LineStyle>
			<color>ff00ffff</color>
			<width>6</width>
		</LineStyle>
	</Style>
	<Style id="h_kabel_D09">
		<LineStyle>
			<color>ff00ffff</color>
			<width>6</width>
		</LineStyle>
	</Style>
	<StyleMap id="m_kabel_9">
		<Pair>
			<key>normal</key>
			<styleUrl>#s_kabel_D09</styleUrl>
		</Pair>
		<Pair>
			<key>highlight</key>
			<styleUrl>#h_kabel_D09</styleUrl>
		</Pair>
	</StyleMap>
	
	<!-- Kabel Existing D09-->
	<Style id="s_kabel_e_D09">
		<LineStyle>
			<color>ff00ffff</color>
			<width>3</width>
		</LineStyle>
	</Style>
	<Style id="h_kabel_e_D09">
		<LineStyle>
			<color>ff00ffff</color>
			<width>3</width>
		</LineStyle>
	</Style>
	<StyleMap id="m_kabel_e_9">
		<Pair>
			<key>normal</key>
			<styleUrl>#s_kabel_e_D09</styleUrl>
		</Pair>
		<Pair>
			<key>highlight</key>
			<styleUrl>#h_kabel_e_D09</styleUrl>
		</Pair>
	</StyleMap>
	
	<!-- Kabel D10 -->
	<Style id="s_kabel_D10">
		<LineStyle>
			<color>ffb95eff</color>
			<width>6</width>
		</LineStyle>
	</Style>
	<Style id="h_kabel_D10">
		<LineStyle>
			<color>ffb95eff</color>
			<width>6</width>
		</LineStyle>
	</Style>
	<StyleMap id="m_kabel_10">
		<Pair>
			<key>normal</key>
			<styleUrl>#s_kabel_D10</styleUrl>
		</Pair>
		<Pair>
			<key>highlight</key>
			<styleUrl>#h_kabel_D10</styleUrl>
		</Pair>
	</StyleMap>
	
	<!-- Kabel Existing D10-->
	<Style id="s_kabel_e_D10">
		<LineStyle>
			<color>ffb95eff</color>
			<width>3</width>
		</LineStyle>
	</Style>
	<Style id="h_kabel_e_D10">
		<LineStyle>
			<color>ffb95eff</color>
			<width>3</width>
		</LineStyle>
	</Style>
	<StyleMap id="m_kabel_e_10">
		<Pair>
			<key>normal</key>
			<styleUrl>#s_kabel_e_D10</styleUrl>
		</Pair>
		<Pair>
			<key>highlight</key>
			<styleUrl>#h_kabel_e_D10</styleUrl>
		</Pair>
	</StyleMap>
	
	<!-- Kabel D11 -->
	<Style id="s_kabel_D11">
		<LineStyle>
			<color>ffff00aa</color>
			<width>6</width>
		</LineStyle>
	</Style>
	<Style id="h_kabel_D11">
		<LineStyle>
			<color>ffff00aa</color>
			<width>6</width>
		</LineStyle>
	</Style>
	<StyleMap id="m_kabel_11">
		<Pair>
			<key>normal</key>
			<styleUrl>#s_kabel_D11</styleUrl>
		</Pair>
		<Pair>
			<key>highlight</key>
			<styleUrl>#h_kabel_D11</styleUrl>
		</Pair>
	</StyleMap>
	
	<!-- Kabel Existing D11-->
	<Style id="s_kabel_e_D11">
		<LineStyle>
			<color>ffff00aa</color>
			<width>3</width>
		</LineStyle>
	</Style>
	<Style id="h_kabel_e_D11">
		<LineStyle>
			<color>ffff00aa</color>
			<width>3</width>
		</LineStyle>
	</Style>
	<StyleMap id="m_kabel_e_11">
		<Pair>
			<key>normal</key>
			<styleUrl>#s_kabel_e_D11</styleUrl>
		</Pair>
		<Pair>
			<key>highlight</key>
			<styleUrl>#h_kabel_e_D11</styleUrl>
		</Pair>
	</StyleMap>
	
	<!-- Kabel D12 -->
	<Style id="s_kabel_D12">
		<LineStyle>
			<color>ffffffaa</color>
			<width>6</width>
		</LineStyle>
	</Style>
	<Style id="h_kabel_D12">
		<LineStyle>
			<color>ffffffaa</color>
			<width>6</width>
		</LineStyle>
	</Style>
	<StyleMap id="m_kabel_12">
		<Pair>
			<key>normal</key>
			<styleUrl>#s_kabel_D12</styleUrl>
		</Pair>
		<Pair>
			<key>highlight</key>
			<styleUrl>#h_kabel_D12</styleUrl>
		</Pair>
	</StyleMap>
	
	<!-- Kabel Existing D12-->
	<Style id="s_kabel_e_D12">
		<LineStyle>
			<color>ffffffaa</color>
			<width>3</width>
		</LineStyle>
	</Style>
	<Style id="h_kabel_e_D12">
		<LineStyle>
			<color>ffffffaa</color>
			<width>3</width>
		</LineStyle>
	</Style>
	<StyleMap id="m_kabel_e_12">
		<Pair>
			<key>normal</key>
			<styleUrl>#s_kabel_e_D12</styleUrl>
		</Pair>
		<Pair>
			<key>highlight</key>
			<styleUrl>#h_kabel_e_D12</styleUrl>
		</Pair>
	</StyleMap>
	
	<!-- Kabel Feeder -->
	<Style id="s_kabel_f">
		<LineStyle>
			<color>FFF00014</color>
			<width>8</width>
		</LineStyle>
	</Style>
	<Style id="h_kabel_f">
		<LineStyle>
			<color>FFF00014</color>
			<width>8</width>
		</LineStyle>
	</Style>
	<StyleMap id="m_kabel_f">
		<Pair>
			<key>normal</key>
			<styleUrl>#s_kabel_f</styleUrl>
		</Pair>
		<Pair>
			<key>highlight</key>
			<styleUrl>#h_kabel_f</styleUrl>
		</Pair>
	</StyleMap>
	
	<!-- Kabel Feeder Existing-->
	<Style id="s_kabel_f_e">
		<LineStyle>
			<color>FFF00014</color>
			<width>4</width>
		</LineStyle>
	</Style>
	<Style id="h_kabel_f_e">
		<LineStyle>
			<color>FFF00014</color>
			<width>4</width>
		</LineStyle>
	</Style>
	<StyleMap id="m_kabel_f_e">
		<Pair>
			<key>normal</key>
			<styleUrl>#s_kabel_f_e</styleUrl>
		</Pair>
		<Pair>
			<key>highlight</key>
			<styleUrl>#h_kabel_f_e</styleUrl>
		</Pair>
	</StyleMap>
	
	<!-- Manhole -->
	<Style id="s_manhole">
		<IconStyle>
			<scale>1.1</scale>
			<Icon>
				<href>http://maps.google.com/mapfiles/kml/shapes/square.png</href>
			</Icon>
			<hotSpot x="1" y="1" xunits="pixels" yunits="pixels"/>
		</IconStyle>
	</Style>
	<Style id="h_manhole">
		<IconStyle>
			<scale>1.3</scale>
			<Icon>
				<href>http://maps.google.com/mapfiles/kml/shapes/square.png</href>
			</Icon>
			<hotSpot x="1" y="1" xunits="pixels" yunits="pixels"/>
		</IconStyle>
	</Style>
	<StyleMap id="m_manhole">
		<Pair>
			<key>normal</key>
			<styleUrl>#s_manhole</styleUrl>
		</Pair>
		<Pair>
			<key>highlight</key>
			<styleUrl>#h_manhole</styleUrl>
		</Pair>
	</StyleMap>
	
	<!-- Handhole -->
	<Style id="s_handhole">
		<IconStyle>
			<scale>1.1</scale>
			<Icon>
				<href>http://maps.google.com/mapfiles/kml/shapes/placemark_square.png</href>
			</Icon>
			<hotSpot x="15" y="15" xunits="pixels" yunits="pixels"/>
		</IconStyle>
	</Style>
	<Style id="h_handhole">
		<IconStyle>
			<scale>1.3</scale>
			<Icon>
				<href>http://maps.google.com/mapfiles/kml/shapes/placemark_square.png</href>
			</Icon>
			<hotSpot x="15" y="15" xunits="pixels" yunits="pixels"/>
		</IconStyle>
	</Style>
	<StyleMap id="m_handhole">
		<Pair>
			<key>normal</key>
			<styleUrl>#s_handhole</styleUrl>
		</Pair>
		<Pair>
			<key>highlight</key>
			<styleUrl>#h_handhole</styleUrl>
		</Pair>
	</StyleMap>
	
	<!-- STO Building -->
	<Style id="s_sto">
		<IconStyle>
			<scale>1.1</scale>
			<Icon>
				<href>http://maps.google.com/mapfiles/kml/shapes/homegardenbusiness.png</href>
			</Icon>
			<hotSpot x="30" y="40" xunits="pixels" yunits="pixels"/>
		</IconStyle>
	</Style>
	<Style id="h_sto">
		<IconStyle>
			<scale>1.3</scale>
			<Icon>
				<href>http://maps.google.com/mapfiles/kml/shapes/homegardenbusiness.png</href>
			</Icon>
			<hotSpot x="30" y="40" xunits="pixels" yunits="pixels"/>
		</IconStyle>
	</Style>
	<StyleMap id="m_sto">
		<Pair>
			<key>normal</key>
			<styleUrl>#s_sto</styleUrl>
		</Pair>
		<Pair>
			<key>highlight</key>
			<styleUrl>#h_sto</styleUrl>
		</Pair>
	</StyleMap>
	
	<!-- MULTIPLE CABLE TEXT INFO -->
	<Style id="s_multi">
		<IconStyle>
			<scale>1.1</scale>
			<Icon>
				<href>http://maps.google.com/mapfiles/kml/shapes/info-i.png</href>
			</Icon>
			<hotSpot x="30" y="30" xunits="pixels" yunits="pixels"/>
		</IconStyle>
	</Style>
	<Style id="h_multi">
		<IconStyle>
			<scale>1.3</scale>
			<Icon>
				<href>http://maps.google.com/mapfiles/kml/shapes/info-i.png</href>
			</Icon>
			<hotSpot x="30" y="30" xunits="pixels" yunits="pixels"/>
		</IconStyle>
	</Style>
	<StyleMap id="m_multi">
		<Pair>
			<key>normal</key>
			<styleUrl>#s_multi</styleUrl>
		</Pair>
		<Pair>
			<key>highlight</key>
			<styleUrl>#h_multi</styleUrl>
		</Pair>
	</StyleMap>
	
	<!-- Demand Point -->
	<Style id="s_dpoint">
		<IconStyle>
		<color>ffffffff</color>
			<scale>1.1</scale>
			<Icon>
				<href>http://maps.google.com/mapfiles/kml/shapes/open-diamond.png</href>
			</Icon>
			<hotSpot x="30" y="30" xunits="pixels" yunits="pixels"/>
		</IconStyle>
	</Style>
	<Style id="h_dpoint">
		<IconStyle>
		<color>ffffffff</color>
			<scale>1.3</scale>
			<Icon>
				<href>http://maps.google.com/mapfiles/kml/shapes/open-diamond.png</href>
			</Icon>
			<hotSpot x="30" y="30" xunits="pixels" yunits="pixels"/>
		</IconStyle>
	</Style>
	<StyleMap id="m_dpoint">
		<Pair>
			<key>normal</key>
			<styleUrl>#s_dpoint</styleUrl>
		</Pair>
		<Pair>
			<key>highlight</key>
			<styleUrl>#h_dpoint</styleUrl>
		</Pair>
	</StyleMap>
	
	<!-- Tower -->
	<Style id="s_tower">
		<IconStyle>
			<scale>1.1</scale>
			<Icon>
				<href>http://maps.google.com/mapfiles/kml/paddle/T.png</href>
			</Icon>
			<hotSpot x="30" y="30" xunits="pixels" yunits="pixels"/>
		</IconStyle>
	</Style>
	<Style id="h_tower">
		<IconStyle>
			<scale>1.3</scale>
			<Icon>
				<href>http://maps.google.com/mapfiles/kml/paddle/T.png</href>
			</Icon>
			<hotSpot x="30" y="30" xunits="pixels" yunits="pixels"/>
		</IconStyle>
	</Style>
	<StyleMap id="m_tower">
		<Pair>
			<key>normal</key>
			<styleUrl>#s_tower</styleUrl>
		</Pair>
		<Pair>
			<key>highlight</key>
			<styleUrl>#h_tower</styleUrl>
		</Pair>
	</StyleMap>
	
	<!-- Wi-Fi -->
	<Style id="s_wifi">
		<IconStyle>
			<color>ff0000ff</color>
			<scale>1.2</scale>
			<Icon>
				<href>http://maps.google.com/mapfiles/kml/shapes/target.png</href>
			</Icon>
			<hotSpot x="30" y="30" xunits="pixels" yunits="pixels"/>
		</IconStyle>
	</Style>
	<Style id="h_wifi">
		<IconStyle>
			<color>ff0000ff</color>
			<scale>1.4</scale>
			<Icon>
				<href>http://maps.google.com/mapfiles/kml/shapes/target.png</href>
			</Icon>
			<hotSpot x="30" y="30" xunits="pixels" yunits="pixels"/>
		</IconStyle>
	</Style>
	<StyleMap id="m_wifi">
		<Pair>
			<key>normal</key>
			<styleUrl>#s_wifi</styleUrl>
		</Pair>
		<Pair>
			<key>highlight</key>
			<styleUrl>#h_wifi</styleUrl>
		</Pair>
	</StyleMap>
	
	<!-- BTS -->
	<Style id="s_bts">
		<IconStyle>
			<scale>1.2</scale>
			<Icon>
				<href>http://maps.google.com/mapfiles/kml/shapes/picnic.png</href>
			</Icon>
			<hotSpot x="30" y="30" xunits="pixels" yunits="pixels"/>
		</IconStyle>
	</Style>
	<Style id="h_bts">
		<IconStyle>
			<scale>1.4</scale>
			<Icon>
				<href>http://maps.google.com/mapfiles/kml/shapes/picnic.png</href>
			</Icon>
			<hotSpot x="30" y="30" xunits="pixels" yunits="pixels"/>
		</IconStyle>
	</Style>
	<StyleMap id="m_bts">
		<Pair>
			<key>normal</key>
			<styleUrl>#s_bts</styleUrl>
		</Pair>
		<Pair>
			<key>highlight</key>
			<styleUrl>#h_bts</styleUrl>
		</Pair>
	</StyleMap>
	
	<!-- HRB -->
	<Style id="s_hrb">
		<IconStyle>
			<scale>1.2</scale>
			<Icon>
				<href>http://maps.google.com/mapfiles/kml/shapes/ranger_station.png</href>
			</Icon>
			<hotSpot x="30" y="30" xunits="pixels" yunits="pixels"/>
		</IconStyle>
	</Style>
	<Style id="h_hrb">
		<IconStyle>
			<scale>1.4</scale>
			<Icon>
				<href>http://maps.google.com/mapfiles/kml/shapes/ranger_station.png</href>
			</Icon>
			<hotSpot x="30" y="30" xunits="pixels" yunits="pixels"/>
		</IconStyle>
	</Style>
	<StyleMap id="m_hrb">
		<Pair>
			<key>normal</key>
			<styleUrl>#s_hrb</styleUrl>
		</Pair>
		<Pair>
			<key>highlight</key>
			<styleUrl>#h_hrb</styleUrl>
		</Pair>
	</StyleMap>
<Folder>
<name>Tiang</name>
<Folder>
<name>Tiang Baru</name>
</Folder>
<Folder>
<name>Tiang Existing</name>
<Placemark>
<name>TE</name>
<description>
Designator:PU-S7.0-140
Construction Status: In Service
Material Type:Steel
Usage:Telco
</description>
<styleUrl>#m_tiang_e</styleUrl>
<Point>
<coordinates>114.8469988399598,-3.431088871092396,0</coordinates>
</Point>
</Placemark>
<Placemark>
<name>TE</name>
<description>
Designator:PU-S7.0-140
Construction Status: In Service
Material Type:Steel
Usage:Telco
</description>
<styleUrl>#m_tiang_e</styleUrl>
<Point>
<coordinates>114.8469359578899,-3.431370797895473,0</coordinates>
</Point>
</Placemark>
<Placemark>
<name>TE</name>
<description>
Designator:PU-S7.0-140
Construction Status: In Service
Material Type:Steel
Usage:Telco
</description>
<styleUrl>#m_tiang_e</styleUrl>
<Point>
<coordinates>114.8467765069269,-3.431720469607540,0</coordinates>
</Point>
</Placemark>
<Placemark>
<name>TE</name>
<description>
Designator:PU-S7.0-140
Construction Status: In Service
Material Type:Steel
Usage:Telco
</description>
<styleUrl>#m_tiang_e</styleUrl>
<Point>
<coordinates>114.8466459817161,-3.432007331353813,0</coordinates>
</Point>
</Placemark>
<Placemark>
<name>TE</name>
<description>
Designator:PU-S7.0-140
Construction Status: In Service
Material Type:Steel
Usage:Telco
</description>
<styleUrl>#m_tiang_e</styleUrl>
<Point>
<coordinates>114.8465412381540,-3.432252200157771,0</coordinates>
</Point>
</Placemark>
</Folder>
</Folder>
<Folder>
<name>ODP</name>
<Folder>
<name>Feeder</name>
</Folder>
<Folder>
<name>Fiber Catuan Langsung</name>
</Folder>
<Folder>
<name>Distribution</name>
<Placemark>
<name>FU/D07/033.01</name>
<description>
Network Type:Distribution
Specification ID:ODP-CA-16
Type: breaking
Construction Status:In Service
Construction Type:Closure
Splice Type:breaking
Splice Method:Fusion
</description>
<styleUrl>#m_odp</styleUrl>
<Point>
<coordinates>114.8469988399598,-3.431088871092396,0</coordinates>
</Point>
</Placemark>
<Placemark>
<name>FU/D07/043.01</name>
<description>
Network Type:Distribution
Specification ID:ODP-CA-16
Type: breaking
Construction Status:Planned
Construction Type:Closure
Splice Type:breaking
Splice Method:Fusion
</description>
<styleUrl>#m_odp</styleUrl>
<Point>
<coordinates>114.8467765069269,-3.431720469607540,0</coordinates>
</Point>
</Placemark>
<Placemark>
<name>FU/D07/034.01</name>
<description>
Network Type:Distribution
Specification ID:ODP-CA-16
Type: breaking
Construction Status:In Service
Construction Type:Closure
Splice Type:breaking
Splice Method:Fusion
</description>
<styleUrl>#m_odp</styleUrl>
<Point>
<coordinates>114.8465412381540,-3.432252200157771,0</coordinates>
</Point>
</Placemark>
</Folder>
<Folder>
<name>Drop</name>
</Folder>
</Folder>
<Folder>
<name>Kabel</name>
<Folder>
<name>Feeder</name>
</Folder>
<Folder>
<name>Fiber Catuan Langsung</name>
</Folder>
<Folder>
<name>Distribution</name>
<Placemark>
<name>DS-BBR-FE-15-01/07.01.04A</name>
<description>
Network Type: Distribution
Specification: AC-OF-SM-24-SC
Number of Core: 24
Fiber Length: 67m
Construction Status: In Service
</description>
<styleUrl>#m_kabel_e_7</styleUrl>
<LineString>
<tessellate>1</tessellate>
<coordinates>114.8465412381540,-3.432252200157771,0 114.8466459817161,-3.432007331353813,0 114.8466459817161,-3.432007331353813,0 114.8467765069269,-3.431720469607540,0 </coordinates>
</LineString>
</Placemark>
<Placemark>
<name>DS-BBR-FE-15-01/07.01.04</name>
<description>
Network Type: Distribution
Specification: AC-OF-SM-24-SC
Number of Core: 24
Fiber Length: 78m
Construction Status: In Service
</description>
<styleUrl>#m_kabel_e_7</styleUrl>
<LineString>
<tessellate>1</tessellate>
<coordinates>114.8467765069269,-3.431720469607540,0 114.8469359578899,-3.431370797895473,0 114.8469359578899,-3.431370797895473,0 114.8469988399598,-3.431088871092396,0 </coordinates>
</LineString>
</Placemark>
</Folder>
<Folder>
<name>Drop</name>
</Folder>
</Folder>
<Folder>
<name>Misc</name>
<Placemark>
<name>R6-KALIMANTAN SELATAN-KALSEL-BBR-FU-OS299633</name>
<description>
</description>
<styleUrl>#m_proj_area</styleUrl>
<Polygon>
<extrude>1</extrude>
<outerBoundaryIs>
<LinearRing>
<coordinates>114.8463750498265,-3.432384459802857,0 114.8464514964571,-3.432044927556082,0 114.8465830996463,-3.431726750597259,0 114.8467672542795,-3.431387218200950,0 114.8469729684796,-3.430937499168217,0 114.8472192865305,-3.431002103666484,0 114.8470948698636,-3.431238897074433,0 114.8470494151102,-3.431430198125367,0 114.8467959105371,-3.431951610011727,0 114.8465878607172,-3.432468176383550,0 114.8463750498265,-3.432384459802857,0 </coordinates>
</LinearRing>
</outerBoundaryIs>
</Polygon>
</Placemark>
</Folder>
</Document>
</kml>